13905,DIAG135214,1.0,1,59
13905,DIAG252663,1.0,1,59
13905,DIAG318800,1.0,1,59
13905,DIAG319835,1.0,1,59
13905,DIAG320128,1.0,1,59
13905,DIAG373995,1.0,1,59
13905,DIAG374009,1.0,1,59
13905,DIAG374022,1.0,1,59
13905,DIAG40481762,1.0,1,59
13905,DIAG433656,1.0,1,59
13905,DIAG434894,1.0,1,59
13905,DIAG435141,1.0,1,59
13905,DIAG435517,1.0,1,59
13905,DIAG435781,1.0,1,59
13905,DIAG441829,1.0,1,59
13905,DIAG81902,1.0,1,59
13905,DRUG1103314,1.0,1,59
13905,DRUG1112807,1.0,1,55
13905,DRUG1125315,1.0,1,55
13905,DRUG1125315,1.0,1,59
13905,DRUG1167322,1.0,1,59
13905,DRUG1167322,1.0,1,59
13905,DRUG1307046,1.0,1,55
13905,DRUG1369939,1.0,1,59
13905,DRUG1369939,1.0,1,59
13905,DRUG1377141,1.0,1,55
13905,DRUG1377141,1.0,1,56
13905,DRUG1377141,1.0,1,59
13905,DRUG1707164,1.0,1,57
13905,DRUG1707164,1.0,1,59
13905,DRUG1742253,1.0,1,57
13905,DRUG1742253,1.0,1,59
13905,DRUG1742253,1.0,1,59
13905,DRUG1742253,1.0,1,59
13905,DRUG1777806,1.0,1,59
13905,DRUG19036806,1.0,1,56
13905,DRUG19044727,1.0,1,58
13905,DRUG19044727,1.0,1,59
13905,DRUG19044727,1.0,1,59
13905,DRUG19044727,1.0,1,59
13905,DRUG19044727,1.0,1,59
13905,DRUG19044727,1.0,1,59
13905,DRUG19044727,1.0,1,59
13905,DRUG19049105,1.0,1,54
13905,DRUG19049105,1.0,1,55
13905,DRUG19049105,1.0,1,55
13905,DRUG19049105,1.0,1,57
13905,DRUG19049105,1.0,1,58
13905,DRUG19049105,1.0,1,59
13905,DRUG19065818,1.0,1,56
13905,DRUG19079524,1.0,1,57
13905,DRUG19079524,1.0,1,59
13905,DRUG19079524,1.0,1,59
13905,DRUG19095164,1.0,1,57
13905,DRUG19095164,1.0,1,57
13905,DRUG19095164,1.0,1,58
13905,DRUG19095164,1.0,1,59
13905,DRUG19095164,1.0,1,59
13905,DRUG19095164,1.0,1,59
13905,DRUG19095164,1.0,1,59
13905,DRUG19095709,1.0,1,58
13905,DRUG19095709,1.0,1,58
13905,DRUG19126912,1.0,1,59
13905,DRUG19132976,1.0,1,59
13905,DRUG19132976,1.0,1,59
13905,DRUG40227400,1.0,1,56
13905,DRUG43012825,1.0,1,55
13905,DRUG43012825,1.0,1,57
13905,DRUG43012825,1.0,1,58
13905,DRUG725131,1.0,1,59
13905,DRUG725131,1.0,1,59
13905,DRUG725131,1.0,1,59
13905,DRUG750982,1.0,1,59
13905,DRUG750982,1.0,1,59
13905,DRUG750982,1.0,1,59
13905,DRUG766529,1.0,1,59
13905,DRUG938268,1.0,1,59
13905,DRUG948078,1.0,1,59
13905,DRUG948078,1.0,1,59
13905,DRUG956874,1.0,1,59
13905,DRUG997881,1.0,1,59
13905,LAB3000330,1.014,1,42
13905,LAB3000330,1.017,1,59
13905,LAB3000963,10.2,1,57
13905,LAB3000963,10.2,1,58
13905,LAB3000963,11.6,1,40
13905,LAB3000963,11.6,1,56
13905,LAB3000963,11.7,1,41
13905,LAB3000963,11.7,1,56
13905,LAB3000963,11.9,1,55
13905,LAB3000963,12.1,1,54
13905,LAB3000963,13.0,1,60
13905,LAB3000963,13.7,1,39
13905,LAB3000963,14.0,1,42
13905,LAB3000963,7.2,1,59
13905,LAB3000963,7.2,1,59
13905,LAB3000963,7.4,1,59
13905,LAB3000963,9.3,1,58
13905,LAB3000963,9.5,1,59
13905,LAB3000963,9.6,1,59
13905,LAB3000963,9.6,1,59
13905,LAB3001110,145.0,1,60
13905,LAB3001420,1.9,1,59
13905,LAB3001420,2.1,1,54
13905,LAB3001420,2.1,1,57
13905,LAB3001420,2.2,1,39
13905,LAB3001420,2.2,1,56
13905,LAB3001420,2.2,1,58
13905,LAB3001420,2.2,1,60
13905,LAB3001420,2.3,1,41
13905,LAB3001420,2.3,1,55
13905,LAB3001420,2.3,1,58
13905,LAB3002030,3.0,1,42
13905,LAB3002030,3.0,1,59
13905,LAB3002030,4.0,1,39
13905,LAB3002030,5.0,1,41
13905,LAB3002030,6.4,1,58
13905,LAB3002030,8.0,1,60
13905,LAB3002179,1.0,1,42
13905,LAB3002179,2.0,1,39
13905,LAB3002179,2.0,1,59
13905,LAB3002385,17.6,1,58
13905,LAB3002385,17.7,1,57
13905,LAB3002385,17.9,1,42
13905,LAB3002385,18.0,1,60
13905,LAB3002385,18.2,1,59
13905,LAB3002385,18.4,1,39
13905,LAB3002385,18.4,1,56
13905,LAB3002385,18.4,1,59
13905,LAB3002385,18.5,1,56
13905,LAB3002385,18.6,1,55
13905,LAB3002385,18.6,1,58
13905,LAB3002385,18.7,1,40
13905,LAB3002385,18.8,1,41
13905,LAB3002385,18.8,1,59
13905,LAB3002385,19.7,1,54
13905,LAB3002417,15.0,1,56
13905,LAB3002417,15.0,1,58
13905,LAB3002417,15.0,1,59
13905,LAB3002417,15.1,1,58
13905,LAB3002417,15.4,1,57
13905,LAB3002417,15.5,1,56
13905,LAB3002417,15.8,1,60
13905,LAB3002417,15.9,1,59
13905,LAB3002417,16.6,1,59
13905,LAB3002417,16.7,1,41
13905,LAB3003338,30.0,1,39
13905,LAB3003338,30.0,1,59
13905,LAB3003338,30.3,1,59
13905,LAB3003338,30.3,1,59
13905,LAB3003338,30.6,1,60
13905,LAB3003338,30.9,1,55
13905,LAB3003338,31.0,1,40
13905,LAB3003338,31.0,1,56
13905,LAB3003338,31.5,1,42
13905,LAB3003338,31.5,1,56
13905,LAB3003338,31.7,1,41
13905,LAB3003338,32.0,1,57
13905,LAB3003338,32.3,1,58
13905,LAB3003338,32.4,1,54
13905,LAB3003338,34.3,1,58
13905,LAB3004501,105.0,1,56
13905,LAB3004501,113.0,1,59
13905,LAB3004501,114.0,1,58
13905,LAB3004501,147.0,1,42
13905,LAB3004501,43.0,1,40
13905,LAB3004501,53.0,1,39
13905,LAB3004501,56.0,1,54
13905,LAB3004501,60.0,1,41
13905,LAB3004501,70.0,1,55
13905,LAB3004501,77.0,1,58
13905,LAB3004501,92.0,1,60
13905,LAB3004501,99.0,1,57
13905,LAB3004809,1.0,1,41
13905,LAB3004809,3.0,1,42
13905,LAB3004809,3.0,1,59
13905,LAB3004809,4.0,1,59
13905,LAB3004809,7.0,1,60
13905,LAB3005897,30.0,1,42
13905,LAB3006504,0.5,1,58
13905,LAB3006504,1.0,1,39
13905,LAB3006504,1.0,1,42
13905,LAB3006504,1.0,1,59
13905,LAB3006504,1.0,1,60
13905,LAB3006906,7.8,1,54
13905,LAB3006906,7.8,1,56
13905,LAB3006906,7.8,1,57
13905,LAB3006906,7.9,1,55
13905,LAB3006906,7.9,1,58
13905,LAB3006906,8.0,1,39
13905,LAB3006906,8.2,1,41
13905,LAB3006906,8.6,1,58
13905,LAB3006906,8.6,1,59
13905,LAB3006906,8.8,1,59
13905,LAB3006906,9.6,1,60
13905,LAB3006923,17.0,1,60
13905,LAB3007124,2.0,1,58
13905,LAB3007124,2.5,1,59
13905,LAB3007220,21.0,1,42
13905,LAB3007461,231.0,1,41
13905,LAB3007461,242.0,1,40
13905,LAB3007461,267.0,1,39
13905,LAB3007461,309.0,1,57
13905,LAB3007461,312.0,1,42
13905,LAB3007461,315.0,1,55
13905,LAB3007461,322.0,1,54
13905,LAB3007461,343.0,1,56
13905,LAB3007461,348.0,1,58
13905,LAB3007461,353.0,1,58
13905,LAB3007461,408.0,1,59
13905,LAB3007461,416.0,1,60
13905,LAB3007461,492.0,1,59
13905,LAB3007461,525.0,1,59
13905,LAB3009542,22.0,1,59
13905,LAB3009542,22.0,1,59
13905,LAB3009542,24.1,1,59
13905,LAB3009542,27.1,1,58
13905,LAB3009542,29.0,1,59
13905,LAB3009542,29.9,1,58
13905,LAB3009542,31.3,1,59
13905,LAB3009542,31.4,1,58
13905,LAB3009542,31.5,1,59
13905,LAB3009542,31.8,1,57
13905,LAB3009542,33.4,1,57
13905,LAB3009542,36.0,1,41
13905,LAB3009542,36.8,1,56
13905,LAB3009542,37.0,1,41
13905,LAB3009542,37.3,1,40
13905,LAB3009542,37.3,1,54
13905,LAB3009542,37.3,1,57
13905,LAB3009542,37.6,1,56
13905,LAB3009542,38.5,1,55
13905,LAB3009542,42.4,1,60
13905,LAB3009542,44.4,1,42
13905,LAB3009542,45.8,1,39
13905,LAB3010813,20.4,1,42
13905,LAB3010813,24.2,1,41
13905,LAB3010813,24.8,1,58
13905,LAB3010813,32.9,1,57
13905,LAB3010813,33.6,1,58
13905,LAB3010813,34.2,1,59
13905,LAB3010813,35.8,1,60
13905,LAB3010813,35.9,1,40
13905,LAB3010813,36.0,1,59
13905,LAB3010813,38.4,1,56
13905,LAB3010813,39.0,1,56
13905,LAB3010813,39.6,1,54
13905,LAB3010813,39.8,1,55
13905,LAB3010813,41.8,1,59
13905,LAB3010813,46.0,1,39
13905,LAB3011904,2.2,1,56
13905,LAB3011904,2.2,1,57
13905,LAB3011904,2.3,1,58
13905,LAB3011904,2.5,1,39
13905,LAB3011904,2.5,1,55
13905,LAB3011904,2.6,1,58
13905,LAB3011904,3.0,1,54
13905,LAB3011904,3.0,1,59
13905,LAB3011904,3.4,1,41
13905,LAB3011904,4.1,1,60
13905,LAB3012336,54.0,1,59
13905,LAB3012336,71.0,1,58
13905,LAB3013466,27.0,1,56
13905,LAB3013466,31.1,1,56
13905,LAB3013466,33.8,1,59
13905,LAB3013466,34.0,1,58
13905,LAB3013466,34.1,1,57
13905,LAB3013466,36.3,1,58
13905,LAB3013466,37.2,1,59
13905,LAB3013466,38.7,1,60
13905,LAB3013466,39.5,1,59
13905,LAB3013466,40.9,1,41
13905,LAB3013498,1.0,1,41
13905,LAB3013682,12.0,1,39
13905,LAB3013682,13.0,1,55
13905,LAB3013682,14.0,1,54
13905,LAB3013682,16.0,1,56
13905,LAB3013682,18.0,1,40
13905,LAB3013682,18.0,1,41
13905,LAB3013682,20.0,1,42
13905,LAB3013682,26.0,1,57
13905,LAB3013682,31.0,1,58
13905,LAB3013682,36.0,1,60
13905,LAB3013682,40.0,1,58
13905,LAB3013682,54.0,1,59
13905,LAB3013721,27.0,1,60
13905,LAB3015736,5.0,1,42
13905,LAB3015736,5.0,1,59
13905,LAB3016293,18.0,1,39
13905,LAB3016293,18.0,1,54
13905,LAB3016293,18.0,1,55
13905,LAB3016293,19.0,1,56
13905,LAB3016293,19.0,1,58
13905,LAB3016293,21.0,1,40
13905,LAB3016293,21.0,1,42
13905,LAB3016293,21.0,1,57
13905,LAB3016293,21.0,1,59
13905,LAB3016293,22.0,1,58
13905,LAB3016293,25.0,1,41
13905,LAB3016293,25.0,1,60
13905,LAB3016407,186.0,1,60
13905,LAB3016407,190.0,1,59
13905,LAB3016407,279.0,1,41
13905,LAB3016407,283.0,1,58
13905,LAB3016436,277.0,1,59
13905,LAB3016436,339.0,1,60
13905,LAB3016436,421.0,1,58
13905,LAB3016723,0.5,1,39
13905,LAB3016723,0.5,1,40
13905,LAB3016723,0.5,1,41
13905,LAB3016723,0.5,1,55
13905,LAB3016723,0.5,1,57
13905,LAB3016723,0.6,1,42
13905,LAB3016723,0.6,1,54
13905,LAB3016723,0.6,1,56
13905,LAB3016723,0.6,1,58
13905,LAB3016723,0.6,1,58
13905,LAB3016723,0.6,1,59
13905,LAB3016723,0.7,1,60
13905,LAB3017181,1.0,1,39
13905,LAB3017181,2.0,1,59
13905,LAB3017181,2.0,1,59
13905,LAB3017354,79.0,1,60
13905,LAB3017354,87.0,1,41
13905,LAB3017354,87.0,1,59
13905,LAB3017354,89.0,1,39
13905,LAB3017354,89.0,1,42
13905,LAB3017354,91.0,1,58
13905,LAB3017354,91.0,1,59
13905,LAB3018572,104.0,1,60
13905,LAB3018572,106.0,1,39
13905,LAB3018572,108.0,1,42
13905,LAB3018572,110.0,1,59
13905,LAB3018572,113.0,1,40
13905,LAB3018572,113.0,1,41
13905,LAB3018572,113.0,1,54
13905,LAB3018572,114.0,1,55
13905,LAB3018572,114.0,1,56
13905,LAB3018572,114.0,1,57
13905,LAB3018572,114.0,1,58
13905,LAB3018572,118.0,1,58
13905,LAB3019069,1.0,1,59
13905,LAB3019069,1.5,1,58
13905,LAB3019069,2.0,1,42
13905,LAB3019069,2.0,1,60
13905,LAB3019069,3.0,1,39
13905,LAB3019069,4.0,1,59
13905,LAB3019069,5.0,1,41
13905,LAB3019550,141.0,1,59
13905,LAB3019550,141.0,1,60
13905,LAB3019550,142.0,1,42
13905,LAB3019550,142.0,1,54
13905,LAB3019550,143.0,1,55
13905,LAB3019550,144.0,1,39
13905,LAB3019550,145.0,1,41
13905,LAB3019550,146.0,1,56
13905,LAB3019550,146.0,1,57
13905,LAB3019550,147.0,1,58
13905,LAB3019550,148.0,1,40
13905,LAB3019550,149.0,1,41
13905,LAB3019550,150.0,1,58
13905,LAB3022096,0.6,1,58
13905,LAB3022096,1.0,1,41
13905,LAB3022096,1.0,1,42
13905,LAB3022096,3.0,1,60
13905,LAB3023103,3.4,1,39
13905,LAB3023103,3.4,1,54
13905,LAB3023103,3.4,1,55
13905,LAB3023103,3.4,1,58
13905,LAB3023103,3.6,1,41
13905,LAB3023103,3.6,1,57
13905,LAB3023103,3.7,1,40
13905,LAB3023103,3.9,1,58
13905,LAB3023103,4.2,1,42
13905,LAB3023103,4.5,1,59
13905,LAB3023103,4.7,1,56
13905,LAB3023103,4.9,1,60
13905,LAB3024128,0.5,1,60
13905,LAB3024128,0.7,1,58
13905,LAB3024561,3.5,1,54
13905,LAB3024561,4.5,1,60
13905,LAB3024731,81.0,1,58
13905,LAB3024731,84.0,1,59
13905,LAB3024731,85.0,1,42
13905,LAB3024731,85.0,1,58
13905,LAB3024731,85.0,1,59
13905,LAB3024731,85.0,1,60
13905,LAB3024731,86.0,1,41
13905,LAB3024731,86.0,1,57
13905,LAB3024731,86.0,1,59
13905,LAB3024731,87.0,1,40
13905,LAB3024731,88.0,1,39
13905,LAB3024731,88.0,1,56
13905,LAB3024731,89.0,1,54
13905,LAB3024731,89.0,1,56
13905,LAB3024731,90.0,1,55
13905,LAB3026361,2.86,1,59
13905,LAB3026361,3.34,1,58
13905,LAB3026361,3.66,1,59
13905,LAB3026361,3.69,1,58
13905,LAB3026361,3.69,1,59
13905,LAB3026361,3.72,1,57
13905,LAB3026361,4.19,1,54
13905,LAB3026361,4.2,1,56
13905,LAB3026361,4.26,1,40
13905,LAB3026361,4.26,1,56
13905,LAB3026361,4.28,1,55
13905,LAB3026361,4.3,1,41
13905,LAB3026361,4.97,1,60
13905,LAB3026361,5.18,1,39
13905,LAB3026361,5.24,1,42
13905,LAB3028658,1.0,1,42
13905,LAB3028658,1.0,1,60
13905,LAB3032080,1.5,1,56
13905,LAB3032080,1.5,1,58
13905,LAB3032080,1.5,1,58
13905,LAB3032080,1.5,1,59
13905,LAB3032080,1.6,1,56
13905,LAB3032080,1.6,1,57
13905,LAB3032080,1.7,1,59
13905,LAB3032080,1.7,1,60
13905,LAB3032080,1.9,1,41
13905,LAB3032080,1.9,1,59
13905,LAB3035941,25.3,1,59
13905,LAB3035941,25.9,1,59
13905,LAB3035941,25.9,1,59
13905,LAB3035941,26.1,1,60
13905,LAB3035941,26.5,1,39
13905,LAB3035941,26.6,1,42
13905,LAB3035941,27.1,1,40
13905,LAB3035941,27.3,1,41
13905,LAB3035941,27.3,1,57
13905,LAB3035941,27.4,1,56
13905,LAB3035941,27.5,1,56
13905,LAB3035941,27.5,1,58
13905,LAB3035941,27.8,1,55
13905,LAB3035941,27.8,1,58
13905,LAB3035941,28.8,1,54
13905,LAB3036489,18.4,1,59
13905,LAB3036489,18.5,1,55
13905,LAB3037556,5.2,1,59
13905,LAB3039000,14.0,1,54
13905,LAB3039000,14.0,1,55
13905,LAB3039000,14.0,1,58
13905,LAB3039000,15.0,1,41
13905,LAB3039000,15.0,1,57
13905,LAB3039000,15.0,1,59
13905,LAB3039000,17.0,1,42
13905,LAB3039000,17.0,1,58
13905,LAB3039000,17.0,1,60
13905,LAB3039000,18.0,1,40
13905,LAB3039000,18.0,1,56
13905,LAB3039000,23.0,1,39
13905,LAB3047181,1.0,1,41
13905,LAB3047181,1.8,1,59
13905,LAB3047181,3.1,1,42
13905,LAB3051714,1024.0,1,41
13905,LAB3051714,253.0,1,59
13905,LAB3051714,331.0,1,59
18676,DIAG132797,1.0,1,20
18676,DIAG132797,1.0,1,20
18676,DIAG137829,1.0,1,20
18676,DIAG141499,1.0,1,20
18676,DIAG196236,1.0,1,20
18676,DIAG198185,1.0,1,20
18676,DIAG201826,1.0,1,20
18676,DIAG256723,1.0,1,20
18676,DIAG313217,1.0,1,20
18676,DIAG315295,1.0,1,20
18676,DIAG320115,1.0,1,20
18676,DIAG40492322,1.0,1,20
18676,DIAG434821,1.0,1,20
18676,DIAG437899,1.0,1,20
18676,DIAG438111,1.0,1,20
18676,DIAG443535,1.0,1,20
18676,DIAG444246,1.0,1,20
18676,DRUG1112807,1.0,1,20
18676,DRUG1125315,1.0,1,20
18676,DRUG1307046,1.0,1,17
18676,DRUG1307046,1.0,1,18
18676,DRUG1310149,1.0,1,11
18676,DRUG1310149,1.0,1,12
18676,DRUG1310149,1.0,1,15
18676,DRUG1310149,1.0,1,19
18676,DRUG1337860,1.0,1,20
18676,DRUG1516766,1.0,1,11
18676,DRUG1526475,1.0,1,20
18676,DRUG1742253,1.0,1,15
18676,DRUG1742253,1.0,1,17
18676,DRUG19011130,1.0,1,12
18676,DRUG19011130,1.0,1,14
18676,DRUG19011130,1.0,1,14
18676,DRUG19011130,1.0,1,16
18676,DRUG19011130,1.0,1,16
18676,DRUG19011130,1.0,1,17
18676,DRUG19011130,1.0,1,17
18676,DRUG19011130,1.0,1,20
18676,DRUG19026848,1.0,1,10
18676,DRUG19026848,1.0,1,20
18676,DRUG19049105,1.0,1,11
18676,DRUG19049105,1.0,1,15
18676,DRUG19049105,1.0,1,16
18676,DRUG19049105,1.0,1,16
18676,DRUG19049105,1.0,1,20
18676,DRUG19049105,1.0,1,20
18676,DRUG19052424,1.0,1,20
18676,DRUG19055137,1.0,1,20
18676,DRUG19079524,1.0,1,19
18676,DRUG19095164,1.0,1,20
18676,DRUG19111620,1.0,1,20
18676,DRUG19122121,1.0,1,11
18676,DRUG19122121,1.0,1,11
18676,DRUG19122121,1.0,1,11
18676,DRUG19122121,1.0,1,15
18676,DRUG19122121,1.0,1,15
18676,DRUG19122121,1.0,1,17
18676,DRUG19122121,1.0,1,17
18676,DRUG19122121,1.0,1,20
18676,DRUG19123989,1.0,1,20
18676,DRUG19125200,1.0,1,17
18676,DRUG19125200,1.0,1,20
18676,DRUG19126912,1.0,1,20
18676,DRUG19132900,1.0,1,11
18676,DRUG19132900,1.0,1,11
18676,DRUG19132900,1.0,1,14
18676,DRUG19135832,1.0,1,20
18676,DRUG43012825,1.0,1,11
18676,DRUG43012825,1.0,1,11
18676,DRUG43012825,1.0,1,14
18676,DRUG919345,1.0,1,12
18676,DRUG919345,1.0,1,14
18676,DRUG919345,1.0,1,14
18676,DRUG919345,1.0,1,16
18676,DRUG919345,1.0,1,16
18676,DRUG919345,1.0,1,17
18676,DRUG919345,1.0,1,17
18676,DRUG919345,1.0,1,20
18676,DRUG924939,1.0,1,20
18676,DRUG924939,1.0,1,20
18676,DRUG948078,1.0,1,20
18676,DRUG956874,1.0,1,11
18676,DRUG956874,1.0,1,11
18676,DRUG956874,1.0,1,14
18676,DRUG956874,1.0,1,15
18676,DRUG956874,1.0,1,16
18676,DRUG956874,1.0,1,17
18676,DRUG956874,1.0,1,19
18676,DRUG956874,1.0,1,19
18676,DRUG987245,1.0,1,13
18676,DRUG987245,1.0,1,20
18676,DRUG987245,1.0,1,20
18676,LAB3000330,1.01,1,20
18676,LAB3000330,1.013,1,17
18676,LAB3000330,1.015,1,16
18676,LAB3000963,10.1,1,17
18676,LAB3000963,10.3,1,12
18676,LAB3000963,10.5,1,10
18676,LAB3000963,10.6,1,14
18676,LAB3000963,10.7,1,18
18676,LAB3000963,10.9,1,11
18676,LAB3000963,11.3,1,13
18676,LAB3000963,11.7,1,15
18676,LAB3000963,9.0,1,19
18676,LAB3000963,9.1,1,20
18676,LAB3000963,9.4,1,16
18676,LAB3000963,9.7,1,20
18676,LAB3001110,132.0,1,20
18676,LAB3001110,138.0,1,18
18676,LAB3001110,139.0,1,16
18676,LAB3001110,148.0,1,20
18676,LAB3001420,2.0,1,15
18676,LAB3001420,2.0,1,16
18676,LAB3001420,2.0,1,18
18676,LAB3001420,2.0,1,20
18676,LAB3001420,2.1,1,10
18676,LAB3001420,2.1,1,12
18676,LAB3001420,2.1,1,13
18676,LAB3001420,2.1,1,14
18676,LAB3001420,2.1,1,17
18676,LAB3001420,2.1,1,19
18676,LAB3001420,2.1,1,20
18676,LAB3001420,2.2,1,11
18676,LAB3002030,5.0,1,18
18676,LAB3002030,5.0,1,20
18676,LAB3002030,7.8,1,17
18676,LAB3002030,8.1,1,16
18676,LAB3002030,8.3,1,15
18676,LAB3002385,15.1,1,20
18676,LAB3002385,15.4,1,19
18676,LAB3002385,15.5,1,20
18676,LAB3002385,15.8,1,17
18676,LAB3002385,16.0,1,16
18676,LAB3002385,16.2,1,18
18676,LAB3002385,16.6,1,14
18676,LAB3002385,16.7,1,11
18676,LAB3002385,16.8,1,15
18676,LAB3002385,17.1,1,12
18676,LAB3002385,17.2,1,10
18676,LAB3002385,17.2,1,13
18676,LAB3002417,17.4,1,20
18676,LAB3002417,17.5,1,19
18676,LAB3002417,17.6,1,10
18676,LAB3002417,18.0,1,20
18676,LAB3002417,18.3,1,18
18676,LAB3002417,19.4,1,11
18676,LAB3002417,20.7,1,17
18676,LAB3002417,21.9,1,15
18676,LAB3002417,22.0,1,12
18676,LAB3002417,22.3,1,14
18676,LAB3002417,23.2,1,13
18676,LAB3002417,25.5,1,16
18676,LAB3003181,55.0,1,20
18676,LAB3003338,33.1,1,16
18676,LAB3003338,33.4,1,13
18676,LAB3003338,33.4,1,20
18676,LAB3003338,33.5,1,12
18676,LAB3003338,33.9,1,17
18676,LAB3003338,34.0,1,20
18676,LAB3003338,34.1,1,10
18676,LAB3003338,34.1,1,14
18676,LAB3003338,34.7,1,18
18676,LAB3003338,34.9,1,19
18676,LAB3003338,35.3,1,11
18676,LAB3003338,35.3,1,15
18676,LAB3004501,101.0,1,13
18676,LAB3004501,102.0,1,18
18676,LAB3004501,109.0,1,16
18676,LAB3004501,119.0,1,20
18676,LAB3004501,130.0,1,19
18676,LAB3004501,160.0,1,20
18676,LAB3004501,166.0,1,20
18676,LAB3004501,173.0,1,15
18676,LAB3004501,218.0,1,19
18676,LAB3004501,231.0,1,17
18676,LAB3004501,61.0,1,10
18676,LAB3004501,75.0,1,14
18676,LAB3004501,86.0,1,12
18676,LAB3004501,95.0,1,11
18676,LAB3004809,2.0,1,18
18676,LAB3004809,2.0,1,20
18676,LAB3004905,13.0,1,16
18676,LAB3004905,21.0,1,20
18676,LAB3005715,13.9,1,19
18676,LAB3005715,14.3,1,19
18676,LAB3005715,15.7,1,20
18676,LAB3005715,16.3,1,17
18676,LAB3005715,17.6,1,16
18676,LAB3005715,17.8,1,18
18676,LAB3006504,0.7,1,16
18676,LAB3006504,0.9,1,17
18676,LAB3006504,1.6,1,15
18676,LAB3006504,2.0,1,18
18676,LAB3006906,7.6,1,15
18676,LAB3006906,7.8,1,11
18676,LAB3006906,7.8,1,12
18676,LAB3006906,7.9,1,14
18676,LAB3006906,8.0,1,10
18676,LAB3006906,8.0,1,20
18676,LAB3006906,8.1,1,16
18676,LAB3006906,8.1,1,20
18676,LAB3006906,8.2,1,17
18676,LAB3006906,8.3,1,13
18676,LAB3006906,8.3,1,19
18676,LAB3006906,8.3,1,20
18676,LAB3006906,8.4,1,18
18676,LAB3006923,27.0,1,16
18676,LAB3006923,32.0,1,20
18676,LAB3006923,34.0,1,18
18676,LAB3006923,34.0,1,20
18676,LAB3007220,135.0,1,19
18676,LAB3007220,163.0,1,20
18676,LAB3007220,215.0,1,20
18676,LAB3007220,303.0,1,20
18676,LAB3007461,102.0,1,20
18676,LAB3007461,105.0,1,14
18676,LAB3007461,106.0,1,13
18676,LAB3007461,106.0,1,18
18676,LAB3007461,115.0,1,10
18676,LAB3007461,119.0,1,12
18676,LAB3007461,125.0,1,11
18676,LAB3007461,79.0,1,16
18676,LAB3007461,80.0,1,20
18676,LAB3007461,85.0,1,17
18676,LAB3007461,86.0,1,19
18676,LAB3007461,96.0,1,15
18676,LAB3009542,25.8,1,19
18676,LAB3009542,27.3,1,20
18676,LAB3009542,28.5,1,16
18676,LAB3009542,28.7,1,20
18676,LAB3009542,29.7,1,15
18676,LAB3009542,29.8,1,17
18676,LAB3009542,30.8,1,11
18676,LAB3009542,30.8,1,12
18676,LAB3009542,30.9,1,10
18676,LAB3009542,30.9,1,18
18676,LAB3009542,31.0,1,14
18676,LAB3009542,32.8,1,17
18676,LAB3009542,33.1,1,15
18676,LAB3009542,34.0,1,13
18676,LAB3009682,17.5,1,20
18676,LAB3010189,1.0,1,20
18676,LAB3010813,1.7,1,19
18676,LAB3010813,1.9,1,20
18676,LAB3010813,2.2,1,18
18676,LAB3010813,2.6,1,14
18676,LAB3010813,2.8,1,20
18676,LAB3010813,3.2,1,17
18676,LAB3010813,3.4,1,11
18676,LAB3010813,3.5,1,15
18676,LAB3010813,3.5,1,16
18676,LAB3010813,3.6,1,12
18676,LAB3010813,4.1,1,10
18676,LAB3010813,4.3,1,13
18676,LAB3011152,1638.0,1,15
18676,LAB3011904,2.3,1,18
18676,LAB3011904,2.4,1,15
18676,LAB3011904,2.5,1,17
18676,LAB3011904,2.6,1,14
18676,LAB3011904,2.7,1,19
18676,LAB3011904,2.9,1,13
18676,LAB3011904,3.0,1,16
18676,LAB3011904,3.4,1,10
18676,LAB3011904,3.4,1,20
18676,LAB3011904,3.5,1,12
18676,LAB3011904,3.5,1,20
18676,LAB3011904,4.0,1,11
18676,LAB3011965,403.0,1,20
18676,LAB3013466,35.6,1,10
18676,LAB3013466,37.4,1,19
18676,LAB3013466,37.7,1,18
18676,LAB3013466,37.8,1,20
18676,LAB3013466,40.0,1,11
18676,LAB3013466,40.2,1,20
18676,LAB3013466,40.7,1,15
18676,LAB3013466,41.7,1,12
18676,LAB3013466,42.5,1,14
18676,LAB3013466,43.1,1,13
18676,LAB3013466,44.4,1,17
18676,LAB3013466,60.2,1,16
18676,LAB3013682,29.0,1,18
18676,LAB3013682,33.0,1,19
18676,LAB3013682,34.0,1,16
18676,LAB3013682,34.0,1,17
18676,LAB3013682,35.0,1,19
18676,LAB3013682,36.0,1,20
18676,LAB3013682,37.0,1,14
18676,LAB3013682,37.0,1,20
18676,LAB3013682,37.0,1,20
18676,LAB3013682,39.0,1,13
18676,LAB3013682,39.0,1,15
18676,LAB3013682,41.0,1,11
18676,LAB3013682,41.0,1,12
18676,LAB3013682,42.0,1,10
18676,LAB3013721,44.0,1,16
18676,LAB3013721,53.0,1,20
18676,LAB3013721,60.0,1,18
18676,LAB3013721,61.0,1,20
18676,LAB3015736,5.0,1,16
18676,LAB3015736,5.0,1,20
18676,LAB3015736,6.5,1,17
18676,LAB3016293,29.0,1,13
18676,LAB3016293,30.0,1,11
18676,LAB3016293,30.0,1,12
18676,LAB3016293,31.0,1,10
18676,LAB3016293,31.0,1,14
18676,LAB3016293,31.0,1,15
18676,LAB3016293,31.0,1,17
18676,LAB3016293,31.0,1,20
18676,LAB3016293,32.0,1,18
18676,LAB3016293,32.0,1,19
18676,LAB3016293,32.0,1,19
18676,LAB3016293,33.0,1,16
18676,LAB3016293,33.0,1,20
18676,LAB3016293,34.0,1,20
18676,LAB3016436,326.0,1,20
18676,LAB3016723,1.7,1,18
18676,LAB3016723,1.7,1,19
18676,LAB3016723,1.7,1,19
18676,LAB3016723,1.8,1,17
18676,LAB3016723,1.8,1,20
18676,LAB3016723,1.9,1,15
18676,LAB3016723,1.9,1,16
18676,LAB3016723,1.9,1,20
18676,LAB3016723,2.0,1,12
18676,LAB3016723,2.0,1,13
18676,LAB3016723,2.0,1,14
18676,LAB3016723,2.0,1,20
18676,LAB3016723,2.2,1,11
18676,LAB3016723,2.3,1,10
18676,LAB3016771,128.0,1,20
18676,LAB3016771,69.0,1,16
18676,LAB3017250,45.0,1,20
18676,LAB3017354,83.0,1,20
18676,LAB3017354,84.0,1,18
18676,LAB3017354,84.6,1,15
18676,LAB3017354,86.6,1,16
18676,LAB3017354,86.6,1,17
18676,LAB3018572,100.0,1,14
18676,LAB3018572,100.0,1,17
18676,LAB3018572,100.0,1,20
18676,LAB3018572,101.0,1,10
18676,LAB3018572,101.0,1,12
18676,LAB3018572,101.0,1,16
18676,LAB3018572,102.0,1,19
18676,LAB3018572,103.0,1,18
18676,LAB3018572,103.0,1,19
18676,LAB3018572,96.0,1,15
18676,LAB3018572,98.0,1,13
18676,LAB3018572,98.0,1,20
18676,LAB3018572,99.0,1,11
18676,LAB3018572,99.0,1,20
18676,LAB3019069,4.4,1,16
18676,LAB3019069,4.5,1,17
18676,LAB3019069,5.4,1,15
18676,LAB3019069,7.0,1,18
18676,LAB3019069,9.0,1,20
18676,LAB3019550,134.0,1,15
18676,LAB3019550,137.0,1,13
18676,LAB3019550,137.0,1,14
18676,LAB3019550,137.0,1,20
18676,LAB3019550,137.0,1,20
18676,LAB3019550,138.0,1,17
18676,LAB3019550,138.0,1,20
18676,LAB3019550,139.0,1,10
18676,LAB3019550,139.0,1,11
18676,LAB3019550,139.0,1,12
18676,LAB3019550,140.0,1,16
18676,LAB3019550,140.0,1,19
18676,LAB3019550,140.0,1,19
18676,LAB3019550,141.0,1,18
18676,LAB3022096,0.1,1,15
18676,LAB3022096,0.2,1,17
18676,LAB3022096,1.0,1,20
18676,LAB3023103,3.0,1,20
18676,LAB3023103,3.3,1,11
18676,LAB3023103,3.4,1,20
18676,LAB3023103,3.5,1,12
18676,LAB3023103,3.5,1,20
18676,LAB3023103,3.7,1,10
18676,LAB3023103,3.7,1,19
18676,LAB3023103,3.9,1,13
18676,LAB3023103,3.9,1,15
18676,LAB3023103,3.9,1,16
18676,LAB3023103,3.9,1,19
18676,LAB3023103,4.0,1,14
18676,LAB3023103,4.0,1,18
18676,LAB3023103,4.1,1,17
18676,LAB3024128,1.5,1,18
18676,LAB3024128,1.8,1,20
18676,LAB3024128,1.9,1,16
18676,LAB3024128,2.1,1,20
18676,LAB3024561,2.9,1,20
18676,LAB3024731,102.0,1,11
18676,LAB3024731,102.0,1,14
18676,LAB3024731,102.0,1,15
18676,LAB3024731,104.0,1,13
18676,LAB3024731,105.0,1,10
18676,LAB3024731,105.0,1,12
18676,LAB3024731,107.0,1,17
18676,LAB3024731,107.0,1,18
18676,LAB3024731,109.0,1,20
18676,LAB3024731,110.0,1,16
18676,LAB3024731,110.0,1,19
18676,LAB3024731,110.0,1,20
18676,LAB3026361,2.35,1,19
18676,LAB3026361,2.5,1,20
18676,LAB3026361,2.58,1,16
18676,LAB3026361,2.61,1,20
18676,LAB3026361,2.78,1,17
18676,LAB3026361,2.89,1,18
18676,LAB3026361,2.94,1,12
18676,LAB3026361,2.95,1,10
18676,LAB3026361,3.01,1,11
18676,LAB3026361,3.03,1,14
18676,LAB3026361,3.23,1,15
18676,LAB3026361,3.26,1,13
18676,LAB3026910,100.0,1,16
18676,LAB3032080,1.9,1,19
18676,LAB3032080,1.9,1,20
18676,LAB3032080,2.0,1,10
18676,LAB3032080,2.1,1,18
18676,LAB3032080,2.1,1,20
18676,LAB3032080,2.4,1,11
18676,LAB3032080,2.7,1,17
18676,LAB3032080,3.0,1,15
18676,LAB3032080,3.1,1,12
18676,LAB3032080,3.2,1,14
18676,LAB3032080,3.4,1,13
18676,LAB3032080,4.1,1,16
18676,LAB3033236,4.0,1,20
18676,LAB3033236,5.0,1,19
18676,LAB3033236,5.0,1,20
18676,LAB3033236,6.0,1,20
18676,LAB3035510,0.9,1,20
18676,LAB3035510,1.0,1,14
18676,LAB3035510,1.1,1,18
18676,LAB3035510,1.2,1,11
18676,LAB3035510,1.5,1,15
18676,LAB3035510,3.6,1,15
18676,LAB3035510,3.7,1,14
18676,LAB3035510,4.4,1,18
18676,LAB3035941,34.7,1,13
18676,LAB3035941,35.0,1,14
18676,LAB3035941,35.1,1,12
18676,LAB3035941,35.7,1,10
18676,LAB3035941,36.1,1,11
18676,LAB3035941,36.1,1,15
18676,LAB3035941,36.3,1,17
18676,LAB3035941,36.4,1,20
18676,LAB3035941,36.5,1,16
18676,LAB3035941,37.1,1,18
18676,LAB3035941,37.4,1,20
18676,LAB3035941,38.3,1,19
18676,LAB3039000,10.0,1,14
18676,LAB3039000,10.0,1,16
18676,LAB3039000,10.0,1,18
18676,LAB3039000,10.0,1,19
18676,LAB3039000,11.0,1,10
18676,LAB3039000,11.0,1,15
18676,LAB3039000,11.0,1,17
18676,LAB3039000,12.0,1,12
18676,LAB3039000,12.0,1,20
18676,LAB3039000,13.0,1,11
18676,LAB3039000,14.0,1,13
18676,LAB3039000,7.0,1,20
18676,LAB3039000,8.0,1,20
18676,LAB3039000,9.0,1,19
18676,LAB3047181,2.2,1,20
18676,LAB3048529,0.06,1,18
18676,LAB3048529,0.07,1,19
18676,LAB3048529,0.08,1,20
18676,LAB3048529,0.08,1,20
18676,LAB3048529,0.09,1,20
20301,DIAG201826,1.0,1,739
20301,DIAG255573,1.0,1,739
20301,DIAG313217,1.0,1,739
20301,DIAG315286,1.0,1,739
20301,DIAG317002,1.0,1,739
20301,DIAG317576,1.0,1,739
20301,DIAG319835,1.0,1,739
20301,DIAG319843,1.0,1,739
20301,DIAG42872402,1.0,1,739
20301,DIAG437579,1.0,1,739
20301,DRUG1112807,1.0,1,725
20301,DRUG1112807,1.0,1,729
20301,DRUG1112807,1.0,1,739
20301,DRUG1125315,1.0,1,739
20301,DRUG1307046,1.0,1,721
20301,DRUG1307046,1.0,1,730
20301,DRUG1307046,1.0,1,730
20301,DRUG1307046,1.0,1,730
20301,DRUG1307046,1.0,1,730
20301,DRUG1307046,1.0,1,731
20301,DRUG1307046,1.0,1,739
20301,DRUG1307046,1.0,1,739
20301,DRUG1308216,1.0,1,719
20301,DRUG1308216,1.0,1,723
20301,DRUG1308216,1.0,1,725
20301,DRUG1308216,1.0,1,739
20301,DRUG1321341,1.0,1,735
20301,DRUG1322199,1.0,1,729
20301,DRUG1340128,1.0,1,733
20301,DRUG1340128,1.0,1,739
20301,DRUG1545958,1.0,1,730
20301,DRUG1545958,1.0,1,739
20301,DRUG1589795,1.0,1,735
20301,DRUG1742253,1.0,1,728
20301,DRUG1742253,1.0,1,728
20301,DRUG1742253,1.0,1,739
20301,DRUG19018119,1.0,1,729
20301,DRUG19026848,1.0,1,735
20301,DRUG19026848,1.0,1,739
20301,DRUG19049105,1.0,1,723
20301,DRUG19049105,1.0,1,724
20301,DRUG19049105,1.0,1,724
20301,DRUG19049105,1.0,1,738
20301,DRUG19052618,1.0,1,738
20301,DRUG19055137,1.0,1,722
20301,DRUG19055137,1.0,1,725
20301,DRUG19055137,1.0,1,739
20301,DRUG19055532,1.0,1,739
20301,DRUG19079524,1.0,1,723
20301,DRUG19079524,1.0,1,725
20301,DRUG19079524,1.0,1,734
20301,DRUG19079524,1.0,1,735
20301,DRUG19079524,1.0,1,739
20301,DRUG19093848,1.0,1,719
20301,DRUG19093848,1.0,1,720
20301,DRUG19093848,1.0,1,721
20301,DRUG19093848,1.0,1,723
20301,DRUG19093848,1.0,1,724
20301,DRUG19093848,1.0,1,726
20301,DRUG19093848,1.0,1,728
20301,DRUG19093848,1.0,1,731
20301,DRUG19093848,1.0,1,732
20301,DRUG19093848,1.0,1,735
20301,DRUG19093848,1.0,1,738
20301,DRUG19095164,1.0,1,730
20301,DRUG19095164,1.0,1,730
20301,DRUG19095164,1.0,1,735
20301,DRUG19095709,1.0,1,729
20301,DRUG19098971,1.0,1,729
20301,DRUG19102097,1.0,1,739
20301,DRUG19122121,1.0,1,739
20301,DRUG19123989,1.0,1,739
20301,DRUG19125200,1.0,1,733
20301,DRUG19125200,1.0,1,735
20301,DRUG19125200,1.0,1,737
20301,DRUG19126912,1.0,1,739
20301,DRUG19126912,1.0,1,739
20301,DRUG19132976,1.0,1,732
20301,DRUG19132976,1.0,1,737
20301,DRUG43012825,1.0,1,724
20301,DRUG43012825,1.0,1,724
20301,DRUG43012825,1.0,1,725
20301,DRUG43012825,1.0,1,731
20301,DRUG43012825,1.0,1,735
20301,DRUG43012825,1.0,1,735
20301,DRUG43012825,1.0,1,735
20301,DRUG43012825,1.0,1,737
20301,DRUG43012825,1.0,1,737
20301,DRUG43012825,1.0,1,737
20301,DRUG791967,1.0,1,739
20301,DRUG929435,1.0,1,719
20301,DRUG929435,1.0,1,720
20301,DRUG932745,1.0,1,734
20301,DRUG932745,1.0,1,735
20301,DRUG932745,1.0,1,739
20301,DRUG938268,1.0,1,739
20301,DRUG939506,1.0,1,730
20301,DRUG939506,1.0,1,730
20301,DRUG948078,1.0,1,738
20301,DRUG956874,1.0,1,719
20301,DRUG956874,1.0,1,719
20301,DRUG956874,1.0,1,720
20301,DRUG956874,1.0,1,721
20301,DRUG956874,1.0,1,724
20301,DRUG956874,1.0,1,726
20301,DRUG956874,1.0,1,726
20301,DRUG956874,1.0,1,726
20301,LAB3000285,137.0,1,735
20301,LAB3000330,1.02,1,736
20301,LAB3000483,73.0,1,735
20301,LAB3000963,10.0,1,727
20301,LAB3000963,10.1,1,729
20301,LAB3000963,10.1,1,734
20301,LAB3000963,10.1,1,735
20301,LAB3000963,10.2,1,723
20301,LAB3000963,10.3,1,725
20301,LAB3000963,10.3,1,726
20301,LAB3000963,10.3,1,737
20301,LAB3000963,10.4,1,735
20301,LAB3000963,10.5,1,721
20301,LAB3000963,10.5,1,735
20301,LAB3000963,10.6,1,720
20301,LAB3000963,10.6,1,724
20301,LAB3000963,10.6,1,738
20301,LAB3000963,10.8,1,730
20301,LAB3000963,10.8,1,736
20301,LAB3000963,11.3,1,722
20301,LAB3000963,11.6,1,719
20301,LAB3000963,11.6,1,739
20301,LAB3000963,8.9,1,693
20301,LAB3000963,9.2,1,724
20301,LAB3000963,9.7,1,728
20301,LAB3000963,9.7,1,732
20301,LAB3000963,9.8,1,733
20301,LAB3000963,9.9,1,731
20301,LAB3000963,9.9,1,737
20301,LAB3001110,91.0,1,735
20301,LAB3001122,138.0,1,693
20301,LAB3001122,148.0,1,727
20301,LAB3001122,193.0,1,737
20301,LAB3001420,1.4,1,724
20301,LAB3001420,1.7,1,694
20301,LAB3001420,1.7,1,720
20301,LAB3001420,1.7,1,721
20301,LAB3001420,1.7,1,727
20301,LAB3001420,1.7,1,728
20301,LAB3001420,1.7,1,729
20301,LAB3001420,1.7,1,738
20301,LAB3001420,1.7,1,739
20301,LAB3001420,1.8,1,723
20301,LAB3001420,1.8,1,726
20301,LAB3001420,1.8,1,732
20301,LAB3001420,1.9,1,693
20301,LAB3001420,1.9,1,719
20301,LAB3001420,1.9,1,722
20301,LAB3001420,1.9,1,725
20301,LAB3001420,1.9,1,731
20301,LAB3001420,1.9,1,735
20301,LAB3001420,2.0,1,727
20301,LAB3001420,2.0,1,733
20301,LAB3001420,2.0,1,733
20301,LAB3001420,2.0,1,736
20301,LAB3001420,2.0,1,737
20301,LAB3001420,2.1,1,724
20301,LAB3001420,2.1,1,730
20301,LAB3001420,2.1,1,737
20301,LAB3001420,2.2,1,734
20301,LAB3001420,2.2,1,735
20301,LAB3001420,2.4,1,734
20301,LAB3001420,2.6,1,735
20301,LAB3002030,10.5,1,735
20301,LAB3002030,14.6,1,735
20301,LAB3002385,16.7,1,732
20301,LAB3002385,16.9,1,730
20301,LAB3002385,16.9,1,731
20301,LAB3002385,16.9,1,734
20301,LAB3002385,16.9,1,735
20301,LAB3002385,16.9,1,735
20301,LAB3002385,16.9,1,735
20301,LAB3002385,16.9,1,736
20301,LAB3002385,16.9,1,738
20301,LAB3002385,17.0,1,728
20301,LAB3002385,17.0,1,733
20301,LAB3002385,17.0,1,737
20301,LAB3002385,17.0,1,737
20301,LAB3002385,17.1,1,726
20301,LAB3002385,17.1,1,727
20301,LAB3002385,17.1,1,729
20301,LAB3002385,17.1,1,739
20301,LAB3002385,17.2,1,722
20301,LAB3002385,17.3,1,719
20301,LAB3002385,17.3,1,720
20301,LAB3002385,17.3,1,725
20301,LAB3002385,17.4,1,721
20301,LAB3002385,17.6,1,723
20301,LAB3002385,17.9,1,724
20301,LAB3002385,17.9,1,724
20301,LAB3002385,19.8,1,693
20301,LAB3002400,29.0,1,727
20301,LAB3002400,29.0,1,737
20301,LAB3002400,49.0,1,693
20301,LAB3002417,13.1,1,722
20301,LAB3002417,13.6,1,721
20301,LAB3002417,13.7,1,736
20301,LAB3002417,13.8,1,723
20301,LAB3002417,13.8,1,724
20301,LAB3002417,13.8,1,739
20301,LAB3002417,13.9,1,720
20301,LAB3002417,13.9,1,731
20301,LAB3002417,14.0,1,724
20301,LAB3002417,14.0,1,730
20301,LAB3002417,14.0,1,732
20301,LAB3002417,14.1,1,738
20301,LAB3002417,14.5,1,733
20301,LAB3002417,14.5,1,737
20301,LAB3002417,14.6,1,729
20301,LAB3002417,14.6,1,737
20301,LAB3002417,14.7,1,693
20301,LAB3002417,14.7,1,725
20301,LAB3002417,14.7,1,728
20301,LAB3002417,14.8,1,724
20301,LAB3002417,14.8,1,726
20301,LAB3002417,15.6,1,735
20301,LAB3003338,32.3,1,720
20301,LAB3003338,32.5,1,734
20301,LAB3003338,32.8,1,719
20301,LAB3003338,32.8,1,735
20301,LAB3003338,33.1,1,721
20301,LAB3003338,33.2,1,693
20301,LAB3003338,33.3,1,723
20301,LAB3003338,33.4,1,736
20301,LAB3003338,33.5,1,725
20301,LAB3003338,33.5,1,728
20301,LAB3003338,33.5,1,735
20301,LAB3003338,33.6,1,724
20301,LAB3003338,33.6,1,730
20301,LAB3003338,33.7,1,738
20301,LAB3003338,33.9,1,729
20301,LAB3003338,33.9,1,732
20301,LAB3003338,34.0,1,724
20301,LAB3003338,34.1,1,722
20301,LAB3003338,34.2,1,735
20301,LAB3003338,34.3,1,726
20301,LAB3003338,34.3,1,737
20301,LAB3003338,34.3,1,737
20301,LAB3003338,34.6,1,727
20301,LAB3003338,34.7,1,731
20301,LAB3003338,34.8,1,733
20301,LAB3003338,34.8,1,739
20301,LAB3004501,100.0,1,722
20301,LAB3004501,104.0,1,726
20301,LAB3004501,105.0,1,732
20301,LAB3004501,106.0,1,725
20301,LAB3004501,109.0,1,731
20301,LAB3004501,118.0,1,735
20301,LAB3004501,120.0,1,730
20301,LAB3004501,138.0,1,735
20301,LAB3004501,144.0,1,694
20301,LAB3004501,149.0,1,729
20301,LAB3004501,154.0,1,735
20301,LAB3004501,164.0,1,737
20301,LAB3004501,187.0,1,733
20301,LAB3004501,56.0,1,739
20301,LAB3004501,64.0,1,724
20301,LAB3004501,67.0,1,736
20301,LAB3004501,67.0,1,738
20301,LAB3004501,78.0,1,734
20301,LAB3004501,83.0,1,728
20301,LAB3004501,86.0,1,733
20301,LAB3004501,92.0,1,727
20301,LAB3004501,94.0,1,721
20301,LAB3004501,94.0,1,723
20301,LAB3004501,96.0,1,724
20301,LAB3004501,96.0,1,737
20301,LAB3004501,97.0,1,734
20301,LAB3004501,98.0,1,720
20301,LAB3004501,99.0,1,719
20301,LAB3004789,194.0,1,727
20301,LAB3004789,199.0,1,737
20301,LAB3004789,225.0,1,693
20301,LAB3004905,14.0,1,735
20301,LAB3005456,5.5,1,735
20301,LAB3006504,2.1,1,735
20301,LAB3006504,2.9,1,735
20301,LAB3006576,26.0,1,735
20301,LAB3006576,30.0,1,735
20301,LAB3006906,7.2,1,724
20301,LAB3006906,7.8,1,728
20301,LAB3006906,7.9,1,732
20301,LAB3006906,7.9,1,733
20301,LAB3006906,8.0,1,723
20301,LAB3006906,8.0,1,737
20301,LAB3006906,8.1,1,735
20301,LAB3006906,8.1,1,737
20301,LAB3006906,8.2,1,722
20301,LAB3006906,8.2,1,733
20301,LAB3006906,8.2,1,738
20301,LAB3006906,8.3,1,720
20301,LAB3006906,8.3,1,727
20301,LAB3006906,8.3,1,731
20301,LAB3006906,8.3,1,734
20301,LAB3006906,8.3,1,734
20301,LAB3006906,8.4,1,724
20301,LAB3006906,8.4,1,725
20301,LAB3006906,8.4,1,726
20301,LAB3006906,8.4,1,736
20301,LAB3006906,8.4,1,739
20301,LAB3006906,8.5,1,735
20301,LAB3006906,8.5,1,735
20301,LAB3006906,8.7,1,694
20301,LAB3006906,8.8,1,730
20301,LAB3006923,61.0,1,735
20301,LAB3007124,2.7,1,693
20301,LAB3007220,204.0,1,735
20301,LAB3007220,339.0,1,734
20301,LAB3007220,364.0,1,734
20301,LAB3007220,42.0,1,729
20301,LAB3007220,43.0,1,729
20301,LAB3007220,58.0,1,728
20301,LAB3007461,158.0,1,693
20301,LAB3007461,180.0,1,738
20301,LAB3007461,187.0,1,739
20301,LAB3007461,190.0,1,719
20301,LAB3007461,195.0,1,737
20301,LAB3007461,205.0,1,720
20301,LAB3007461,210.0,1,721
20301,LAB3007461,224.0,1,733
20301,LAB3007461,225.0,1,735
20301,LAB3007461,227.0,1,735
20301,LAB3007461,228.0,1,737
20301,LAB3007461,233.0,1,736
20301,LAB3007461,236.0,1,723
20301,LAB3007461,238.0,1,734
20301,LAB3007461,239.0,1,722
20301,LAB3007461,242.0,1,729
20301,LAB3007461,243.0,1,732
20301,LAB3007461,246.0,1,735
20301,LAB3007461,247.0,1,726
20301,LAB3007461,248.0,1,728
20301,LAB3007461,258.0,1,724
20301,LAB3007461,264.0,1,727
20301,LAB3007461,267.0,1,731
20301,LAB3007461,274.0,1,729
20301,LAB3007461,284.0,1,725
20301,LAB3007461,329.0,1,730
20301,LAB3009542,26.8,1,693
20301,LAB3009542,27.4,1,724
20301,LAB3009542,27.7,1,693
20301,LAB3009542,28.2,1,733
20301,LAB3009542,28.5,1,732
20301,LAB3009542,28.6,1,725
20301,LAB3009542,28.6,1,731
20301,LAB3009542,28.7,1,737
20301,LAB3009542,29.0,1,727
20301,LAB3009542,29.1,1,728
20301,LAB3009542,29.4,1,735
20301,LAB3009542,29.8,1,729
20301,LAB3009542,29.9,1,726
20301,LAB3009542,30.0,1,733
20301,LAB3009542,30.2,1,737
20301,LAB3009542,30.3,1,723
20301,LAB3009542,30.6,1,723
20301,LAB3009542,30.9,1,725
20301,LAB3009542,31.2,1,734
20301,LAB3009542,31.2,1,735
20301,LAB3009542,31.3,1,724
20301,LAB3009542,31.3,1,731
20301,LAB3009542,31.4,1,738
20301,LAB3009542,31.8,1,721
20301,LAB3009542,31.8,1,725
20301,LAB3009542,31.8,1,735
20301,LAB3009542,31.9,1,723
20301,LAB3009542,32.2,1,730
20301,LAB3009542,32.2,1,736
20301,LAB3009542,32.7,1,720
20301,LAB3009542,33.0,1,722
20301,LAB3009542,33.5,1,739
20301,LAB3009542,35.0,1,724
20301,LAB3009542,35.3,1,719
20301,LAB3009682,15.4,1,736
20301,LAB3010421,7.38,1,735
20301,LAB3010421,7.42,1,735
20301,LAB3010813,2.8,1,737
20301,LAB3010813,3.9,1,733
20301,LAB3010813,4.0,1,734
20301,LAB3010813,4.0,1,735
20301,LAB3010813,4.1,1,736
20301,LAB3010813,4.2,1,732
20301,LAB3010813,4.4,1,737
20301,LAB3010813,4.6,1,728
20301,LAB3010813,4.6,1,735
20301,LAB3010813,4.8,1,727
20301,LAB3010813,4.8,1,731
20301,LAB3010813,4.9,1,726
20301,LAB3010813,4.9,1,738
20301,LAB3010813,5.2,1,720
20301,LAB3010813,5.2,1,729
20301,LAB3010813,5.4,1,724
20301,LAB3010813,5.5,1,719
20301,LAB3010813,5.5,1,735
20301,LAB3010813,5.6,1,723
20301,LAB3010813,5.6,1,724
20301,LAB3010813,5.6,1,730
20301,LAB3010813,5.9,1,725
20301,LAB3010813,6.4,1,722
20301,LAB3010813,6.5,1,721
20301,LAB3010813,6.5,1,739
20301,LAB3010813,7.9,1,693
20301,LAB3011152,1126.0,1,727
20301,LAB3011152,591.0,1,737
20301,LAB3011152,722.0,1,693
20301,LAB3011904,2.5,1,735
20301,LAB3011904,2.6,1,733
20301,LAB3011904,2.6,1,737
20301,LAB3011904,2.7,1,724
20301,LAB3011904,3.1,1,737
20301,LAB3011904,3.2,1,731
20301,LAB3011904,3.2,1,732
20301,LAB3011904,3.2,1,733
20301,LAB3011904,3.2,1,735
20301,LAB3011904,3.2,1,736
20301,LAB3011904,3.3,1,730
20301,LAB3011904,3.4,1,722
20301,LAB3011904,3.5,1,723
20301,LAB3011904,3.5,1,726
20301,LAB3011904,3.5,1,738
20301,LAB3011904,3.5,1,739
20301,LAB3011904,3.7,1,727
20301,LAB3011904,3.7,1,735
20301,LAB3011904,3.8,1,720
20301,LAB3011904,3.8,1,728
20301,LAB3011904,3.9,1,725
20301,LAB3011904,3.9,1,734
20301,LAB3011904,4.1,1,694
20301,LAB3012336,203.0,1,737
20301,LAB3012501,4.0,1,735
20301,LAB3013290,43.0,1,735
20301,LAB3013290,44.0,1,735
20301,LAB3013466,23.1,1,739
20301,LAB3013466,27.1,1,723
20301,LAB3013466,27.5,1,724
20301,LAB3013466,27.6,1,724
20301,LAB3013466,27.6,1,731
20301,LAB3013466,27.7,1,737
20301,LAB3013466,27.9,1,738
20301,LAB3013466,28.1,1,736
20301,LAB3013466,28.2,1,693
20301,LAB3013466,28.2,1,721
20301,LAB3013466,28.3,1,732
20301,LAB3013466,29.0,1,724
20301,LAB3013466,29.3,1,735
20301,LAB3013466,29.4,1,729
20301,LAB3013466,31.2,1,737
20301,LAB3013466,31.9,1,720
20301,LAB3013682,12.0,1,721
20301,LAB3013682,12.0,1,722
20301,LAB3013682,12.0,1,724
20301,LAB3013682,13.0,1,723
20301,LAB3013682,15.0,1,719
20301,LAB3013682,15.0,1,720
20301,LAB3013682,17.0,1,724
20301,LAB3013682,18.0,1,726
20301,LAB3013682,19.0,1,725
20301,LAB3013682,20.0,1,693
20301,LAB3013682,21.0,1,727
20301,LAB3013682,21.0,1,731
20301,LAB3013682,22.0,1,738
20301,LAB3013682,24.0,1,694
20301,LAB3013682,24.0,1,732
20301,LAB3013682,25.0,1,733
20301,LAB3013682,25.0,1,737
20301,LAB3013682,25.0,1,739
20301,LAB3013682,26.0,1,728
20301,LAB3013682,26.0,1,737
20301,LAB3013682,28.0,1,735
20301,LAB3013682,29.0,1,736
20301,LAB3013682,30.0,1,730
20301,LAB3013682,30.0,1,733
20301,LAB3013682,31.0,1,729
20301,LAB3013682,31.0,1,734
20301,LAB3013682,31.0,1,735
20301,LAB3013682,32.0,1,735
20301,LAB3013682,33.0,1,734
20301,LAB3013721,83.0,1,735
20301,LAB3015736,5.0,1,736
20301,LAB3016293,25.0,1,724
20301,LAB3016293,26.0,1,733
20301,LAB3016293,27.0,1,732
20301,LAB3016293,27.0,1,734
20301,LAB3016293,27.0,1,735
20301,LAB3016293,28.0,1,733
20301,LAB3016293,28.0,1,735
20301,LAB3016293,29.0,1,729
20301,LAB3016293,29.0,1,730
20301,LAB3016293,29.0,1,731
20301,LAB3016293,29.0,1,734
20301,LAB3016293,29.0,1,736
20301,LAB3016293,30.0,1,727
20301,LAB3016293,30.0,1,737
20301,LAB3016293,31.0,1,694
20301,LAB3016293,31.0,1,725
20301,LAB3016293,31.0,1,728
20301,LAB3016293,32.0,1,726
20301,LAB3016293,32.0,1,735
20301,LAB3016293,32.0,1,738
20301,LAB3016293,32.0,1,739
20301,LAB3016293,34.0,1,737
20301,LAB3016293,35.0,1,723
20301,LAB3016293,36.0,1,721
20301,LAB3016293,36.0,1,724
20301,LAB3016293,38.0,1,719
20301,LAB3016293,38.0,1,720
20301,LAB3016293,38.0,1,722
20301,LAB3016436,219.0,1,735
20301,LAB3016436,222.0,1,737
20301,LAB3016723,0.6,1,721
20301,LAB3016723,0.6,1,724
20301,LAB3016723,0.7,1,722
20301,LAB3016723,0.8,1,693
20301,LAB3016723,0.8,1,719
20301,LAB3016723,0.8,1,720
20301,LAB3016723,0.8,1,723
20301,LAB3016723,0.9,1,694
20301,LAB3016723,0.9,1,726
20301,LAB3016723,0.9,1,731
20301,LAB3016723,0.9,1,732
20301,LAB3016723,0.9,1,738
20301,LAB3016723,1.0,1,724
20301,LAB3016723,1.0,1,727
20301,LAB3016723,1.0,1,728
20301,LAB3016723,1.0,1,733
20301,LAB3016723,1.0,1,733
20301,LAB3016723,1.0,1,739
20301,LAB3016723,1.1,1,725
20301,LAB3016723,1.1,1,729
20301,LAB3016723,1.1,1,735
20301,LAB3016723,1.1,1,737
20301,LAB3016723,1.2,1,730
20301,LAB3016723,1.2,1,734
20301,LAB3016723,1.2,1,735
20301,LAB3016723,1.2,1,736
20301,LAB3016723,1.2,1,737
20301,LAB3016723,1.3,1,734
20301,LAB3016723,1.3,1,735
20301,LAB3016771,29.0,1,735
20301,LAB3017354,78.7,1,735
20301,LAB3017354,84.0,1,735
20301,LAB3018572,100.0,1,720
20301,LAB3018572,100.0,1,727
20301,LAB3018572,100.0,1,729
20301,LAB3018572,100.0,1,733
20301,LAB3018572,100.0,1,736
20301,LAB3018572,101.0,1,722
20301,LAB3018572,101.0,1,723
20301,LAB3018572,101.0,1,725
20301,LAB3018572,101.0,1,730
20301,LAB3018572,101.0,1,735
20301,LAB3018572,101.0,1,735
20301,LAB3018572,101.0,1,735
20301,LAB3018572,102.0,1,694
20301,LAB3018572,102.0,1,721
20301,LAB3018572,102.0,1,726
20301,LAB3018572,102.0,1,733
20301,LAB3018572,102.0,1,735
20301,LAB3018572,102.0,1,737
20301,LAB3018572,103.0,1,734
20301,LAB3018572,104.0,1,731
20301,LAB3018572,104.0,1,732
20301,LAB3018572,111.0,1,724
20301,LAB3018572,98.0,1,719
20301,LAB3018572,98.0,1,724
20301,LAB3018572,99.0,1,728
20301,LAB3018572,99.0,1,734
20301,LAB3018572,99.0,1,737
20301,LAB3018572,99.0,1,738
20301,LAB3018572,99.0,1,739
20301,LAB3019069,3.3,1,735
20301,LAB3019069,3.6,1,735
20301,LAB3019550,135.0,1,729
20301,LAB3019550,135.0,1,733
20301,LAB3019550,136.0,1,733
20301,LAB3019550,136.0,1,734
20301,LAB3019550,136.0,1,735
20301,LAB3019550,137.0,1,727
20301,LAB3019550,137.0,1,728
20301,LAB3019550,137.0,1,730
20301,LAB3019550,138.0,1,725
20301,LAB3019550,138.0,1,735
20301,LAB3019550,139.0,1,731
20301,LAB3019550,139.0,1,732
20301,LAB3019550,139.0,1,734
20301,LAB3019550,139.0,1,738
20301,LAB3019550,140.0,1,726
20301,LAB3019550,140.0,1,736
20301,LAB3019550,140.0,1,737
20301,LAB3019550,140.0,1,739
20301,LAB3019550,141.0,1,694
20301,LAB3019550,141.0,1,724
20301,LAB3019550,142.0,1,719
20301,LAB3019550,142.0,1,721
20301,LAB3019550,142.0,1,722
20301,LAB3019550,142.0,1,724
20301,LAB3019550,142.0,1,735
20301,LAB3019550,142.0,1,737
20301,LAB3019550,143.0,1,720
20301,LAB3019550,143.0,1,723
20301,LAB3021044,252.0,1,727
20301,LAB3021044,259.0,1,737
20301,LAB3021044,293.0,1,693
20301,LAB3022096,0.1,1,735
20301,LAB3022096,0.2,1,735
20301,LAB3023103,3.3,1,724
20301,LAB3023103,3.6,1,724
20301,LAB3023103,3.7,1,738
20301,LAB3023103,3.7,1,739
20301,LAB3023103,3.8,1,693
20301,LAB3023103,3.8,1,723
20301,LAB3023103,3.9,1,736
20301,LAB3023103,4.0,1,737
20301,LAB3023103,4.2,1,719
20301,LAB3023103,4.2,1,720
20301,LAB3023103,4.2,1,729
20301,LAB3023103,4.3,1,694
20301,LAB3023103,4.3,1,724
20301,LAB3023103,4.3,1,725
20301,LAB3023103,4.3,1,733
20301,LAB3023103,4.3,1,733
20301,LAB3023103,4.3,1,734
20301,LAB3023103,4.3,1,735
20301,LAB3023103,4.3,1,735
20301,LAB3023103,4.3,1,737
20301,LAB3023103,4.4,1,722
20301,LAB3023103,4.4,1,731
20301,LAB3023103,4.5,1,721
20301,LAB3023103,4.5,1,734
20301,LAB3023103,4.6,1,726
20301,LAB3023103,4.6,1,727
20301,LAB3023103,4.7,1,727
20301,LAB3023103,4.7,1,729
20301,LAB3023103,4.7,1,732
20301,LAB3023103,4.8,1,735
20301,LAB3023103,4.9,1,728
20301,LAB3023103,5.1,1,730
20301,LAB3024128,0.6,1,735
20301,LAB3024561,3.2,1,735
20301,LAB3024731,92.0,1,721
20301,LAB3024731,92.0,1,722
20301,LAB3024731,92.0,1,723
20301,LAB3024731,92.0,1,724
20301,LAB3024731,93.0,1,732
20301,LAB3024731,93.0,1,735
20301,LAB3024731,94.0,1,693
20301,LAB3024731,94.0,1,719
20301,LAB3024731,94.0,1,720
20301,LAB3024731,94.0,1,727
20301,LAB3024731,94.0,1,728
20301,LAB3024731,94.0,1,730
20301,LAB3024731,94.0,1,733
20301,LAB3024731,94.0,1,736
20301,LAB3024731,94.0,1,738
20301,LAB3024731,94.0,1,739
20301,LAB3024731,95.0,1,724
20301,LAB3024731,95.0,1,725
20301,LAB3024731,95.0,1,729
20301,LAB3024731,95.0,1,731
20301,LAB3024731,95.0,1,735
20301,LAB3024731,95.0,1,737
20301,LAB3024731,96.0,1,726
20301,LAB3024731,96.0,1,734
20301,LAB3024731,96.0,1,735
20301,LAB3024731,96.0,1,737
20301,LAB3026361,2.85,1,693
20301,LAB3026361,2.89,1,724
20301,LAB3026361,2.99,1,733
20301,LAB3026361,3.01,1,731
20301,LAB3026361,3.0,1,737
20301,LAB3026361,3.07,1,727
20301,LAB3026361,3.08,1,728
20301,LAB3026361,3.08,1,732
20301,LAB3026361,3.11,1,735
20301,LAB3026361,3.12,1,726
20301,LAB3026361,3.14,1,729
20301,LAB3026361,3.16,1,737
20301,LAB3026361,3.25,1,734
20301,LAB3026361,3.26,1,725
20301,LAB3026361,3.31,1,735
20301,LAB3026361,3.33,1,723
20301,LAB3026361,3.33,1,738
20301,LAB3026361,3.35,1,735
20301,LAB3026361,3.4,1,724
20301,LAB3026361,3.42,1,730
20301,LAB3026361,3.42,1,736
20301,LAB3026361,3.45,1,721
20301,LAB3026361,3.49,1,720
20301,LAB3026361,3.55,1,739
20301,LAB3026361,3.58,1,722
20301,LAB3026361,3.75,1,719
20301,LAB3027315,138.0,1,735
20301,LAB3027315,69.0,1,735
20301,LAB3029187,8623.0,1,727
20301,LAB3032080,1.1,1,722
20301,LAB3032080,1.2,1,720
20301,LAB3032080,1.2,1,721
20301,LAB3032080,1.2,1,723
20301,LAB3032080,1.2,1,724
20301,LAB3032080,1.2,1,724
20301,LAB3032080,1.2,1,730
20301,LAB3032080,1.2,1,731
20301,LAB3032080,1.2,1,732
20301,LAB3032080,1.2,1,736
20301,LAB3032080,1.2,1,739
20301,LAB3032080,1.3,1,693
20301,LAB3032080,1.3,1,694
20301,LAB3032080,1.3,1,724
20301,LAB3032080,1.3,1,725
20301,LAB3032080,1.3,1,726
20301,LAB3032080,1.3,1,728
20301,LAB3032080,1.3,1,729
20301,LAB3032080,1.3,1,733
20301,LAB3032080,1.3,1,737
20301,LAB3032080,1.3,1,737
20301,LAB3032080,1.3,1,738
20301,LAB3032080,1.4,1,735
20301,LAB3033236,3.0,1,734
20301,LAB3033236,3.0,1,734
20301,LAB3033236,3.0,1,735
20301,LAB3035941,30.3,1,720
20301,LAB3035941,30.5,1,721
20301,LAB3035941,30.6,1,723
20301,LAB3035941,30.9,1,719
20301,LAB3035941,31.2,1,734
20301,LAB3035941,31.2,1,735
20301,LAB3035941,31.3,1,693
20301,LAB3035941,31.3,1,724
20301,LAB3035941,31.4,1,722
20301,LAB3035941,31.4,1,732
20301,LAB3035941,31.5,1,735
20301,LAB3035941,31.5,1,736
20301,LAB3035941,31.6,1,728
20301,LAB3035941,31.6,1,730
20301,LAB3035941,31.7,1,725
20301,LAB3035941,31.9,1,724
20301,LAB3035941,31.9,1,738
20301,LAB3035941,32.1,1,729
20301,LAB3035941,32.3,1,735
20301,LAB3035941,32.7,1,727
20301,LAB3035941,32.7,1,733
20301,LAB3035941,32.7,1,737
20301,LAB3035941,32.8,1,737
20301,LAB3035941,32.8,1,739
20301,LAB3035941,32.9,1,726
20301,LAB3035941,33.0,1,731
20301,LAB3036987,12.2,1,727
20301,LAB3036987,16.6,1,693
20301,LAB3039000,10.0,1,719
20301,LAB3039000,10.0,1,725
20301,LAB3039000,10.0,1,731
20301,LAB3039000,11.0,1,723
20301,LAB3039000,11.0,1,726
20301,LAB3039000,11.0,1,729
20301,LAB3039000,11.0,1,733
20301,LAB3039000,11.0,1,734
20301,LAB3039000,12.0,1,694
20301,LAB3039000,12.0,1,724
20301,LAB3039000,12.0,1,727
20301,LAB3039000,12.0,1,728
20301,LAB3039000,12.0,1,730
20301,LAB3039000,12.0,1,733
20301,LAB3039000,12.0,1,735
20301,LAB3039000,12.0,1,735
20301,LAB3039000,12.0,1,737
20301,LAB3039000,12.0,1,738
20301,LAB3039000,13.0,1,732
20301,LAB3039000,13.0,1,737
20301,LAB3039000,13.0,1,739
20301,LAB3039000,14.0,1,735
20301,LAB3039000,15.0,1,734
20301,LAB3039000,15.0,1,736
20301,LAB3039000,7.0,1,722
20301,LAB3039000,8.0,1,724
20301,LAB3039000,9.0,1,720
20301,LAB3039000,9.0,1,721
20301,LAB3047181,1.2,1,735
20301,LAB3047181,5.8,1,735
20301,LAB3048529,0.02,1,728
20301,LAB3048529,0.03,1,734
20459,LAB3006923,19.0,0,754
20459,LAB3007070,42.0,0,754
20459,LAB3007220,59.0,0,1974
20459,LAB3007220,60.0,0,1974
20459,LAB3007461,119.0,0,1974
20459,LAB3007461,130.0,0,1975
20459,LAB3007461,156.0,0,1974
20459,LAB3009542,29.6,0,1974
20459,LAB3013603,0.5,0,1118
20459,LAB3013603,0.5,0,1469
20459,LAB3013603,0.5,0,1664
20459,LAB3013603,0.5,0,735
20459,LAB3013603,0.5,0,930
20459,LAB3013603,0.6,0,0
20459,LAB3013603,0.6,0,1294
20459,LAB3013603,0.6,0,1854
20459,LAB3013603,0.6,0,371
20459,LAB3013603,0.7,0,200
20459,LAB3013603,0.7,0,566
20459,LAB3013682,11.0,0,1974
20459,LAB3013682,15.0,0,1469
20459,LAB3013682,16.0,0,200
20459,LAB3013682,17.0,0,371
20459,LAB3013682,18.0,0,1664
20459,LAB3013682,18.0,0,930
20459,LAB3013682,19.0,0,1118
20459,LAB3013682,19.0,0,566
20459,LAB3013682,19.0,0,735
20459,LAB3013682,20.0,0,0
20459,LAB3013682,21.0,0,1854
20459,LAB3013721,23.0,0,754
20459,LAB3016087,3.5,0,754
20459,LAB3016723,1.2,0,1854
20459,LAB3016723,1.3,0,1974
20459,LAB3016723,1.4,0,0
20459,LAB3016723,1.4,0,1118
20459,LAB3016723,1.4,0,735
20459,LAB3016723,1.4,0,930
20459,LAB3016723,1.5,0,1469
20459,LAB3016723,1.5,0,1664
20459,LAB3016723,1.5,0,371
20459,LAB3016723,1.5,0,566
20459,LAB3016723,1.6,0,200
20459,LAB3022192,146.0,0,754
20459,LAB3023103,3.5,0,1974
20459,LAB3023103,3.8,0,1974
20459,LAB3027114,145.0,0,754
20459,LAB3028288,74.0,0,754
5206,DIAG192767,1.0,0,6
5206,DIAG193598,1.0,0,6
5206,DIAG194200,1.0,0,6
5206,DIAG197320,1.0,0,6
5206,DIAG434894,1.0,0,6
5206,DIAG437149,1.0,0,6
5206,DIAG440603,1.0,0,6
5206,DIAG442531,1.0,0,6
5206,DIAG79864,1.0,0,6
5206,DIAG81151,1.0,0,6
5206,DRUG1000560,1.0,0,5
5206,DRUG1000560,1.0,0,6
5206,DRUG1126658,1.0,0,3
5206,DRUG1126658,1.0,0,3
5206,DRUG1126658,1.0,0,3
5206,DRUG1126658,1.0,0,3
5206,DRUG1126658,1.0,0,4
5206,DRUG1126658,1.0,0,5
5206,DRUG1742253,1.0,0,5
5206,DRUG1742253,1.0,0,6
5206,DRUG19012125,1.0,0,6
5206,DRUG19049105,1.0,0,2
5206,DRUG19065818,1.0,0,6
5206,DRUG19079524,1.0,0,6
5206,DRUG19093848,1.0,0,2
5206,DRUG19093848,1.0,0,3
5206,DRUG43012825,1.0,0,6
5206,DRUG948078,1.0,0,3
5206,LAB3000285,141.0,0,6
5206,LAB3000330,1.012,0,1
5206,LAB3000483,133.0,0,6
5206,LAB3000963,10.2,0,2
5206,LAB3000963,10.4,0,4
5206,LAB3000963,10.6,0,5
5206,LAB3000963,10.6,0,6
5206,LAB3000963,10.9,0,1
5206,LAB3000963,11.3,0,6
5206,LAB3000963,11.9,0,5
5206,LAB3000963,12.5,0,6
5206,LAB3000963,13.9,0,6
5206,LAB3000963,9.4,0,3
5206,LAB3001420,1.6,0,5
5206,LAB3001420,1.8,0,2
5206,LAB3001420,1.8,0,3
5206,LAB3001420,1.8,0,4
5206,LAB3001420,1.8,0,5
5206,LAB3001420,1.8,0,6
5206,LAB3001420,2.1,0,0
5206,LAB3001420,2.1,0,1
5206,LAB3002385,12.5,0,6
5206,LAB3002385,13.0,0,6
5206,LAB3002385,13.1,0,6
5206,LAB3002385,13.3,0,2
5206,LAB3002385,13.3,0,3
5206,LAB3002385,13.4,0,6
5206,LAB3002385,13.5,0,1
5206,LAB3002385,13.6,0,4
5206,LAB3002385,13.9,0,5
5206,LAB3002385,13.9,0,5
5206,LAB3002417,13.0,0,6
5206,LAB3002417,13.0,0,6
5206,LAB3002417,13.3,0,6
5206,LAB3002417,13.5,0,6
5206,LAB3002417,13.7,0,5
5206,LAB3002417,14.2,0,4
5206,LAB3003181,92.0,0,4
5206,LAB3003338,34.0,0,6
5206,LAB3003338,34.1,0,1
5206,LAB3003338,34.7,0,6
5206,LAB3003338,34.8,0,5
5206,LAB3003338,35.6,0,5
5206,LAB3003338,35.7,0,2
5206,LAB3003338,35.8,0,4
5206,LAB3003338,36.1,0,3
5206,LAB3003338,36.3,0,6
5206,LAB3003338,36.9,0,6
5206,LAB3004501,106.0,0,4
5206,LAB3004501,107.0,0,5
5206,LAB3004501,109.0,0,3
5206,LAB3004501,116.0,0,6
5206,LAB3004501,128.0,0,2
5206,LAB3004501,129.0,0,6
5206,LAB3004501,130.0,0,5
5206,LAB3004905,35.0,0,6
5206,LAB3005456,4.2,0,6
5206,LAB3006576,25.0,0,5
5206,LAB3006576,31.0,0,6
5206,LAB3006906,8.0,0,5
5206,LAB3006906,8.3,0,4
5206,LAB3006906,8.5,0,6
5206,LAB3006906,8.6,0,5
5206,LAB3006906,8.7,0,2
5206,LAB3006906,8.7,0,3
5206,LAB3007359,3.9,0,0
5206,LAB3007461,123.0,0,4
5206,LAB3007461,133.0,0,5
5206,LAB3007461,137.0,0,3
5206,LAB3007461,165.0,0,2
5206,LAB3007461,175.0,0,6
5206,LAB3007461,180.0,0,5
5206,LAB3007461,198.0,0,6
5206,LAB3007461,226.0,0,1
5206,LAB3007461,247.0,0,6
5206,LAB3007461,253.0,0,6
5206,LAB3007950,2.0,0,6
5206,LAB3007950,4.0,0,1
5206,LAB3009542,26.1,0,3
5206,LAB3009542,26.3,0,3
5206,LAB3009542,27.0,0,3
5206,LAB3009542,28.6,0,2
5206,LAB3009542,29.0,0,4
5206,LAB3009542,29.1,0,5
5206,LAB3009542,29.2,0,6
5206,LAB3009542,29.4,0,2
5206,LAB3009542,29.7,0,5
5206,LAB3009542,30.7,0,5
5206,LAB3009542,32.0,0,5
5206,LAB3009542,32.1,0,1
5206,LAB3009542,33.4,0,6
5206,LAB3009542,34.2,0,5
5206,LAB3009542,34.4,0,0
5206,LAB3009542,36.0,0,6
5206,LAB3009542,37.7,0,6
5206,LAB3010421,7.32,0,5
5206,LAB3010813,10.2,0,0
5206,LAB3010813,10.5,0,6
5206,LAB3010813,10.6,0,5
5206,LAB3010813,10.6,0,5
5206,LAB3010813,13.4,0,6
5206,LAB3010813,17.7,0,6
5206,LAB3010813,18.6,0,6
5206,LAB3010813,5.6,0,2
5206,LAB3010813,6.0,0,1
5206,LAB3010813,6.8,0,3
5206,LAB3010813,9.6,0,4
5206,LAB3011904,2.3,0,3
5206,LAB3011904,2.7,0,5
5206,LAB3011904,2.8,0,2
5206,LAB3011904,3.4,0,4
5206,LAB3011904,3.5,0,6
5206,LAB3011904,4.2,0,5
5206,LAB3012501,-2.0,0,5
5206,LAB3013290,47.0,0,5
5206,LAB3013466,20.3,0,6
5206,LAB3013466,22.5,0,6
5206,LAB3013466,22.8,0,5
5206,LAB3013466,23.3,0,6
5206,LAB3013466,23.8,0,6
5206,LAB3013466,26.9,0,4
5206,LAB3013682,16.0,0,2
5206,LAB3013682,19.0,0,1
5206,LAB3013682,20.0,0,3
5206,LAB3013682,21.0,0,0
5206,LAB3013682,24.0,0,6
5206,LAB3013682,25.0,0,6
5206,LAB3013682,26.0,0,5
5206,LAB3013682,29.0,0,5
5206,LAB3013682,31.0,0,4
5206,LAB3015736,8.0,0,1
5206,LAB3015736,8.0,0,6
5206,LAB3016293,24.0,0,5
5206,LAB3016293,25.0,0,5
5206,LAB3016293,25.0,0,6
5206,LAB3016293,27.0,0,4
5206,LAB3016293,27.0,0,6
5206,LAB3016293,28.0,0,2
5206,LAB3016293,29.0,0,3
5206,LAB3016407,230.0,0,6
5206,LAB3016407,282.0,0,5
5206,LAB3016723,1.2,0,1
5206,LAB3016723,1.3,0,2
5206,LAB3016723,1.4,0,0
5206,LAB3016723,1.5,0,3
5206,LAB3016723,1.6,0,5
5206,LAB3016723,1.6,0,6
5206,LAB3016723,1.8,0,6
5206,LAB3016723,1.9,0,6
5206,LAB3016723,2.4,0,5
5206,LAB3016723,2.9,0,4
5206,LAB3016771,31.0,0,6
5206,LAB3017250,115.0,0,6
5206,LAB3017250,119.0,0,4
5206,LAB3018572,103.0,0,2
5206,LAB3018572,104.0,0,3
5206,LAB3018572,106.0,0,5
5206,LAB3018572,106.0,0,6
5206,LAB3018572,107.0,0,4
5206,LAB3018572,108.0,0,6
5206,LAB3018572,108.0,0,6
5206,LAB3018572,109.0,0,5
5206,LAB3019550,138.0,0,2
5206,LAB3019550,140.0,0,3
5206,LAB3019550,140.0,0,5
5206,LAB3019550,141.0,0,4
5206,LAB3019550,141.0,0,5
5206,LAB3019550,141.0,0,6
5206,LAB3019550,141.0,0,6
5206,LAB3020399,250.0,0,6
5206,LAB3021119,1.09,0,5
5206,LAB3023103,3.7,0,2
5206,LAB3023103,4.0,0,1
5206,LAB3023103,4.0,0,3
5206,LAB3023103,4.2,0,0
5206,LAB3023103,4.3,0,4
5206,LAB3023103,4.3,0,5
5206,LAB3023103,4.6,0,5
5206,LAB3023103,4.6,0,6
5206,LAB3023103,4.7,0,6
5206,LAB3024128,6.8,0,0
5206,LAB3024731,88.0,0,2
5206,LAB3024731,89.0,0,3
5206,LAB3024731,90.0,0,4
5206,LAB3024731,90.0,0,6
5206,LAB3024731,91.0,0,5
5206,LAB3024731,91.0,0,6
5206,LAB3024731,92.0,0,5
5206,LAB3024731,93.0,0,1
5206,LAB3024731,93.0,0,6
5206,LAB3024731,94.0,0,6
5206,LAB3026361,2.94,0,3
5206,LAB3026361,3.21,0,6
5206,LAB3026361,3.23,0,4
5206,LAB3026361,3.26,0,2
5206,LAB3026361,3.26,0,5
5206,LAB3026361,3.46,0,1
5206,LAB3026361,3.6,0,6
5206,LAB3026361,3.73,0,5
5206,LAB3026361,3.82,0,6
5206,LAB3026361,4.17,0,6
5206,LAB3027315,81.0,0,5
5206,LAB3027597,2.9,0,0
5206,LAB3032080,1.1,0,6
5206,LAB3032080,1.1,0,6
5206,LAB3032080,1.2,0,5
5206,LAB3032080,1.2,0,6
5206,LAB3032080,1.2,0,6
5206,LAB3032080,1.3,0,4
5206,LAB3032459,15.0,0,6
5206,LAB3035941,31.4,0,2
5206,LAB3035941,31.5,0,1
5206,LAB3035941,31.5,0,6
5206,LAB3035941,31.9,0,5
5206,LAB3035941,32.1,0,3
5206,LAB3035941,32.1,0,4
5206,LAB3035941,32.4,0,5
5206,LAB3035941,32.7,0,6
5206,LAB3035941,33.0,0,6
5206,LAB3035941,33.4,0,6
5206,LAB3039000,11.0,0,2
5206,LAB3039000,11.0,0,3
5206,LAB3039000,11.0,0,4
5206,LAB3039000,12.0,0,5
5206,LAB3039000,13.0,0,6
5206,LAB3039000,13.0,0,6
5206,LAB3039000,14.0,0,5
5206,LAB3047181,1.2,0,5
5206,LAB3047181,1.5,0,6
