SUBJECT_ID,MORTALITY
249,0.3380497097969055
665,0.7154801487922668
689,0.8082330226898193
725,0.7990415096282959
728,0.8142795562744141
771,0.11247557401657104
824,0.43135300278663635
854,0.6531118750572205
109,0.6012693643569946
112,0.18679456412792206
307,0.13175560534000397
384,0.9897862672805786
474,0.9960557222366333
518,0.867902934551239
618,0.48693692684173584
630,0.8694570660591125
1319,0.9951959252357483
1397,0.44594669342041016
2413,0.8744211196899414
2425,0.4839814305305481
2427,0.6972653865814209
2486,0.46503186225891113
3593,0.2987419068813324
3600,0.31224295496940613
3649,0.16624009609222412
885,0.8929236531257629
899,0.34589147567749023
1104,0.965667724609375
1180,0.6692463159561157
1187,0.5336176156997681
1271,0.7612670660018921
1283,0.5263621211051941
1474,0.33712083101272583
1527,0.6575343012809753
1578,0.4625888466835022
995,0.9120512008666992
1840,0.2748367190361023
1860,0.16698944568634033
2611,0.9469059109687805
2034,0.3169998228549957
4239,0.5736992955207825
4240,0.8522582054138184
4271,0.6038325428962708
4076,0.6840215921401978
4101,0.9720721244812012
4115,0.8186121582984924
4137,0.9497117400169373
4328,0.9010919332504272
4394,0.7374948859214783
2622,0.8532986044883728
2733,0.6581694483757019
2825,0.8710305690765381
3042,0.7213253974914551
3078,0.31824275851249695
3100,0.8666008710861206
3155,0.8286197185516357
3222,0.2883620262145996
3234,0.7724474668502808
3272,0.4469742178916931
3460,0.5390413403511047
3491,0.9692817330360413
3543,0.7244143486022949
2885,0.3865456283092499
3895,0.13265791535377502
3977,0.4992307126522064
4016,0.9590915441513062
4555,0.7058451175689697
5163,0.733465850353241
5389,0.8641626238822937
5392,0.845810055732727
5406,0.5009253025054932
5285,0.9440612196922302
5330,0.8848006129264832
4871,0.4317854940891266
4916,0.9221709966659546
4918,0.6990604400634766
4949,0.9010471105575562
5752,0.5318185091018677
5820,0.46173006296157837
5830,0.9414315819740295
5839,0.9463926553726196
6488,0.0920543372631073
6497,0.6783640384674072
6510,0.12510792911052704
6158,0.6805918216705322
5944,0.8548477292060852
6020,0.3805252015590668
6055,0.9240797162055969
6069,0.14796917140483856
6098,0.5762968063354492
5427,0.8535907864570618
5491,0.8242459297180176
5525,0.6092820763587952
5564,0.4036673903465271
4308,0.9305790662765503
4313,0.9793237447738647
3705,0.11312534660100937
4821,0.8431168794631958
5038,0.9056758880615234
5096,0.7125173807144165
5099,0.5729114413261414
7210,0.826621413230896
7216,0.43986284732818604
7230,0.8092209100723267
7235,0.9764922857284546
7251,0.14779765903949738
6829,0.808295726776123
6892,0.7637364864349365
6912,0.5951180458068848
7778,0.7875034213066101
7804,0.7780078053474426
7816,0.5491264462471008
7534,0.21962136030197144
7562,0.9662445783615112
6166,0.491401731967926
6228,0.873930037021637
5619,0.5998959541320801
5679,0.8638702630996704
5710,0.788709819316864
6604,0.6227567791938782
6697,0.167541965842247
6720,0.7027239203453064
6756,0.9546708464622498
6996,0.7426328063011169
7029,0.8529646396636963
7036,0.6305901408195496
7095,0.5795266032218933
8228,0.7554352879524231
7595,0.5307905673980713
7621,0.4009406864643097
7681,0.36762362718582153
7698,0.950714647769928
7709,0.9097087383270264
8498,0.7063385248184204
8512,0.6306232213973999
8631,0.9537644386291504
8897,0.8439738750457764
8996,0.5107255578041077
9044,0.3553338944911957
9505,0.41001659631729126
9221,0.9058849811553955
8364,0.28453710675239563
8447,0.9376453161239624
7853,0.4881170988082886
7866,0.8843702077865601
7908,0.7618867754936218
8086,0.5601824522018433
9274,0.9839680194854736
9302,0.3800812065601349
9304,0.22652308642864227
9377,0.14291059970855713
9395,0.7055609822273254
8120,0.8833977580070496
8154,0.8452329039573669
9545,0.4487192630767822
9622,0.6628478765487671
9640,0.8424197435379028
10569,0.7595490217208862
10635,0.8956628441810608
10642,0.7566040754318237
10820,0.18852239847183228
10206,0.8766923546791077
10207,0.6682252287864685
10254,0.16507747769355774
10257,0.9533282518386841
10301,0.597374677658081
9750,0.8683097958564758
9896,0.48812559247016907
9968,0.6688464283943176
11045,0.7635458707809448
11205,0.3144681751728058
11288,0.6000996232032776
10425,0.6916648149490356
10134,0.5952756404876709
12776,0.36908218264579773
12810,0.9597921371459961
12896,0.5634260177612305
12952,0.4514935314655304
13123,0.09607280790805817
12194,0.9399417638778687
12233,0.2893838584423065
12274,0.7072523832321167
12318,0.8726601600646973
12020,0.30535629391670227
12026,0.8924326300621033
12028,0.18937188386917114
11486,0.084464430809021
12344,0.4157646894454956
10832,0.2468702644109726
10924,0.7886906266212463
11438,0.46010175347328186
11162,0.9553672671318054
10694,0.22334587574005127
10712,0.9724705815315247
10742,0.08013803511857986
12076,0.5206095576286316
12087,0.4904949367046356
12104,0.5205756425857544
12142,0.9641896486282349
11587,0.1519593596458435
11588,0.8664293885231018
11646,0.9130946397781372
11708,0.9852074384689331
13664,0.5698263645172119
13725,0.6947383880615234
13728,0.41378507018089294
14714,0.40221792459487915
14822,0.1115480363368988
14828,0.33963239192962646
14836,0.9805217981338501
14041,0.7965319752693176
12367,0.9468110799789429
12401,0.7876650094985962
12556,0.8538708090782166
12567,0.9403641819953918
12741,0.9838003516197205
13144,0.9256387948989868
13181,0.8434584736824036
13183,0.43382546305656433
13308,0.7883297801017761
13086,0.20102213323116302
13778,0.7186174392700195
13835,0.7695358991622925
12659,0.7010299563407898
12693,0.8665415048599243
13593,0.47839951515197754
13633,0.845367431640625
13648,0.5253651142120361
22763,0.9462054371833801
21256,0.32227689027786255
21302,0.5332139134407043
21306,0.6184954643249512
15996,0.4891907870769501
16411,0.7419384121894836
22855,0.2294154018163681
16913,0.6760405898094177
16932,0.8729435801506042
21362,0.6021345257759094
15418,0.7627202868461609
15450,0.39038240909576416
15472,0.6606786251068115
13864,0.725688636302948
13890,0.8469639420509338
13913,0.5743113160133362
13355,0.4128475487232208
14297,0.9532333612442017
14305,0.90887850522995
14332,0.4025416970252991
14405,0.4137732684612274
14412,0.7391642332077026
22266,0.09462876617908478
22277,0.8724452257156372
16381,0.9655404686927795
23242,0.7599369883537292
20968,0.6487822532653809
20969,0.12823663651943207
22500,0.885219395160675
22538,0.5612437129020691
16088,0.42774200439453125
16118,0.9866807460784912
18032,0.12894679605960846
18067,0.9380998611450195
16975,0.5653813481330872
18974,0.8559209108352661
17488,0.5389593243598938
19913,0.8186998963356018
21903,0.8352582454681396
20389,0.43584686517715454
20447,0.8663443326950073
20891,0.9249863624572754
19463,0.3434182107448578
19512,0.8787769675254822
19522,0.8567670583724976
21939,0.4304472506046295
19104,0.9272999167442322
19169,0.8571047782897949
20993,0.8726601600646973
21469,0.44371506571769714
15545,0.3139905631542206
15558,0.1765543520450592
15570,0.7600806951522827
15576,0.4773557484149933
22083,0.35468244552612305
22371,0.8685957789421082
22432,0.3953993618488312
22449,0.718451738357544
16542,0.597907543182373
22585,0.5788898468017578
17008,0.954402506351471
17580,0.9357106685638428
17589,0.9455969333648682
17606,0.9757663607597351
18101,0.966808557510376
18105,0.9015278220176697
18546,0.9173321723937988
18596,0.5257772207260132
17125,0.3874410092830658
19666,0.8821649551391602
15208,0.7881336212158203
20140,0.6719244718551636
20214,0.9231509566307068
20217,0.9045973420143127
19213,0.7087737321853638
19228,0.7514272332191467
16194,0.8352257013320923
16200,0.10970999300479889
16204,0.9902547001838684
18166,0.9446951746940613
22490,0.9014855623245239
16684,0.41631752252578735
16696,0.46853283047676086
16698,0.8194485306739807
23039,0.30805954337120056
15632,0.8723940849304199
15672,0.28582677245140076
15704,0.6336832046508789
16724,0.336653470993042
16733,0.18851500749588013
17181,0.5866904258728027
17236,0.394593745470047
16786,0.9252241849899292
16800,0.7091997265815735
16802,0.9350133538246155
22941,0.8005921244621277
21766,0.8375990986824036
21773,0.9501622319221497
21786,0.963257372379303
21806,0.9120389819145203
20230,0.46584269404411316
16847,0.3627967834472656
16856,0.6272895336151123
16865,0.6609719395637512
17328,0.9615852236747742
15904,0.916569709777832
16275,0.035770583897829056
16279,0.6913707852363586
20719,0.9962571859359741
22624,0.1961752325296402
21185,0.8327473402023315
14568,0.583914041519165
16755,0.16794320940971375
16774,0.7694272398948669
27198,0.9722094535827637
29946,0.17700165510177612
30476,0.9823408126831055
31199,0.976010262966156
31226,0.9199795126914978
19361,0.8996146321296692
19410,0.28123384714126587
26632,0.7951371669769287
26633,0.7503032088279724
26649,0.8274085521697998
28677,0.9090386033058167
27163,0.6553609371185303
17843,0.4711803197860718
30405,0.8605069518089294
30410,0.9459302425384521
30452,0.8918535113334656
28681,0.09291662275791168
28735,0.9634976983070374
28741,0.895455539226532
28765,0.5713977217674255
28270,0.9073958396911621
27823,0.6352333426475525
29961,0.1116611659526825
29971,0.6058489680290222
28365,0.945862889289856
31031,0.7169714570045471
31088,0.2000311315059662
31112,0.903650164604187
28814,0.8461768627166748
28824,0.9373111724853516
28865,0.9432340860366821
27282,0.48903393745422363
27299,0.6243463754653931
29316,0.927770733833313
24656,0.9856729507446289
24663,0.7782296538352966
24682,0.8522204756736755
29261,0.874521791934967
29276,0.6806312799453735
15301,0.9142758250236511
23694,0.9315546751022339
23696,0.2638174891471863
23755,0.46659424901008606
25714,0.9592477083206177
24252,0.847262442111969
26234,0.3189140260219574
26261,0.2381812036037445
24687,0.8294148445129395
24712,0.08905510604381561
26704,0.26769381761550903
25177,0.875508725643158
25772,0.9849704504013062
27723,0.9357748031616211
26286,0.3490278422832489
23596,0.1238265261054039
14858,0.9008926749229431
14996,0.8668482899665833
15041,0.10547716915607452
15046,0.6220841407775879
15047,0.8913460373878479
23946,0.9341131448745728
23999,0.9703723788261414
56798,0.8737597465515137
56855,0.8917341232299805
56861,0.6800099611282349
63039,0.11962925642728806
63116,0.662869393825531
27616,0.8218184113502502
59301,0.1810131072998047
54197,0.46122226119041443
63961,0.41838860511779785
48011,0.28645727038383484
48159,0.8933685421943665
24466,0.5416566729545593
26448,0.8797495365142822
26459,0.9527456164360046
27666,0.8858215808868408
46423,0.7058175802230835
46497,0.7824333310127258
31651,0.7780274748802185
74687,0.9646666646003723
15728,0.9145404100418091
17658,0.3829419016838074
17683,0.5539494156837463
40736,0.824522852897644
40837,0.8074594140052795
63290,0.3224099576473236
63368,0.6342410445213318
81866,0.9234597086906433
81933,0.9904216527938843
68944,0.11107216775417328
68946,0.24895580112934113
76251,0.9100899696350098
76476,0.8391473889350891
76479,0.7783674001693726
25997,0.4861131012439728
26491,0.7594754099845886
28525,0.8105202317237854
29722,0.4320722222328186
29726,0.5486531257629395
29730,0.8929733633995056
29732,0.4569520950317383
29767,0.33346953988075256
58821,0.4861530065536499
32740,0.43930986523628235
32766,0.271605521440506
55992,0.2489015907049179
61620,0.8653103709220886
61676,0.8792036771774292
70807,0.9115097522735596
70842,0.963974118232727
44232,0.6924954652786255
44265,0.9908689260482788
44408,0.8952362537384033
44464,0.6805381178855896
44521,0.6266505122184753
44570,0.6939023733139038
28566,0.6160151362419128
26980,0.5401880741119385
27024,0.37471720576286316
17754,0.3409329950809479
46809,0.8040882349014282
48388,0.5415439009666443
48451,0.981791615486145
82100,0.7322094440460205
82104,0.2819966673851013
82231,0.9101306796073914
90020,0.3124872148036957
90033,0.9767262935638428
90143,0.7830871343612671
28013,0.9688044190406799
28043,0.7727023959159851
28065,0.830161452293396
43529,0.5838853120803833
50710,0.7589111924171448
40059,0.09320978075265884
47430,0.9802412986755371
24344,0.7461528182029724
30822,0.8795755505561829
30825,0.9850605130195618
30887,0.7467066645622253
23337,0.8726601600646973
23364,0.9531694650650024
25297,0.9321339726448059
30508,0.9298146367073059
30509,0.6976086497306824
30534,0.24695777893066406
29030,0.48164063692092896
29050,0.3053383529186249
29052,0.2938605546951294
29137,0.3498111963272095
53714,0.9449194073677063
60798,0.44780611991882324
48693,0.9782147407531738
55260,0.9589167833328247
41976,0.9656098484992981
25413,0.6748043894767761
52436,0.8012123703956604
25317,0.2835748791694641
23885,0.5704984664916992
19815,0.3372936546802521
19817,0.956573486328125
21630,0.6813732385635376
30275,0.5112951397895813
55357,0.15864631533622742
50148,0.6049887537956238
47569,0.5198220610618591
47748,0.8195682168006897
54241,0.9314407110214233
26350,0.8387508988380432
26377,0.5246006846427917
24846,0.7485453486442566
24854,0.2559066116809845
24865,0.8456300497055054
24891,0.7006224989891052
30590,0.7314966917037964
24575,0.6685920357704163
29142,0.8026161789894104
32613,0.04094117507338524
49292,0.2642318606376648
49328,0.28054797649383545
27464,0.9716112613677979
27468,0.36432403326034546
27424,0.8164576292037964
29453,0.9014911651611328
62650,0.22958199679851532
62733,0.3396104574203491
57330,0.27154994010925293
57467,0.9065828919410706
59628,0.5073677897453308
59630,0.7312455177307129
59945,0.8848751783370972
54393,0.8984028100967407
27875,0.3106698989868164
26406,0.9784253239631653
24086,0.7033683657646179
24107,0.9928048253059387
24134,0.6267794370651245
31585,0.5496956706047058
45407,0.9703027606010437
61078,0.9561795592308044
49555,0.6692176461219788
56243,0.4429222047328949
56289,0.09319637715816498
27525,0.832370400428772
27536,0.8853766322135925
26928,0.9195399284362793
29364,0.8289951086044312
29377,0.9235673546791077
29398,0.9614493250846863
27894,0.2878207564353943
15832,0.9795128703117371
15865,0.9940449595451355
46854,0.913250744342804
47045,0.17624936997890472
41373,0.7918750643730164
41430,0.9892192482948303
29558,0.37631940841674805
32373,0.928013265132904
32421,0.40772557258605957
27931,0.6108735799789429
27949,0.6323851346969604
28508,0.7270245552062988
30638,0.5712655186653137
30678,0.20244072377681732
30682,0.9888355135917664
50761,0.8683871030807495
50762,0.9369050860404968
50822,0.6198705434799194
40337,0.7227705121040344
56478,0.17762857675552368
28911,0.7308868169784546
28933,0.39547526836395264
25411,0.5928753614425659
53294,0.7506986260414124
60104,0.30006644129753113
60295,0.9623502492904663
52330,0.9315173625946045
47271,0.7838208675384521
53775,0.9085332155227661
48794,0.9817885160446167
29666,0.42495304346084595
46081,0.5911479592323303
27355,0.8206540942192078
27365,0.7903596758842468
27367,0.5861392617225647
62035,0.9032403230667114
50017,0.9538450837135315
56703,0.20566919445991516
25581,0.9030894041061401
25611,0.9746222496032715
25634,0.1266876757144928
50440,0.46091845631599426
57051,0.4267725944519043
59246,0.7575278282165527
46251,0.05516234412789345
40695,0.7849461436271667
24402,0.2333814948797226
24444,0.6394743323326111
30924,0.3692837059497833
27599,0.5173268914222717
60436,0.8252491354942322
60595,0.5587143898010254
32502,0.9311540722846985
32536,0.38316377997398376
62183,0.18877844512462616
62194,0.8893581032752991
74252,0.9456667900085449
81464,0.9709073901176453
97547,0.47829756140708923
64740,0.04088417813181877
88782,0.8758490681648254
90560,0.9305474758148193
90658,0.9454889893531799
90688,0.930132269859314
83608,0.9889028668403625
77900,0.7684317827224731
77980,0.9046768546104431
85255,0.9579975605010986
51188,0.05096299946308136
71871,0.9636796712875366
71986,0.6411392092704773
72073,0.9896273612976074
84595,0.7688267827033997
93336,0.2981131970882416
81692,0.8518595695495605
89735,0.6018728017807007
98249,0.8933387398719788
98268,0.3902423083782196
79576,0.8543200492858887
79585,0.4899578392505646
65833,0.9583589434623718
65959,0.0683821365237236
65994,0.9360310435295105
91465,0.9481343030929565
91561,0.5482834577560425
91730,0.08680836856365204
85417,0.9942313432693481
98593,0.9801750779151917
98666,0.7565675973892212
80045,0.19271744787693024
67906,0.6324018239974976
93564,0.9409345984458923
93659,0.9461929798126221
69654,0.9653857946395874
58247,0.17058685421943665
58286,0.7475491762161255
99054,0.7540731430053711
99322,0.9777299165725708
99408,0.37431129813194275
99439,0.3763616383075714
99464,0.6538892388343811
66095,0.4480333626270294
66723,0.9114724397659302
66818,0.8923617005348206
92393,0.7364271879196167
65164,0.6813597083091736
99562,0.6354711055755615
23780,0.27571210265159607
23786,0.45109930634498596
24338,0.7384856939315796
92651,0.777418315410614
31866,0.6993215084075928
99897,0.7648552656173706
51505,0.8891984820365906
77163,0.168237566947937
86276,0.913175106048584
86530,0.17100940644741058
73612,0.8888043165206909
73755,0.07256247848272324
67150,0.8430258631706238
94828,0.11174914240837097
81020,0.15536603331565857
81096,0.8365378379821777
81146,0.9825546145439148
82806,0.9817466735839844
83182,0.6428340077400208
95057,0.07169241458177567
91143,0.64626544713974
91242,0.24156776070594788
85929,0.10915040224790573
86018,0.9450237154960632
77427,0.8207218050956726
77484,0.27308598160743713
77502,0.7709932923316956
95377,0.8738521337509155
72707,0.7886077761650085
72725,0.9383028745651245
72790,0.9394174814224243
95637,0.9342568516731262
58433,0.9917277097702026
67426,0.9364979267120361
67473,0.6803059577941895
71707,0.7323075532913208
89290,0.3215630054473877
95834,0.4670163691043854
69047,0.7118027210235596
69144,0.8469005823135376
93018,0.9465571641921997
93187,0.0736030787229538
93191,0.9263505339622498
91802,0.840747594833374
96023,0.7051994204521179
96199,0.10149428248405457
87986,0.9650893807411194
65401,0.9645019173622131
65431,0.09929092228412628
94049,0.2351599931716919
31973,0.7545080780982971
74955,0.6244890689849854
65449,0.831844687461853
94430,0.6882529258728027
65594,0.22179225087165833
65623,0.31716862320899963
75071,0.5819166898727417
82377,0.5543460845947266
69344,0.8968435525894165
76698,0.6762871742248535
68103,0.9617342948913574
68140,0.39326801896095276
68295,0.6046640276908875
72847,0.7692552208900452
72885,0.9636769890785217
72992,0.7483193874359131
73200,0.9470964074134827
73206,0.20560307800769806
80603,0.9781324863433838
80628,0.982588529586792
71130,0.996394693851471
43656,0.9345426559448242
90538,0.8889132142066956
77067,0.9932243227958679
76134,0.98451828956604
76151,0.9006152749061584
96666,0.6070837378501892
96686,0.9281623363494873
96731,0.9653558135032654
96950,0.8098575472831726
96958,0.7844308614730835
96965,0.9779056906700134
96997,0.9076805114746094
97037,0.1840832233428955
97042,0.680164635181427
97178,0.9588825106620789
84172,0.5636913776397705
84223,0.057436902076005936
84306,0.23808753490447998
78716,0.8221250176429749
79051,0.9891377091407776
70188,0.42313095927238464
70330,0.7612767815589905
77660,0.9628702998161316
77661,0.633707582950592
256,0.7895638346672058
755,0.6733465790748596
787,0.5766931772232056
804,0.5256476402282715
843,0.22811433672904968
863,0.49304306507110596
103,0.1253310889005661
107,0.9242726564407349
157,0.8815223574638367
184,0.45876795053482056
188,0.21282072365283966
198,0.8425185680389404
283,0.6327300667762756
303,0.9815131425857544
328,0.5536245107650757
546,0.44611427187919617
576,0.20244525372982025
924,0.5778239369392395
949,0.7718276977539062
959,0.8489114046096802
2124,0.559053897857666
2215,0.915257453918457
2420,0.7522042989730835
2477,0.5998446941375732
3598,0.8488642573356628
3639,0.9512393474578857
3644,0.8663264513015747
1767,0.6608883142471313
894,0.6131287217140198
1137,0.08995828032493591
1183,0.8968815803527832
1485,0.9169697761535645
1516,0.7606692910194397
1550,0.8590883612632751
1567,0.9307935237884521
1590,0.9843399524688721
1029,0.4833015203475952
1893,0.9098954200744629
1931,0.658420741558075
1935,0.852942705154419
1936,0.9473066926002502
1944,0.14795733988285065
2005,0.9501809477806091
2539,0.18362091481685638
2577,0.43207815289497375
2263,0.8901458382606506
2040,0.28162139654159546
2045,0.9112577438354492
2078,0.6198121309280396
4071,0.7506462931632996
4096,0.8426679968833923
4390,0.9716342091560364
4410,0.7394916415214539
2664,0.3685380518436432
2712,0.22122320532798767
2846,0.9229806065559387
3268,0.2007230818271637
3841,0.533268392086029
3935,0.3915559649467468
4002,0.9244664907455444
4559,0.8539187908172607
5193,0.8268870711326599
5205,0.45438191294670105
4893,0.5330929160118103
4900,0.8930533528327942
5760,0.9170106649398804
5850,0.20690076053142548
6447,0.617800235748291
6537,0.6004124879837036
6116,0.2970777750015259
5495,0.4838637113571167
5596,0.27891114354133606
5242,0.8765715956687927
5246,0.5800284147262573
4676,0.9438738226890564
4796,0.2429952323436737
5008,0.21703408658504486
5107,0.31455859541893005
7169,0.6335968375205994
7175,0.7135759592056274
7184,0.17034593224525452
7192,0.14420942962169647
7574,0.05404830724000931
7225,0.34740933775901794
7310,0.16030600666999817
6838,0.41938793659210205
6901,0.780009388923645
7718,0.8616384863853455
7786,0.20951032638549805
6378,0.8880897164344788
7412,0.8925868272781372
7445,0.3989576995372772
7482,0.33761292695999146
7513,0.9038190841674805
7539,0.18819493055343628
6212,0.7106809020042419
5662,0.597669780254364
5691,0.8280602693557739
5739,0.9271987080574036
6566,0.21458829939365387
6575,0.2777767479419708
6706,0.8835394382476807
6718,0.2325884997844696
6942,0.6489155292510986
6973,0.22708655893802643
6981,0.12260150909423828
6988,0.8538286089897156
7616,0.5424879193305969
7632,0.8970366716384888
7666,0.1765558421611786
7671,0.5627846717834473
7676,0.859792172908783
8507,0.9228885173797607
8546,0.6569384932518005
8619,0.15623563528060913
8665,0.5044568777084351
8674,0.2251199334859848
8682,0.9617052674293518
8697,0.8101989030838013
8731,0.9432743787765503
9002,0.5933276414871216
9054,0.43761181831359863
9211,0.9420900344848633
9227,0.7652060389518738
9233,0.3400477468967438
9248,0.8033747673034668
9253,0.7564269304275513
9271,0.9793534874916077
8775,0.8216322660446167
8799,0.9184070825576782
8800,0.9271868467330933
8393,0.9325898885726929
8431,0.9613303542137146
8452,0.39117419719696045
7958,0.7086794972419739
7979,0.9753899574279785
7985,0.4682632386684418
7996,0.18328996002674103
8081,0.25846344232559204
9092,0.9259902834892273
9096,0.1471937894821167
9278,0.5441165566444397
9402,0.10508853197097778
9412,0.40673398971557617
8481,0.5745366215705872
10144,0.18180109560489655
10152,0.2679905295372009
10167,0.7635786533355713
9656,0.9829283952713013
10502,0.20898272097110748
10512,0.8657565712928772
10515,0.10096681863069534
10594,0.21091368794441223
10597,0.7856918573379517
10623,0.5425311326980591
8803,0.8651390671730042
10224,0.4969615340232849
9725,0.9326261878013611
9810,0.6002823114395142
9920,0.22728678584098816
9965,0.6478623747825623
9966,0.9480748772621155
9982,0.8435949087142944
11061,0.7115055918693542
11216,0.7647151350975037
11236,0.15927623212337494
10349,0.832370400428772
10094,0.33186104893684387
10124,0.4612869918346405
11795,0.804979681968689
11850,0.3925360441207886
12773,0.7885666489601135
12937,0.6225435137748718
12203,0.4000820219516754
11952,0.9348706007003784
11973,0.97763991355896
11473,0.5105980038642883
11512,0.5195639729499817
11527,0.9055119156837463
11554,0.7401888966560364
12351,0.8948266506195068
10916,0.4983903467655182
11356,0.8539171814918518
11372,0.9382385611534119
11108,0.12720757722854614
11145,0.8743473291397095
11146,0.46851226687431335
11165,0.7762837409973145
11921,0.8726601600646973
12091,0.7512055039405823
10799,0.6358749270439148
11627,0.2325274497270584
11667,0.7661569714546204
11671,0.21759942173957825
11716,0.7165372371673584
13719,0.7555725574493408
13735,0.4673331379890442
14633,0.8149173855781555
14672,0.9650683999061584
14741,0.7942029237747192
12408,0.6057116389274597
12411,0.9130509495735168
12413,0.13803987205028534
12542,0.8941402435302734
12709,0.8033979535102844
13306,0.8335570693016052
13794,0.9914842247962952
13839,0.8466234803199768
13486,0.9347946643829346
13514,0.6386017203330994
13622,0.7220740914344788
13634,0.9321022629737854
22804,0.6175190210342407
21297,0.9033973217010498
22862,0.9882286787033081
15380,0.14154765009880066
17978,0.9455121159553528
19851,0.21711361408233643
14085,0.5029277205467224
14100,0.9561792016029358
14205,0.846497118473053
14219,0.8417918086051941
13902,0.9059255719184875
13948,0.9031423926353455
13406,0.8553622961044312
14263,0.5663840174674988
14291,0.6220611333847046
14334,0.39465823769569397
14342,0.48530441522598267
14475,0.835907518863678
22330,0.7701306343078613
22350,0.1695745289325714
20804,0.7778624892234802
20824,0.513486921787262
20913,0.10616426914930344
20931,0.9533481001853943
20979,0.765143096446991
22534,0.7694053649902344
21423,0.9057244658470154
21453,0.3470265567302704
18063,0.4542429745197296
18068,0.7224599719047546
18477,0.7236247658729553
18484,0.4040191173553467
18510,0.28487834334373474
18516,0.4293672442436218
16947,0.48063504695892334
16989,0.5854640007019043
18928,0.6887016892433167
17406,0.21398502588272095
17412,0.9145166873931885
20356,0.40394508838653564
20426,0.5815744400024414
20469,0.884022057056427
18996,0.8287646174430847
19039,0.9843643307685852
19488,0.9558619260787964
19529,0.28884005546569824
19547,0.768831193447113
16032,0.6633866429328918
16053,0.9870173335075378
23224,0.9438432455062866
20060,0.7521632313728333
20066,0.8724768161773682
22024,0.8637323975563049
20542,0.22663338482379913
20573,0.820126473903656
15508,0.9953768253326416
16550,0.22590138018131256
16579,0.9028688669204712
22581,0.4291629493236542
17021,0.4413467049598694
17041,0.7745571136474609
17548,0.9052680134773254
17570,0.17606352269649506
18082,0.12293202430009842
18089,0.5810753107070923
19960,0.9944930076599121
19981,0.6948469877243042
19984,0.928547739982605
20007,0.5819535851478577
16621,0.41314682364463806
18648,0.8972568511962891
17083,0.5131674408912659
19059,0.9568862915039062
19080,0.7105739712715149
19087,0.7622195482254028
21569,0.06134645640850067
15188,0.9912480115890503
18778,0.6079465746879578
20643,0.8946841955184937
17617,0.4540421664714813
22493,0.6768592000007629
16633,0.47427669167518616
16687,0.1698123961687088
23038,0.21905390918254852
23049,0.6967036128044128
21613,0.9095960855484009
15686,0.6811369061470032
18200,0.6051864624023438
20116,0.4471389651298523
18677,0.8704079389572144
18740,0.6837725639343262
17196,0.9891296625137329
16791,0.9084806442260742
16792,0.4497728943824768
16805,0.7157596945762634
22914,0.9281155467033386
14598,0.9635339975357056
14611,0.29897889494895935
21769,0.2140355110168457
18395,0.7420815229415894
16860,0.7595902681350708
18815,0.7333951592445374
18839,0.37733954191207886
17330,0.22256377339363098
21828,0.9177938103675842
15933,0.9557878971099854
21123,0.6262844800949097
21124,0.8782565593719482
22206,0.857048511505127
16271,0.750695526599884
20698,0.7909384965896606
22693,0.9512999057769775
21223,0.9488222002983093
14517,0.686864972114563
16281,0.6445965766906738
27172,0.5233967304229736
29905,0.9144237637519836
24181,0.12478569895029068
24237,0.5440430641174316
20326,0.8890573382377625
18897,0.9183034300804138
20742,0.11026604473590851
20745,0.5772010087966919
20776,0.9880154728889465
20794,0.5423547029495239
19333,0.4749335050582886
19356,0.9273064732551575
28166,0.43128085136413574
28180,0.27849194407463074
28192,0.34384122490882874
28221,0.8963204026222229
28651,0.772672176361084
27077,0.4309566915035248
27162,0.7548871636390686
29829,0.26163241267204285
29861,0.579197347164154
28700,0.19827093183994293
28724,0.06709600239992142
25234,0.8789941668510437
27232,0.041758667677640915
27237,0.9108502864837646
27247,0.987730085849762
27797,0.7154054641723633
27800,0.9447411298751831
28843,0.7236082553863525
28887,0.9781590700149536
29274,0.5777227878570557
15265,0.4634431004524231
23707,0.9748775959014893
25708,0.6889161467552185
26219,0.19355040788650513
26228,0.8583798408508301
24745,0.6615732312202454
26688,0.4183267056941986
25724,0.8885546326637268
25786,0.9833047389984131
28247,0.7182394862174988
42351,0.9354733228683472
23568,0.9706377983093262
15003,0.9646238088607788
62298,0.08528708666563034
62380,0.5215402245521545
63058,0.9188375473022461
63109,0.7904155850410461
46339,0.6858136653900146
52875,0.9822814464569092
53176,0.9615846872329712
47983,0.9804830551147461
48038,0.8289241790771484
25929,0.5534225702285767
27667,0.9873661994934082
29708,0.4888484477996826
46411,0.9581896066665649
46487,0.9620407819747925
54681,0.09149980545043945
24975,0.7179735898971558
24977,0.9696942567825317
24978,0.2956225275993347
24995,0.24365252256393433
25008,0.46080976724624634
17655,0.6004555821418762
17656,0.9589079022407532
17667,0.36597558856010437
25935,0.7421950697898865
40851,0.7817187309265137
43122,0.6644665002822876
32247,0.9477282166481018
32287,0.3405410945415497
28515,0.98005610704422
58782,0.838200569152832
58810,0.6072718501091003
46668,0.9348061084747314
46733,0.961523711681366
61659,0.12475843727588654
57637,0.45112210512161255
57686,0.2785244882106781
57713,0.9009267091751099
70745,0.9053041338920593
44508,0.3416917622089386
46815,0.8345392942428589
53372,0.5188854336738586
53432,0.11698989570140839
48327,0.9730037450790405
48414,0.39574119448661804
48420,0.7494547367095947
48580,0.9813175797462463
45576,0.9226426482200623
82202,0.9434426426887512
90021,0.23918351531028748
19739,0.9935553669929504
28055,0.42903298139572144
28090,0.9010342359542847
28576,0.8574391007423401
43323,0.1658279299736023
43456,0.5569754242897034
50623,0.9671346545219421
32810,0.8554041385650635
62032,0.610641360282898
41621,0.9902370572090149
30798,0.5912758708000183
30829,0.8263776898384094
23368,0.917531430721283
30551,0.8705359697341919
29123,0.10564616322517395
53596,0.6043583750724792
60668,0.9828359484672546
55104,0.8161188960075378
55188,0.31233200430870056
23473,0.9072822332382202
23478,0.47044456005096436
52370,0.9392966032028198
52467,0.06651739031076431
25321,0.6889153122901917
25329,0.8397960066795349
25337,0.570734441280365
23802,0.7906012535095215
19793,0.23252388834953308
21619,0.7580905556678772
30234,0.9439267516136169
55529,0.1363687515258789
42851,0.959701657295227
42929,0.7874179482460022
47556,0.03244005888700485
54247,0.667172908782959
54305,0.9703943729400635
26317,0.9178678393363953
24902,0.8451367616653442
30341,0.3476114571094513
30354,0.7048591375350952
24569,0.28675025701522827
32203,0.7066732048988342
61030,0.7200676202774048
32637,0.7527572512626648
27486,0.9607463479042053
27434,0.9293285012245178
29478,0.49456873536109924
29483,0.7165874242782593
31320,0.13201302289962769
31385,0.4563352167606354
57290,0.9681894183158875
57299,0.23343059420585632
57321,0.0824337750673294
27499,0.7049093842506409
59834,0.8434423804283142
54406,0.4311135411262512
54487,0.05676085501909256
27866,0.8972023725509644
27872,0.980221152305603
26381,0.6488811373710632
26384,0.27140840888023376
26391,0.9583984017372131
26398,0.12540124356746674
26401,0.8273419141769409
26425,0.8562067151069641
24029,0.5263170599937439
24071,0.7221146821975708
24083,0.403868705034256
24123,0.8216878771781921
31569,0.9704502820968628
45176,0.8168517351150513
45213,0.6660667061805725
45339,0.9621955156326294
45431,0.20042972266674042
49611,0.8772838115692139
56269,0.8887968063354492
56290,0.8770669102668762
27542,0.6276072263717651
26889,0.095660001039505
26921,0.8217118382453918
23318,0.3739319443702698
27905,0.9638618230819702
25049,0.9029213786125183
25070,0.5643988251686096
25113,0.9229089021682739
25117,0.3164535164833069
32733,0.8225741386413574
46845,0.6627229452133179
46851,0.35088109970092773
47035,0.9790641665458679
41216,0.1249518096446991
41217,0.16303731501102448
41311,0.8515388369560242
50721,0.8027341365814209
27570,0.9853067398071289
59986,0.8313411474227905
32351,0.7813122868537903
32410,0.33431321382522583
32436,0.15670017898082733
61157,0.8568437099456787
27979,0.667946994304657
17780,0.7134105563163757
17807,0.2317577302455902
26046,0.9618716835975647
26055,0.704137921333313
26105,0.7918387055397034
26118,0.5042461156845093
26125,0.09127476811408997
26160,0.5800223350524902
50757,0.3868991732597351
50772,0.6429755091667175
50817,0.9398871064186096
52162,0.9338198304176331
61182,0.9888695478439331
61223,0.6294421553611755
56440,0.592914879322052
28915,0.9933607578277588
28960,0.48923271894454956
28973,0.2873593866825104
25400,0.7884951233863831
53896,0.8511092066764832
29621,0.16730713844299316
29629,0.807445228099823
29646,0.9705618619918823
29664,0.917669415473938
29665,0.9558894634246826
23523,0.45456576347351074
46057,0.17060431838035583
27379,0.43257007002830505
30140,0.6567420363426208
62072,0.9475045204162598
50041,0.7694277763366699
56758,0.6921428442001343
25590,0.7185119390487671
49068,0.10516504943370819
50507,0.17320503294467926
57139,0.743326723575592
46260,0.9470341801643372
40474,0.8310365676879883
40708,0.979862630367279
27597,0.14840121567249298
32512,0.3375580310821533
32540,0.07147707790136337
62157,0.836633026599884
62239,0.529543399810791
51025,0.7013752460479736
51027,0.19276495277881622
74220,0.9472522139549255
81529,0.9227593541145325
76196,0.42007261514663696
97488,0.8751868009567261
97529,0.21277093887329102
64538,0.9797205328941345
64673,0.547252893447876
88635,0.9613093137741089
88857,0.9719599485397339
90755,0.8616518378257751
90814,0.746211588382721
83527,0.7806089520454407
83564,0.9403345584869385
77746,0.707658588886261
97942,0.27399182319641113
71962,0.8067958354949951
84450,0.2814582884311676
84624,0.8552708625793457
93277,0.9584864377975464
93360,0.12617342174053192
93398,0.7812703847885132
31489,0.8174717426300049
51335,0.09646110981702805
51418,0.4834311008453369
51482,0.15298035740852356
81807,0.7244275808334351
98169,0.37609636783599854
98279,0.9568987488746643
72233,0.2870745360851288
31543,0.8398967385292053
65954,0.9933686852455139
66061,0.7387042045593262
67735,0.920628011226654
67744,0.12131939083337784
91511,0.7671380043029785
91513,0.8451768159866333
91633,0.9267021417617798
85402,0.7891131639480591
85539,0.980641782283783
98920,0.9372544288635254
79998,0.9361493587493896
68059,0.15442489087581635
93595,0.3619014322757721
93610,0.23372232913970947
93632,0.5636805891990662
69433,0.9569398164749146
69447,0.9490523338317871
58264,0.8367928266525269
89799,0.8058032989501953
87291,0.9450148940086365
99185,0.7801864147186279
79090,0.9339686036109924
79262,0.8818431496620178
79348,0.8122571110725403
73488,0.24233926832675934
91773,0.8349360823631287
68867,0.9842427968978882
92425,0.7400345802307129
64999,0.983748197555542
99503,0.9651676416397095
30065,0.7552681565284729
30088,0.537232518196106
23785,0.9065985083580017
23788,0.9087092876434326
31135,0.8150890469551086
31139,0.35511335730552673
75666,0.9727219343185425
75668,0.9697434902191162
75741,0.5088386535644531
69857,0.15920045971870422
92644,0.3469691276550293
92668,0.8860238790512085
86810,0.6637381315231323
86824,0.8988812565803528
86845,0.1300164759159088
86866,0.26805955171585083
86879,0.1546774059534073
87053,0.5440813302993774
83932,0.20679804682731628
78415,0.9226295948028564
44602,0.9390313029289246
51493,0.9236660003662109
51545,0.31115320324897766
67067,0.6849626898765564
74376,0.5201236009597778
74493,0.3742695152759552
94924,0.1227584108710289
94937,0.8258059024810791
94974,0.6769390106201172
51663,0.9185432195663452
51698,0.9059771299362183
51821,0.8726473450660706
90396,0.37325844168663025
90418,0.7694801688194275
83210,0.9862284660339355
65217,0.9058240056037903
72545,0.19023026525974274
95118,0.3587922155857086
95129,0.5384683609008789
95136,0.9848532676696777
91090,0.24167713522911072
85866,0.1275545060634613
86086,0.3164949417114258
93679,0.29206231236457825
77443,0.9840672016143799
95515,0.6080834865570068
80163,0.7719288468360901
80237,0.9938517808914185
58416,0.27490001916885376
67344,0.2525472939014435
67460,0.15231747925281525
67527,0.17478038370609283
81317,0.961821973323822
92873,0.8119648098945618
95725,0.8348089456558228
80490,0.880382239818573
80511,0.8294045329093933
74821,0.6572002172470093
69237,0.6905094981193542
69251,0.900785505771637
69265,0.9551184773445129
93836,0.43373945355415344
93870,0.8289109468460083
93203,0.973183810710907
84966,0.612794816493988
85138,0.7859780192375183
91827,0.9408625364303589
29502,0.9950916767120361
29503,0.4549795985221863
96145,0.502319872379303
96212,0.8698233962059021
94091,0.9590007662773132
58732,0.20545294880867004
58740,0.9539051055908203
58781,0.5139952301979065
31965,0.6925480365753174
32013,0.5605086088180542
29552,0.22631242871284485
23390,0.6054110527038574
66405,0.5283064246177673
66412,0.3769061267375946
94297,0.6935520172119141
94312,0.8122918009757996
94525,0.9934476017951965
65703,0.6556682586669922
75054,0.9426548480987549
75249,0.8844093084335327
76800,0.5336863994598389
76835,0.6161749362945557
68135,0.925446093082428
68174,0.5911389589309692
68251,0.9085181355476379
72844,0.39305579662323
72914,0.8528896570205688
72924,0.6780508160591125
73249,0.936598002910614
70907,0.9850093126296997
70937,0.6998053193092346
71012,0.8024511337280273
44735,0.639242947101593
70004,0.8703241348266602
66532,0.7850595116615295
80778,0.29613420367240906
80791,0.9629694819450378
80847,0.9007629156112671
80982,0.9585738182067871
88325,0.832883358001709
88343,0.8751745820045471
82494,0.9690393209457397
82609,0.9626553058624268
90522,0.38408252596855164
73811,0.054243505001068115
74016,0.8641269207000732
75824,0.4170188903808594
75883,0.1564030647277832
76005,0.8680883049964905
70080,0.9448129534721375
96734,0.18856579065322876
96767,0.8368713855743408
96962,0.2540062665939331
97070,0.9678480625152588
78685,0.15024639666080475
78801,0.7332957983016968
78946,0.9536558985710144
79015,0.9937083721160889
43812,0.294200599193573
43982,0.6190109848976135
