patient_id,label
3,1.0
6,0.0
17,0.0
20,0.0
21,1.0
22,0.0
25,0.0
27,0.0
44,0.0
52,1.0
55,0.0
58,0.0
60,0.0
61,1.0
62,0.0
64,0.0
65,0.0
68,1.0
74,0.0
75,0.0
77,0.0
78,1.0
83,1.0
84,1.0
88,0.0
91,1.0
92,0.0
94,1.0
95,0.0
105,1.0
109,0.0
111,0.0
113,0.0
115,1.0
116,0.0
117,1.0
124,1.0
125,0.0
127,1.0
129,0.0
130,0.0
131,0.0
133,1.0
134,1.0
135,1.0
137,1.0
142,0.0
147,0.0
148,1.0
152,0.0
153,0.0
161,0.0
162,0.0
165,0.0
167,0.0
170,0.0
171,1.0
172,0.0
175,1.0
176,1.0
183,0.0
187,0.0
189,0.0
200,0.0
216,1.0
234,1.0
235,1.0
242,1.0
282,1.0
283,1.0
342,1.0
346,1.0
365,1.0
368,1.0
370,1.0
377,1.0
383,1.0
384,1.0
386,1.0
390,1.0
408,1.0
416,1.0
419,1.0
420,1.0
423,1.0
426,1.0
434,1.0
439,1.0
443,1.0
445,1.0
450,1.0
463,1.0
477,1.0
488,1.0
496,1.0
501,1.0
509,1.0
511,1.0
514,1.0
517,1.0
525,1.0
529,1.0
530,1.0
538,1.0
540,1.0
546,1.0
564,1.0
580,1.0
584,1.0
591,1.0
608,1.0
650,1.0
664,1.0
682,1.0
690,1.0
695,1.0
707,1.0
709,1.0
710,1.0
711,1.0
712,1.0
714,1.0
716,1.0
717,1.0
723,1.0
728,1.0
729,1.0
732,1.0
739,1.0
743,1.0
745,1.0
755,1.0
757,1.0
770,1.0
771,1.0
773,1.0
781,1.0
782,1.0
786,1.0
787,1.0
792,1.0
797,1.0
803,1.0
804,1.0
808,1.0
813,1.0
820,1.0
831,1.0
843,1.0
846,1.0
863,1.0
874,1.0
876,1.0
886,1.0
888,1.0
906,1.0
914,1.0
935,1.0
938,1.0
945,1.0
955,1.0
959,1.0
960,1.0
971,1.0
976,1.0
981,1.0
983,1.0
984,1.0
989,1.0
998,1.0
1000,1.0
1002,1.0
1006,1.0
1010,1.0
1033,1.0
1038,1.0
1050,1.0
2584,0.0
2587,0.0
2589,0.0
2591,0.0
2592,0.0
2594,0.0
2597,0.0
2603,0.0
2610,0.0
2611,0.0
2617,0.0
2622,0.0
2625,0.0
2629,0.0
2632,0.0
2634,0.0
2640,0.0
2642,0.0
2645,0.0
2647,0.0
2648,0.0
2650,0.0
2658,0.0
2661,0.0
2662,0.0
2666,0.0
2667,0.0
2674,0.0
2675,0.0
2677,0.0
2680,0.0
2684,0.0
2687,0.0
2688,0.0
2690,0.0
2692,0.0
2693,0.0
2695,0.0
2696,0.0
2698,0.0
2700,0.0
2702,0.0
2708,0.0
2712,0.0
2713,0.0
2717,0.0
2719,0.0
2726,0.0
2729,0.0
2737,0.0
2741,0.0
2743,0.0
2745,0.0
2746,0.0
2750,0.0
2753,0.0
2755,0.0
2756,0.0
2759,0.0
2761,0.0
2763,0.0
2769,0.0
2776,0.0
2777,0.0
2781,0.0
2782,0.0
2783,0.0
2784,0.0
2792,0.0
2794,0.0
2796,0.0
2798,0.0
2802,0.0
2803,0.0
2807,0.0
2809,0.0
2810,0.0
2813,0.0
2815,0.0
2816,0.0
2817,0.0
2822,0.0
2823,0.0
2829,0.0
2830,0.0
2833,0.0
2838,0.0
2843,0.0
2845,0.0
2848,0.0
2850,0.0
2852,0.0
2856,0.0
2860,0.0
2861,0.0
2865,0.0
2867,0.0
2871,0.0
2872,0.0
2874,0.0
2876,0.0
2878,0.0
2880,0.0
2885,0.0
2886,0.0
2890,0.0
2895,0.0
2904,0.0
2907,0.0
2909,0.0
2914,0.0
2917,0.0
2920,0.0
2921,0.0
2922,0.0
2925,0.0
2929,0.0
2933,0.0
2936,0.0
2942,0.0
2944,0.0
2945,0.0
2947,0.0
2950,0.0
2952,0.0
2953,0.0
2957,0.0
2958,0.0
2960,0.0
2961,0.0
2967,0.0
2970,0.0
2973,0.0
2977,0.0
2979,0.0
2992,0.0
2999,0.0
3000,0.0
3004,0.0
3011,0.0
3012,0.0
3013,0.0
3017,0.0
3018,0.0
3019,0.0
3024,0.0
3025,0.0
3027,0.0
3029,0.0
3035,0.0
3045,0.0
3047,0.0
3049,0.0
3052,0.0
3053,0.0
3054,0.0
3057,0.0
3061,0.0
3065,0.0
3068,0.0
3073,0.0
3074,0.0
3075,0.0
3081,0.0
3086,0.0
3089,0.0
3101,0.0
3109,0.0
3110,0.0
3111,0.0
3112,0.0
3124,0.0
3126,0.0
3128,0.0
3136,0.0
3137,0.0
3138,0.0
3140,0.0
3146,0.0
3149,0.0
3150,0.0
3159,0.0
3161,0.0
3164,0.0
3165,0.0
3172,0.0
3181,0.0
3182,0.0
3184,0.0
3185,0.0
3197,0.0
3203,0.0
3204,0.0
3207,0.0
3210,0.0
3213,0.0
3214,0.0
3219,0.0
3222,0.0
3223,0.0
3225,0.0
3228,0.0
3231,0.0
3237,0.0
3238,0.0
3239,0.0
3240,0.0
3241,0.0
3242,0.0
3243,0.0
3244,0.0
3249,0.0
3250,0.0
3251,0.0
3252,0.0
3253,0.0
3261,0.0
3263,0.0
3268,0.0
3275,0.0
3278,0.0
3279,0.0
3282,0.0
3287,0.0
3291,0.0
3292,0.0
3298,0.0
3300,0.0
3301,0.0
3302,0.0
3303,0.0
3304,0.0
3305,0.0
3309,0.0
3315,0.0
3316,0.0
8935,0.0
8936,0.0
8942,0.0
8945,0.0
8949,0.0
8951,0.0
8954,0.0
8958,0.0
8961,0.0
8962,0.0
8963,0.0
8964,0.0
8965,0.0
8968,0.0
8969,0.0
8973,0.0
8974,0.0
8975,0.0
8976,0.0
8978,0.0
8980,0.0
8981,0.0
8982,0.0
8985,0.0
8986,0.0
8987,0.0
8988,0.0
8992,0.0
8993,0.0
8994,0.0
8995,0.0
8997,0.0
8999,0.0
9003,0.0
9006,0.0
9008,0.0
9010,0.0
9011,0.0
9015,0.0
9016,0.0
9018,0.0
9022,0.0
9026,0.0
9027,0.0
9028,0.0
9034,0.0
9037,0.0
9038,0.0
9040,0.0
9041,0.0
9051,0.0
9052,0.0
9057,0.0
9058,0.0
9060,0.0
9061,0.0
9062,0.0
9063,0.0
9064,0.0
9065,0.0
9066,0.0
9069,0.0
9093,0.0
16670,0.0
16672,0.0
16675,0.0
16679,0.0
16682,0.0
16683,0.0
16686,0.0
16689,0.0
16692,0.0
16694,0.0
16696,0.0
16700,0.0
16701,0.0
16702,0.0
16715,0.0
16716,0.0
16718,0.0
16720,0.0
16723,0.0
16728,0.0
16729,0.0
16732,0.0
16735,0.0
16739,0.0
16745,0.0
16748,0.0
16749,0.0
16750,0.0
16751,0.0
18847,0.0
18849,0.0
18857,0.0
18858,0.0
18859,0.0
18863,0.0
18865,0.0
18867,0.0
18869,0.0
18870,0.0
23858,1.0
23860,1.0
23866,1.0
23867,1.0
23869,1.0
23871,1.0
23873,1.0
23880,1.0
23882,1.0
23900,1.0
23903,1.0
23904,1.0
23919,1.0
23920,1.0
23924,1.0
23928,1.0
23938,1.0
23941,1.0
23942,1.0
23951,1.0
23958,1.0
23959,1.0
23969,1.0
23971,1.0
23974,1.0
23979,1.0
24021,1.0
24031,1.0
24032,1.0
24039,1.0
24042,1.0
24043,1.0
24049,1.0
24064,1.0
24067,1.0
24072,1.0
24074,1.0
24076,1.0
24077,1.0
24080,1.0
24091,1.0
24092,1.0
24096,1.0
24101,1.0
24102,1.0
24110,1.0
24111,1.0
24115,1.0
24128,1.0
24134,1.0
24135,1.0
24142,1.0
24143,1.0
24161,1.0
24163,1.0
24177,1.0
24180,1.0
24181,1.0
24185,1.0
24190,1.0
24198,1.0
24224,1.0
24237,1.0
24243,1.0
24249,1.0
24252,1.0
24253,1.0
24286,1.0
24292,1.0
24294,1.0
24307,1.0
24312,1.0
24323,1.0
24352,1.0
24356,1.0
24361,1.0
24364,1.0
24369,1.0
24381,1.0
24386,1.0
24389,1.0
24446,1.0
24452,1.0
24465,1.0
24466,1.0
24469,1.0
24483,1.0
24489,1.0
24493,1.0
24510,1.0
24524,1.0
24529,1.0
24532,1.0
24533,1.0
24556,1.0
24559,1.0
24569,1.0
24577,1.0
24580,1.0
24592,1.0
24597,1.0
24601,1.0
24607,1.0
24609,1.0
24612,1.0
24619,1.0
24624,1.0
24641,1.0
24646,1.0
24650,1.0
24655,1.0
24666,1.0
24674,1.0
24687,1.0
24691,1.0
24694,1.0
24703,1.0
25522,1.0
