ccopy_reg
_reconstructor
p0
(clrsgd
LogisticRegressionSGD
p1
c__builtin__
object
p2
Ntp3
Rp4
(dp5
Veta
p6
F0.01
sVweight
p7
(lp8
F-0.00688687430232302
aF0.0
aF0.008999298682906028
aF-0.003517609182051424
aF-0.0034513052399428442
aF-0.032639807627929306
aF-0.002074534759596072
aF-0.06850975408615723
aF-0.00893986487016157
aF0.00628646547325768
aF-0.0007844604434638013
aF-0.01239474048339371
aF-0.004614484204506918
aF-0.012584624223897181
aF0.007169253667651701
aF-0.010362132089561623
aF-0.007241005177241319
aF-0.0044758184703403555
aF-0.006068445310542207
aF0.00872131521486469
aF-0.016886685833676123
aF-0.003445465100677907
aF-0.00484978906809064
aF-0.00438534952460341
aF-0.01945213403409895
aF0.002134646623058776
aF0.005664711477997312
aF0.006899879585098565
aF-0.0031898077155744927
aF0.0014774961139895956
aF0.012823439347539566
aF-0.0010388425232937299
aF-0.00717948259438151
aF-0.020362836704054765
aF-0.009354285762895414
aF0.0022544599088472114
aF0.0
aF0.0
aF0.0019290511106928678
aF-0.002206025045670668
aF-0.0022104745745333957
aF-0.010671522398424779
aF-0.005646471561550055
aF0.002505627356580657
aF0.0055217053010356955
aF-0.003869984199982473
aF-0.003025038290804406
aF-0.004093853341325459
aF-0.00399790688968073
aF0.0023918011552919952
aF0.0008968696063707893
aF-0.0047730338956084705
aF-0.009659559249212737
aF-0.019973947200815485
aF0.009419986109186384
aF-0.008485476103111005
aF-0.0099154520844779
aF-0.013663591906856627
aF0.005758284494670416
aF0.01786769774147026
aF-0.0053209991838846496
aF-0.0008022233564513358
aF-0.013499041968202015
aF-0.011401299780073352
aF-0.002613882739152596
aF-0.003995901323130314
aF-0.002398347519141697
aF0.0
aF0.007041399818804973
aF0.005525962436096108
aF-0.014410885747889004
aF-0.00477604327228239
aF-0.0017844456703692687
aF-0.002597143858019087
aF0.0070819630349873595
aF-0.004740169614459557
aF-0.0006500002139575131
aF0.003466474363369569
aF-0.008562225979832468
aF0.005491010776071006
aF0.0
aF-0.0035863600075848544
aF-0.0021366110523404888
aF-0.004838244176270232
aF-0.004614484204506918
aF-0.006158640217823572
aF-0.012425950130860838
aF-0.004599597598546083
aF0.0
aF-0.003747099880211498
aF0.013292872161949618
aF-0.004322455075516949
aF0.0
aF-0.0190831593028279
aF-0.015730586782733876
aF-0.004732322912091843
aF-0.001518537822573724
aF0.0
aF0.0063884128537399065
aF-0.0055254438231862706
aF-0.007771385137748016
aF-0.00484978906809064
aF-0.01688168066385598
aF0.0
aF0.005153863843893428
aF-0.01000562733403937
aF-0.02091331927991292
aF-0.0028418042101843836
aF-0.029195742951910946
aF-0.004992815058322601
aF-0.004183717991236052
aF-0.009302210157453035
aF-0.011315561242505387
aF0.006284641069515089
aF0.0
aF0.0
aF-0.03650787682506118
aF-0.0026403597484755226
aF-0.007592327417527335
aF-0.012017564998844177
aF-0.009237955193689541
aF-0.004319034370605546
aF-0.03173645125326778
aF0.0
aF-0.006290658092712209
aF-0.0038798924131301206
aF0.011064931665163712
aF-0.004102751093600378
aF0.008437270817438275
aF0.005606914259840995
aF-0.009451760731941896
aF-0.004732322912091843
aF-0.017529611878566314
aF-0.0048808532259245144
aF-0.0027221853174111904
aF0.015748730930471824
aF0.004206047406141767
aF0.0
aF-0.003937683364363142
aF-0.0026775006025140206
aF-0.042676378979259896
aF-0.00273163910046772
aF-0.013116846226703229
aF0.006876108734776366
aF-0.0041822270988682644
aF-0.030777224164018287
aF-0.004980803728280521
aF-0.04320545599994163
aF0.008437270817438275
aF-0.004379023872971209
aF-0.0049471616436797435
aF0.0
aF0.013201100895006129
aF-0.0030241214208280944
aF-0.025857572949692383
aF-0.012044156946775224
aF-0.005751150271829264
aF0.0
aF0.027221824052980615
aF-0.0020497843104943904
aF0.0030142472266267263
aF-0.004127337474870422
aF-0.06891437932805905
aF0.0018000242046927947
aF-0.008129648373819904
aF-0.0010847014903437304
aF-0.003263064652427962
aF-0.0048842832912585985
aF0.0029411436733327865
aF-0.0134387524286852
aF-0.004326954571931998
aF-0.07523164916978035
aF0.002738578282645565
aF-0.003407200233798581
aF-0.0043106374818688035
aF0.008844751110679207
aF-0.004398846012265017
aF-0.017452494817211242
aF-0.0009879856838986218
aF-0.004704256093066853
aF-0.008743667388849002
aF-0.007971903577196043
aF0.005491010776071006
aF-0.016909515095856607
aF0.00755661370053945
aF-0.012174652003332249
aF-0.004265853999723213
aF-0.007106430181267597
aF-0.03493764200533609
aF0.00206015159807252
aF-0.0029303694954205513
aF-0.0379236840878131
aF-0.004994122716953541
aF-0.03475801707997167
aF-0.004869286611331315
aF-0.004565916166253731
aF-0.008587291767966954
aF0.007723790309057532
aF-0.008206474992407743
aF-0.009395637733525853
aF-0.0008916828181920511
aF-0.006175823997130949
aF-0.0038341440411527707
aF-0.004586874303222702
aF-0.0042500144008891785
aF-0.0048388919275757355
aF-0.00778703117143488
aF-0.0034103240582144313
aF-0.0025308039349845753
aF0.0026172169721459487
aF-0.0030925665567703192
aF0.0033241316808555054
aF-0.0022104745745333957
aF-0.016323157405142487
aF0.006471220723677967
aF0.00545344740983277
aF-0.00427763831763645
aF-0.006778750649874651
aF-0.02617037212234481
aF-0.017173502604534423
aF-0.029579451426003496
aF-0.017711994431148303
aF-0.004218590754446094
aF-0.0016371852893828597
aF-0.004549741386645101
aF-0.003955657908936687
aF-0.010483528387212438
aF-0.00356686054661252
aF-0.005297349756864466
aF0.0010731563248259435
aF-0.013242873509979311
aF-0.0037426805809768564
aF0.0
aF0.0
aF0.0070819630349873595
aF-0.0048388919275757355
aF-0.004284896446725003
aF-0.004447889711135102
aF-0.004912768842277157
aF-0.014461253771819695
aF-0.005351261202127837
aF-0.004784294166755008
aF-0.013918927878659563
aF0.015989464582942026
aF-0.009092552414505656
aF0.005348806212461896
aF0.005683294143926036
aF0.0
aF0.0015485910558237126
aF-0.0041150993292764886
aF-0.009579890321557736
aF-0.0036420578752199223
aF0.004394060115848614
aF-0.004224168184830739
aF-0.004676875572734044
aF0.005677156404910149
aF-0.009107215953651642
aF-0.001231014765448701
aF-0.003899106593530136
aF-0.01580539754626063
aF-0.005932973547551794
aF-0.0023131239504599714
aF-0.0034828338875619903
aF-0.004892819132771825
aF-0.00647761628810157
aF-0.002757306168555675
aF-0.0018059438838475973
aF0.0011474243110375136
aF-0.004421471565961121
aF-0.002881475337089248
aF-0.008175454454093144
aF-0.0049495429181803125
aF-0.004696371902065492
aF-0.006869661399533253
aF0.0005776826588276365
aF0.01687802392008252
aF0.0
aF-0.003894005161002516
aF-0.0032921663731239
aF-0.004868755003402887
aF0.0
aF-0.00736359566919677
aF-0.020857432217729427
aF0.0
aF-0.002771770296116604
aF-0.004822907227068044
aF-0.006244642095120019
aF-0.0018386604129251342
aF0.008490002616945738
aF0.0006284498791036212
aF0.0
aF0.005595832223280959
aF0.005596443640395274
aF-0.00673734469416155
aF-0.0021796202012815836
aF0.014673506076862231
aF-0.002991234068273119
aF0.0025272402285280893
aF-0.007106060706127123
aF-0.02112259967562229
aF-0.008392353813173527
aF0.0
aF-0.004152032597910539
aF0.01137529838369403
aF0.008551781941339197
aF-0.00427763831763645
aF-0.017263125329420835
aF-0.004667604306947379
aF0.0
aF0.005758284494670416
aF0.005563567101698247
aF-0.011480190589214949
aF-0.0034396874668816474
aF-0.004444662394249089
aF0.008606116972764569
aF-0.0025925774371391803
aF0.008694290598675807
aF-0.007533735758917397
aF-0.009005119501230906
aF0.0
aF-0.0032216706728810914
aF-0.007684199663719363
aF-0.008895418932722915
aF-0.0033378561253156825
aF-0.03961605207835864
aF-0.009023116102896517
aF-0.00693622923967215
aF-0.011144455787764438
aF-0.004667604306947379
aF-0.006400632504189019
aF0.0
aF6.905713063653303e-05
aF-0.004805921003770995
aF-0.00436437589496735
aF-0.001969576155092727
aF-0.08262348211791903
aF-0.012101876715577189
aF-0.011067694103887124
aF-0.008536314989216524
aF-0.01000600533990902
aF-0.003118164105907828
aF0.0011075913387657245
aF0.0
aF0.00528138120115295
aF0.003114730296158066
aF-0.008280069403313675
aF-0.000492038882634917
aF0.01001487868383546
aF-0.004310917346794008
aF-0.001149506120270483
aF-0.028895074590799662
aF-0.017360477522443792
aF-0.002411727361104251
aF0.0
aF-0.0030925665567703192
aF-0.004524455027628006
aF-0.04042999245968665
aF-0.019356410758488655
aF-0.004972326020609624
aF-0.004284896446725003
aF-0.008359738819037798
aF0.005237706323070841
aF-0.019583409793134395
aF-0.0030144220094343935
aF-0.0042500144008891785
aF0.0
aF-0.002539520428986493
aF-0.00933299242692294
aF0.005554106413556688
aF0.0
aF-0.023547476885434623
aF0.025654622916192013
aF-0.01142330760086565
aF-0.006725276709983874
aF-0.001679669991961567
aF-0.0065350613851554214
aF-0.0028636764536521977
aF-0.0031015084499044603
aF-0.004514563463183283
aF-0.0020258968641579046
aF-0.002483667124202943
aF-0.008765481758827815
aF0.015219215920936882
aF-0.01673123323492069
aF-0.011381112565050727
aF-0.01442567662451242
aF-0.03710760026106313
aF-0.020098354842930363
aF0.0
aF-0.013217009564808264
aF-0.0025724712175555
aF-0.003991952271586997
aF-0.002881475337089248
aF0.0
aF-0.024801948335128443
aF-0.006150247374702308
aF0.0007239123129864616
aF-0.009418042152741219
aF-0.00839259571418537
aF-0.00807947930429868
aF-0.00436437589496735
aF-0.01115799676237416
aF-0.004805921003770995
aF0.007295395971159871
aF-0.017526101566355187
aF0.0032350219840444213
aF-0.004556661718881642
aF-0.012915380121327235
aF0.0
aF0.0
aF0.007076814524147084
aF-0.014177367508741451
aF-0.0005904596005488481
aF-0.00841666405132159
aF-0.000315660764530049
aF0.011110361978664045
aF-0.016035804407438604
aF0.012417284296912495
aF0.0009449780352370151
aF-0.001991204701794212
aF-0.0017511163011630533
aF-0.007232581356224414
aF-0.0042500144008891785
aF0.012002921126344431
aF0.006015910779823648
aF0.0
aF0.005057375988546342
aF-0.04834824158051677
aF-0.01565917913418564
aF-0.02969997488580151
aF-0.0065443779176495446
aF-0.0038130102487572938
aF-0.004822907227068044
aF-0.011946237515786773
aF-0.0028884338755616637
aF0.003275888104605428
aF-0.004390382717008644
aF-0.0022701402930021854
aF-0.024383874648809187
aF-0.008712235980383624
aF-0.004619556088624866
aF-0.012803036096895141
aF-0.00447618138064505
aF-0.0016985217649710016
aF-0.048654314609312195
aF-0.003052108632188984
aF0.004148080287150856
aF-0.012915380121327235
aF-0.003250679583320016
aF-0.006047147274291392
aF0.00020158415376180655
aF0.003837261703492986
aF-0.0332167538412628
aF0.008252855361167013
aF-0.0016969524970632847
aF-0.0020782742158084798
aF-0.0037822986536493884
aF-0.017510258327007755
aF0.005544117787925397
aF-0.008574335395909809
aF-0.004462399152617559
aF0.0021742033086829086
aF0.009309773004548166
aF0.005095767427625151
aF0.004813103684653658
aF-0.006888152697224754
aF-0.009899178804859113
aF-0.019174037289345646
aF-0.007105639241434213
aF0.0
aF-0.013519415242859847
aF-0.004336300368223174
aF-0.0189025368222858
aF0.0
aF-0.004827969282337984
aF-0.005863658734569356
aF-0.00019089522016352127
aF-0.007314796968337837
aF-0.0005705759861507871
aF-0.004226201321499201
aF0.0
aF-0.0034582469911795984
aF0.0035242558561419447
aF-0.008383151909447668
aF0.008116730806484056
aF-0.001291965217320266
aF-0.008979555323995879
aF-0.0016352673027929042
aF-0.026552251140425816
aF-0.006393201955321307
aF-0.006727744654698662
aF-0.007674188238425955
aF-0.007154065472148027
aF-0.008975202185270835
aF0.0
aF-0.004416904727145074
aF0.00181607946324452
aF-0.004632156347067432
aF-0.007821931236748713
aF-0.004016314879826008
aF-0.008578732834637795
aF-0.0019358635453217805
aF0.007315128733292346
aF-0.016799081865085323
aF-0.006649189005016931
aF0.02746784384203732
aF0.0037109303492207663
aF-0.0005143099420132477
aF-0.003746014388833251
aF-0.0031505796454246965
aF0.012213710240122381
aF-0.01104112095506865
aF-0.003447635183479514
aF-0.004502475865521059
aF-0.0018489037571024522
aF-0.0027097948362381015
aF-0.0042500144008891785
aF-0.0037822986536493884
aF-0.003052108632188984
aF-0.0038300139589176126
aF-0.0074002466861695215
aF-0.05063209216715892
aF-0.03362552997634201
aF-0.01638575655295875
aF-0.016601620706794135
aF-0.0033767596759109674
aF-0.03559225533704368
aF-0.0034828338875619903
aF-0.008854847809795908
aF-0.010620766993682048
aF-0.0042500144008891785
aF-0.0046690942379249345
aF-0.00368375683944011
aF-0.0010616785800493592
aF-0.0037408610748660494
aF0.006539375822293089
aF-0.008836149949083761
aF-0.00320005968650397
aF0.0033630042542671487
aF-0.006315473153355813
aF0.00816487612801439
aF-0.022201434253873165
aF-0.00780627261795197
aF0.0
aF-0.004054266971400252
aF-0.0047212166207438976
aF-0.016201841664502368
aF0.0
aF-0.0070684460319822276
aF-0.0178734373580191
aF-0.0030284974962881154
aF0.0016078282676560826
aF0.0
aF0.0
aF0.0076903385344873195
aF-0.015715665628808707
aF-0.012857619780719315
aF-0.004443657811890652
aF0.016227369546116716
aF-0.014643306692732078
aF-0.0006292201882879932
aF-0.004231180899637951
aF-0.019458701686297188
aF-0.10703277600650503
aF-0.004229217985706757
aF-0.05063991242145783
aF-0.0003080931827629688
aF-0.003294787824933575
aF-0.017373956413473165
aF-0.00337435061270898
aF-0.0036695262038946405
aF-0.013455531385331225
aF-0.07735423466400292
aF-0.0042500144008891785
aF-0.0037822986536493884
aF-0.002309043324010649
aF-0.006196194415743538
aF0.0
aF-0.017664729338389466
aF-0.07951877605659925
aF-0.010017267693880002
aF0.0
aF-0.017172619816846507
aF0.0
aF-0.013304202308383507
aF-0.009243809761662865
aF-0.012498613082920704
aF-0.010723401429477065
aF-0.0045081768981381064
aF-0.011337997449772846
aF0.004330445084528467
aF-0.004192951669723764
aF-0.004844900148406548
aF-0.00227280627459208
aF0.0010552910054222682
aF-0.0034500456830967386
aF-0.014782278042281912
aF-0.051002904901486804
aF-0.0028293958914642064
aF-0.004206210962537654
aF-0.003977681749597261
aF-0.017408413063831403
aF-0.002302482741862355
aF-0.00450987164269072
aF0.0021004134206464332
aF-0.019367090192961258
aF-0.044422149659010444
aF-0.016640517106158617
aF-0.004482810049338682
aF0.002503550512610635
aF-0.012343089666756913
aF-0.0085532518684313
aF-0.0514153162440896
aF-0.007304188834065828
aF-0.021030683049163498
aF-0.004906459862865073
aF-0.0051990259741743865
aF-0.0038286465172614006
aF-0.009398861436152841
aF-0.004953442845187167
aF-0.003737405596789683
aF-0.0014171511164773496
aF-0.003461434744315678
aF0.020349287522743544
aF-0.004720396027442624
aF-0.00047103075836182364
aF0.001511764140328449
aF-0.004133912260670008
aF-0.004488816612605
aF-0.03952428711946229
aF-0.0044896463091235244
aF-0.014296086451164439
aF-0.00023631449186565156
aF-0.019711242067620052
aF-0.007613015347072708
aF-0.004003654921239948
aF0.005832574440179399
aF0.00012384357310603073
aF0.006308635629053073
aF-0.003071676249587961
aF-0.0011287065303165955
aF0.005645379771636965
aF0.0025671514046564626
aF-0.0025364656997457274
aF-0.002131305483150337
aF0.0018361892443288187
aF0.002547553837428355
aF-0.003233574678610048
aF-0.03250673463947871
aF-0.002875232003537038
aF-0.024602672217278892
aF-0.004449039285401198
aF-0.004165149894679059
aF-0.01870484927110065
aF-0.011689152734064446
aF-0.003603630637188156
aF-0.012010997938096192
aF-0.03327220208855039
aF0.005180172006716138
aF0.024951240468198528
aF-0.04713421955048315
aF-0.025567606326564636
aF0.014005133554961292
aF-0.004920847683344788
aF-0.013217471755040974
aF-0.004396485514350237
aF-0.031200668106938556
aF0.007907340174013004
aF-0.02216609684580009
aF-0.26758156597128424
aF0.006005674790349543
aF0.006353289072003188
aF0.005180172006716138
aF-0.009852432303817065
aF-0.019159313338357364
aF0.022084989647613826
aF-0.005968218430331851
aF-0.02037084450559272
aF-0.0033232706350954395
aF0.01842786419222567
aF0.0
aF0.00633726871475627
aF-0.008420640398628916
aF-0.004633631301835652
aF-0.004426053650749684
aF-0.003138653706620001
aF-0.02475139600990637
aF-0.01648114658254723
aF-0.044833984577698445
aF-0.01478087395116128
aF0.0
aF0.0
aF0.014514629404281628
aF-0.011583779127797528
aF-0.010902474723796155
aF-0.04352710419904354
aF-0.08320677674228014
aF-0.001431367440098002
aF0.002159447729901601
aF-0.009844954728376112
aF-0.0031308108805945638
aF-0.003978954802339941
aF-0.0037747095017700545
aF-0.004482810049338682
aF0.005845810477713598
aF-0.0030144220094343935
aF-0.0008212279069886447
aF-0.004948508473988306
aF-0.01674692444843551
aF0.007661546502931806
aF-0.017454191628448867
aF-0.00839188357164755
aF-0.002128220574638194
aF0.0031280774735829384
aF-0.006068986146016151
aF-0.004154111560901715
aF-0.0036092688383232976
aF-0.007225702186082844
aF-0.001231014765448701
aF-0.00048291826903921933
aF0.00509604664894989
aF-0.007731415875122221
aF0.0007420084201516046
aF-0.002456686936183723
aF-0.05799717720810697
aF0.008704457327184148
aF0.019626343940702295
aF-0.0030071347032310752
aF0.022108249733903962
aF-0.0017033321256029613
aF-0.005783921089111667
aF-3.460097107217826e-05
aF-0.003892318285223414
aF-0.009481993540574529
aF-0.004779101162009642
aF-0.040730709982181236
aF-0.008289687405698304
aF-0.007060947020123451
aF0.005304806677383562
aF-0.0033506858174073197
aF-0.00103245492382411
aF0.026694805994906548
aF-0.011387036781553065
aF-0.022357470857573433
aF0.0021579038493688626
aF-0.023226122942056355
aF-0.04085333539150374
aF-0.003936384433262236
aF-0.0045966069024906036
aF0.0
aF-0.005180307350085393
aF-0.004728195783577028
aF-0.002077457216330957
aF-0.10946454910311985
aF-0.014416664761359024
aF-0.0038980883730570484
aF-0.004957655270572419
aF-0.0030925665567703192
aF-0.006931185288045686
aF-0.017508184387076436
aF-0.04096903335714635
aF0.0011169361366611264
aF0.007041399818804973
aF-0.004022857165370243
aF-0.009041111129877735
aF-0.012393689553324889
aF-0.00703608386480511
aF0.002841666794297915
aF-0.007607974856076242
aF0.018894649558455108
aF0.00520228244792313
aF-0.004110445300970879
aF-0.20729101286017582
aF0.005351366047919581
aF-0.007964345701617918
aF-0.003648806640333064
aF-0.0328253932019079
aF-0.07591879848060516
aF-0.012338707407533372
aF-0.002357409616282763
aF-0.023201081031778585
aF0.0008268442491168758
aF0.008539924092329768
aF-0.005439128984980832
aF-0.016859782193697836
aF0.0
aF-0.01601229255556753
aF-0.009603589912750558
aF-0.0046685220855167174
aF-0.027410669277391372
aF-0.12638779104621442
aF-0.0032254939277109656
aF-0.0178144429972273
aF-0.057331489275602915
aF-0.007102612220764175
aF-0.007012850156111274
aF-0.06497797171961243
aF0.005877242354204342
aF-0.004370715925080597
aF0.005191749856432871
aF-0.008285917414544638
aF-0.0034828338875619903
aF0.0
aF-0.004012899455108977
aF-0.003626883160830223
aF0.008002157881555042
aF-0.006702416660517019
aF-0.004841958710744054
aF-0.008836618298804295
aF2.3680506853367318e-05
aF-0.007126346221660191
aF-0.033734072204407266
aF-0.004805921003770995
aF-0.04483742465579125
aF-0.00901884538756191
aF-0.026391316592782984
aF-0.017043590297577835
aF-0.04832551626633425
aF-0.05025092539593792
aF-0.009423471616949446
aF-0.01611984715797811
aF-0.01168006964709129
aF-0.012092923176780878
aF0.0
aF-0.003642745368386161
aF-0.0016336773761769648
aF-0.004678147150955064
aF0.003073345924894948
aF-0.0034120868827713577
aF-0.2260251829020729
aF-0.0065019504297604185
aF-0.0045131728251128905
aF-0.004452527144485442
aF-0.004656817093215491
aF-0.025037277334199987
aF0.005513104281406923
aF-0.031549143644563016
aF-0.0030144220094343935
aF-0.00299748605967755
aF-0.006105652712200713
aF-0.01079073941343197
aF-0.00393986439182247
aF-0.024570927760754722
aF0.0015333117483650781
aF0.005806705110678665
aF0.0
aF-0.015475963524511147
aF-0.03924743024625325
aF0.0
aF-0.011076082636951132
aF-0.0017554599067554164
aF-0.011536270737849422
aF-0.018362217799528173
aF-0.007043794597786403
aF-0.014006859781698577
aF-0.006006732198507187
aF-0.10761834532186679
aF-0.008439767814665843
aF-0.0018640994735595812
aF3.951730134068546e-05
aF-0.08555881778907197
aF-0.013986190012537043
aF-0.08000428155878588
aF0.0012995657854576884
aF-0.008886503373330298
aF-0.07556512685358904
aF-0.08047753947133125
aF-0.013318700371272366
aF-0.0019483931352629786
aF0.005628679929147114
aF0.018463138094146476
aF0.012597294379964666
aF-0.0021255135451084344
aF-0.27248605466332826
aF-0.009302717034122564
aF0.007129062811386391
aF-0.0028100647430205064
aF0.0
aF-0.005239812071446445
aF-0.00393986439182247
aF-0.03382887864651688
aF-0.014047532081476887
aF-0.0017359887098251138
aF-0.004790483005019321
aF0.0
aF0.007001582249107672
aF-0.06321812103701153
aF-0.009882957588722912
aF-0.004562135726538874
aF-0.0076605659321380415
aF0.005039486556135431
aF-0.04677260335752208
aF-0.10725041518573385
aF-0.011992639537482806
aF-0.0023217830524312768
aF-0.09435815282592316
aF-0.029338043895010907
aF-0.027820436914988936
aF0.0
aF0.011883624761852127
aF-0.13317025276709063
aF-0.0025330236239670973
aF-0.0041123571056367195
aF-0.003683461115722516
aF-0.0039184688774169625
aF0.00010643966787933761
aF-0.003382239511311183
aF-0.010811508681003968
aF-0.008804284753172919
aF-0.004477457074485326
aF-0.013248929905554815
aF-0.0044707428171016994
aF-0.011115688428486144
aF-0.0030375785720444053
aF-0.0042843593188052675
aF0.0004438921147255294
aF0.005558397325514948
aF-0.004349906224322051
aF0.0
aF-0.004193321549254026
aF0.0054210641404128495
aF-0.02905693855512285
aF-0.002586564837978965
aF-0.006667382770724765
aF-0.008452144675204873
aF-0.008415370759158092
aF-0.03588997854235875
aF-0.011023451516350565
aF-0.004398846012265017
aF0.0056068537222245685
aF-0.0034924893199126316
aF0.01004378820456
aF0.0
aF-0.004555834296267116
aF-0.004207717896006539
aF-0.0010412995101760905
aF-0.0016833730969422207
aF0.0
aF0.006249766095186193
aF-0.004957655270572419
aF0.022500785308795394
aF-0.016162936831096795
aF0.0
aF-0.00625148043913972
aF0.009705084291117841
aF-0.013748159265922313
aF-0.006024616850202866
aF-0.021642098654461595
aF-0.009161680855528858
aF-0.003511824705097264
aF-0.003674852108331959
aF-0.022796079390646103
aF0.005675221511042588
aF0.0
aF0.006732688592329683
aF-0.00468094384058732
aF-0.00707177892257094
aF0.0
aF0.0030249172662607693
aF-0.014098635603617767
aF0.0
aF0.005179450252752214
aF0.007169253667651701
aF-0.00498326045001505
aF0.006232175539569911
aF-0.004555834296267116
aF-0.0048940800606674705
aF-0.004349906224322051
aF-0.00442509841467249
aF-0.03142199859957237
aF-0.002004138437133708
aF-0.03213603246884911
aF-0.005056695760371168
aF-0.016389500123816052
aF-0.005865530364899779
aF-0.004420767700901643
aF-0.0038824848380215704
aF0.00774539025082306
aF-0.0045014597488671525
aF-0.00850101958344285
aF-0.009061494539455154
aF-0.004641179608500795
aF0.0
aF-0.0547750043880444
aF-0.0026776771959543194
aF-0.005528260310938951
aF-0.047625092877860375
aF-0.004993700727418378
aF0.0
aF-0.010685943102980487
aF-0.003999304537000097
aF-0.008108844684854004
aF0.0009075531081380595
aF-0.014305057172729502
aF0.015901863424706713
aF-0.0032261694282519605
aF-0.016658395377297165
aF-0.010040684664786765
aF0.0037271295356019244
aF0.0033394386207937993
aF-0.005882757421934571
aF-0.004956117678668117
aF0.0051640087076900544
aF-0.0025016669954080538
aF-0.00840382008401909
aF0.0
aF0.006353289072003188
aF-0.005549516165172215
aF-0.0029001309080629533
aF-0.03230144722532701
aF-0.006981189484987448
aF-0.05083251812610074
aF-0.002213786615337645
aF0.0008650765086893452
aF-0.011029758514930342
aF-0.004909929258152507
aF-0.00460452366129819
aF-0.0228332522392038
aF-0.006869505525557051
aF-0.01604431356936783
aF-0.0035012984074597586
aF-0.0045131728251128905
aF0.0006432051723817989
aF-0.0047730338956084705
aF0.00515437209022434
aF-0.02446084167244505
aF-0.016287344028609013
aF0.006341756507329779
aF-0.019477911337350624
aF-0.002790256606525935
aF-0.003943712009633021
aF-0.002223282838429284
aF-0.0069996485639074475
aF-0.004206210962537654
aF-0.00812268417490529
aF0.014661939007779113
aF0.0
aF0.0
aF-0.0015558014084613332
aF-0.002398347519141697
aF0.009562019321241183
aF-0.0016057030238865195
aF-0.004740615246254041
aF0.0
aF-0.009884453447239734
aF-0.0047666470333397595
aF-0.025418512918745518
aF-0.009952891835863144
aF-0.008178833917039661
aF-0.017017617836342865
aF-0.003175239785836343
aF-0.009713712781397677
aF-0.004980534223734563
aF-0.003993596975835915
aF-0.00426519544283732
aF0.0
aF0.015259178277943616
aF-0.008004845858339271
aF0.006005674790349543
aF-0.02824890119401571
aF0.0
aF-0.003986408773101854
aF-0.007302980110977828
aF0.00539327228236357
aF-0.007556923734019956
aF0.0
aF-0.009266320826991038
aF-0.0015855394535508377
aF0.0010082194032163304
aF-0.004831858230821543
aF-0.004056008817947703
aF0.0016657336039334492
aF0.0
aF-0.0042843593188052675
aF0.0
aF0.00677449444370042
aF-0.011687651436703618
aF-0.01284983804656645
aF-0.016989946014103908
aF-0.0046272868467303494
aF-0.004926970046878013
aF-0.00943193630516841
aF-0.0038688662590661677
aF0.00526732102499532
aF-0.003894005161002516
aF0.0039093860586678734
aF0.0051100855590956885
aF-0.0020258968641579046
aF-0.08848806798976872
aF-0.019356410758488655
aF-0.0069739669917508375
aF-0.0018233665820425468
aF-0.008190475258981065
aF-0.008895418932722915
aF-0.004822907227068044
aF-0.0027097948362381015
aF-0.012133311433732405
aF-1.1931554656470253
aF-0.31051368109012156
aF-0.007423941696116078
aF-0.03083339794422258
aF0.0
aF-0.0035012984074597586
aF0.005402929214712264
aF0.003466474363369569
aF0.0006284498791036212
aF0.005554106413556688
aF-0.019477911337350624
aF-0.007302980110977828
aF-0.008566950668240685
aF0.0023389351236438117
aF-0.0038575250453180055
aF-0.0163682404018902
aF-0.006386007207742794
aF-0.02086939745217703
aF0.0
aF-0.0037287965261346362
aF-0.004463985009377797
aF-0.013387546532790784
aF-0.054232702730723434
aF-0.019349694260103377
aF-0.0034161006185576795
aF-0.009852432303817065
aF-0.0010719393530481758
aF-0.0035475351115373337
aF-0.024522742504571943
aF0.006163819134064834
aF-0.001324862726499613
aF-0.0046685220855167174
aF-0.00535237288622213
aF-0.018332618845022873
aF-0.013545605554311895
aF0.00677449444370042
aF-0.002074534759596072
aF-0.03507587596197252
aF0.009306098796721965
aF0.011475517841698002
aF-0.004371665507282115
aF-0.006544844828124719
aF-0.0014559305436830762
aF-0.006674891710423111
aF0.0
aF0.0
aF-0.004586874303222702
aF-0.011235183020413587
aF-0.003938488916082393
aF-0.004196422900668303
aF-0.004926970046878013
aF7.675297351366142e-05
aF0.0
aF-0.0015072006874534472
aF-0.001666940546318797
aF-0.024371818185993963
aF-0.029893618773369744
aF0.0
aF-0.013280191863804275
aF-0.007771385137748016
aF-0.04278264178471854
aF-0.00227280627459208
aF-0.0033844015220864704
aF-0.01079073941343197
aF0.007309067511936356
aF-0.0015635639746313028
aF-0.014410885747889004
aF-0.003118164105907828
aF-0.004319034370605546
aF-0.02091331927991292
aF-0.03173645125326778
aF-0.0099154520844779
aF-0.005351261202127837
aF-0.01000562733403937
aF-0.00856855878180469
aF-0.020538082512654793
aF0.015748730930471824
aF-0.0036788459188287427
aF0.0
aF-0.004284896446725003
aF0.0021742033086829086
aF-0.00427763831763645
aF-0.004029307937072725
aF-0.004805921003770995
aF-0.004502475865521059
aF-0.0073385775720799466
aF-0.002672053673536641
aF-0.07721855098935579
aF-0.008287793707132231
aF-0.004599597598546083
aF-0.00337435061270898
aF-0.004102751093600378
aF0.0018760541685839283
aF-0.0044520167310378575
aF-0.01688168066385598
aF-0.007967017369086187
aF0.0
aF-0.013564410422513641
aF-0.0022701402930021854
aF-0.007086030167465226
aF-0.0009282870419384812
aF-0.0024973656180257184
aF0.005153828982379892
aF-0.004879780293386074
aF0.006015910779823648
aF-0.003071676249587961
aF-0.07721855098935579
aF0.006235621932473992
aF-0.001193174190262352
aF-0.018671358905519807
aF-0.01284887044251313
aF-0.005351261202127837
aF0.001357257600123339
aF-0.003025038290804406
aF-0.004822907227068044
aF-0.16153467128968074
aF-0.007851476325728135
aF-0.0073445507694604424
aF-0.002987425690260925
aF-0.0030144220094343935
aF0.005318817010264712
aF0.0
aF-0.002694541571551634
aF-0.008016113879846722
aF-0.0036306698250013958
aF-0.004822475867915332
aF-0.0008717636804771774
aF0.0
aF0.0006913874907443825
aF-0.009457423655526848
aF-0.004454673717850489
aF-0.047625092877860375
aF-0.057331489275602915
aF-0.00812618890578019
aF0.0014543702060623824
aF-0.004784690756514018
aF-0.011337997449772846
aF-0.023401251807796352
aF-0.0033232706350954395
aF-0.004309547955597396
aF-0.016867576087065343
aF-0.00703608386480511
aF0.01454391290627629
aF-0.013159364727037772
aF0.0
aF-0.004016314879826008
aF-0.016721261951770025
aF-0.013854437562821474
aF0.005179258125050219
aF-0.0019925887759574333
aF-0.011667137699812065
aF0.0
aF-0.008062662641231464
aF-0.0253958448212477
aF-0.031792811569039944
aF0.0
aF0.0050899427522761095
aF-0.0034828338875619903
aF-0.01579871728580077
aF0.0
aF-0.004102751093600378
aF0.0
aF-0.004678147150955064
aF-0.011315325631404385
aF0.0
aF-0.001991204701794212
aF-0.00942979290760592
aF-0.0021796202012815836
aF-0.02475139600990637
aF-0.007047796100612944
aF0.0
aF-0.01870484927110065
aF-0.016643538755882967
aF-0.059968607102632625
aF-0.026581691254840657
aF-0.059968607102632625
aF-0.012732886905195818
aF0.0
aF0.007185463331291588
aF-0.01000600533990902
aF0.0
aF-0.004433735456564256
aF-0.0038824848380215704
aF-0.003856055723111771
aF0.0037603010667462042
aF-0.008428929379190282
aF-0.002788825884738601
aF-0.0036306698250013958
aF-0.00647761628810157
aF0.0
aF-0.026391316592782984
aF-0.01154072656753819
aF-0.0007895187118894236
aF-0.006386007207742794
aF-0.004626129038271132
aF-0.004676875572734044
aF0.006308635629053073
aF0.0
aF-0.008683106441080505
aF-0.015718522615157774
aF-0.029656059683550385
aF0.0026855951074382612
aF-0.013318700371272366
aF-0.0029587356220595606
aF0.009562019321241183
aF-0.004567343636337478
aF0.030746605703446603
aF-0.0030037484866682726
aF-0.0027806105704971727
aF0.0039628619415022085
aF0.005845810477713598
aF-0.004065454747559653
aF-0.013499041968202015
aF0.009913672488392453
aF-0.0015954722818145278
aF0.0013061034664276962
aF-0.006689335690828696
aF-0.004100060880808937
aF-0.000315660764530049
aF-0.009462108428378652
aF-0.004570509108203036
aF-0.013881144288092093
aF-0.011162775251945877
aF-0.002628149433620705
aF-0.0044896463091235244
aF0.0
aF-0.004288592935342373
aF-0.0009282870419384812
aF0.007309067511936356
aF-0.0033849347166777033
aF0.005373598066156957
aF-0.0034828338875619903
aF-0.004651426686403894
aF-0.023201081031778585
aF-0.019093520865208182
aF-0.007856412759688078
aF-0.012454513634232948
aF-0.00484978906809064
aF-0.0036092688383232976
aF-0.007836947004871322
aF0.006163819134064834
aF0.0009449780352370151
aF-0.013304202308383507
aF-0.007878780358595483
aF0.011437780120906888
aF0.0051640087076900544
aF0.01004378820456
aF-0.002483667124202943
aF-0.2797136894824224
aF-0.011908834221042459
aF-0.0036420578752199223
aF-0.00764367757664027
aF0.0
aF-0.03547967655091581
aF0.010889729347536818
aF0.0
aF-0.006068986146016151
aF-0.014369386159921598
aF-0.011349354679344436
aF-0.01026157761892318
aF-0.019093520865208182
aF0.0
aF0.005301519397320531
aF-0.02981448885659275
aF-0.0022376397952196202
aF0.0
aF-0.014204375844234243
aF-0.0039184688774169625
aF-0.0008467384069765424
aF-0.004485531656640608
aF-0.009422032893787938
aF0.014803025736949402
aF-0.016859782193697836
aF-0.011322108935395554
aF-0.004458209188270864
aF-0.010704128870639299
aF-0.027348179288152794
aF0.001508297865698639
aF-0.002340274244102137
aF-0.5516261523112995
aF0.006706772806122397
aF-0.0026242609663277333
aF0.0
aF-0.004458736582174736
aF-0.01114790033724701
aF-0.013681514718814231
aF-0.011964896081984849
aF0.008632793714697698
aF-0.011171108637511688
aF-0.01686499012020551
aF0.0014624705279933552
aF-0.010739697211780332
aF-0.004056008817947703
aF-0.015124832427773733
aF-0.03591122733318421
aF-0.011896380492278431
aF-0.0040173288441528645
aF-0.008082833475416194
aF-0.004138444635353599
aF-0.013381130139040475
aF0.0
aF0.0
aF-0.0010214303937494274
aF-0.00465109395490108
aF-0.01919947858877091
aF-0.05117407237966769
aF-0.0060226366763328825
aF0.005520878805222152
aF-0.012449752912499848
aF0.011659730413089264
aF0.0018508004194800615
aF0.0
aF-0.0042667580776338775
aF-0.003920458390919138
aF-0.0032216706728810914
aF0.005449620119764875
aF-0.003634546968886739
aF-0.0015541657967337323
aF-0.004304509547955398
aF-0.003894005161002516
aF0.011220119441152657
aF0.0
aF-0.01334187994386955
aF0.0014871575216410596
aF0.0
aF-0.003025038290804406
aF-0.0020497843104943904
aF0.0015259078110250379
aF-0.003040001814940016
aF-0.009422032893787938
aF-0.004608450763580011
aF0.005757034385574103
aF0.00543887479176759
aF-0.02637295268005003
aF-0.007975412786161078
aF-0.0220340127553341
aF-0.023933541460077243
aF-0.02063479112401551
aF-0.01591134088891024
aF0.0
aF0.0001459170821680074
aF-0.004802476643687677
aF-0.00500082524962824
aF0.0
aF-0.05081567466290828
aF-0.020388426437425416
aF-0.006176299814474896
aF-0.003583080082477217
aF-0.004502475865521059
aF-0.009472018128848254
aF0.0
aF-0.00783363413243011
aF-0.009823715800201327
aF0.0
aF-0.00457774238200304
aF-0.015271705510954553
aF-0.006674891710423111
aF0.0
aF-0.004248895088008649
aF0.0005803649597900736
aF-0.008009423331292806
aF0.01302592855429878
aF-0.0035475351115373337
aF-0.00476024966998253
aF-0.004655147103320693
aF-0.004490721505938643
aF0.0
aF0.0
aF0.0
aF-0.2194990381398691
aF0.00048461904236409004
aF-0.0019925887759574333
aF-0.0040093438680061915
aF-0.007622121300127152
aF-0.0027258468656400615
aF0.017082937103141786
aF-0.009686827178231402
aF-0.0032216706728810914
aF-0.002309830150424914
aF-0.01026999585638162
aF-0.021900272250404525
aF0.0
aF0.008243347576346517
aF-0.0025513671222109732
aF-0.0024222412631102613
aF-0.004724782408760859
aF-0.008548420179099984
aF-0.0041462719617077854
aF-0.004822907227068044
aF-0.009555653994014614
aF-0.0026776771959543194
aF-0.0015777618515912723
aF-0.008034371495895677
aF-0.004444662394249089
aF-0.05108426609465972
aF0.0019092329438581742
aF0.01495692775143128
aF0.00579505845245991
aF0.0023068464695604135
aF-0.012008293265926303
aF-0.048528577077777975
aF-0.10109690013673459
aF-0.0006292201882879932
aF-0.004957655270572419
aF-0.004957655270572419
aF-0.000504981613912131
aF0.0017095662668537561
aF-0.004502475865521059
aF-0.004570509108203036
aF-0.06232335181334111
aF0.0
aF-0.0038575250453180055
aF-0.008618391526223804
aF0.0
aF-0.003503627455031537
aF-0.004466559863846989
aF-0.012962950769308866
aF-0.004996008972908335
aF-0.007898118015352973
aF-0.006700723750567711
aF-0.00814773959736424
aF-0.0071563086048892065
aF0.001357257600123339
aF0.0
aF0.0016209998486466574
aF-0.0022260230648703657
aF-0.044152002637927054
aF-0.02140838433551254
aF-0.004708302451517374
aF-0.005408029946100605
aF-0.0019006443289749484
aF-0.0025344152132288564
aF-0.023440066914331942
aF-0.00476024966998253
aF0.0
aF-0.007442606705613743
aF-0.003551213649355353
aF-0.01206644560741755
aF-0.0015501768191723865
aF-0.013424152034683567
aF0.005803374906581301
aF-0.006386007207742794
aF-0.007307407131327446
aF0.007429231712305684
aF-0.02852600536135854
aF-0.008515959196715713
aF-0.004635554940062317
aF0.0
aF-0.003271878844195113
aF-0.0006271933301234883
aF0.0013607338686937379
aF-0.002791263286747921
aF0.005844986178527081
aF-0.0038012886579498967
aF-0.004183261957660267
aF-0.0063491668015794546
aF-0.004467656731075061
aF-0.004547129962065783
aF-0.03021406486587189
aF-0.000768541036073469
aF0.0
aF-0.028174647524163432
aF-0.023971689002379917
aF-0.017513393894053715
aF-0.055382005842412645
aF-0.011395174867759626
aF-0.014125672329125939
aF-0.0032921663731239
aF0.013367221441695866
aF-0.004890384353072107
aF-0.0047666470333397595
aF-0.0024883337831257775
aF-0.015650857545957676
aF-0.010257141559805274
aF-0.003995901323130314
aF-0.00748913126833037
aF-0.01259326246959104
aF-0.003503948345804994
aF-0.01815809323086535
aF0.0
aF-0.005996995973481976
aF0.0018760541685839283
aF0.0
aF0.0
aF-0.011431244881489132
aF-0.00209300433612313
aF0.0007896400576063588
aF-0.01630843905322526
aF-0.005021139150006594
aF-0.0038263289457559435
aF0.0006979495459147342
aF-0.004265966916989474
aF0.0
aF-0.03083339794422258
aF-0.002340274244102137
aF-0.037088606810014656
aF-0.06841859311675534
aF0.0
aF0.0
aF0.0
aF-0.003362553498021728
aF-0.004855000644347584
aF-0.04488547808753437
aF-0.005638667273965206
aF-0.004826036880799109
aF-0.004824735902795351
aF-0.007435257055381367
aF-0.004957655270572419
aF-0.009688360482154053
aF-0.04187663178470195
aF-0.009121894513101553
aF-0.008802392311430153
aF0.00547981817008798
aF-0.00427763831763645
aF-0.004206210962537654
aF-0.004371665507282115
aF-0.10269131990762963
aF-0.0038798924131301206
aF-0.004426022181170736
aF-0.03252423978463516
aF0.0
aF-0.006689335690828696
aF-0.004502475865521059
aF-0.01686499012020551
aF0.00579505845245991
aF-0.00443460446322078
aF-0.00444494740027461
aF-0.00764367757664027
aF-0.013891495397424913
aF0.005093930545385718
aF0.0
aF0.009562019321241183
aF0.002531117791015447
aF-0.004115614744823301
aF-0.007851476325728135
aF0.0
aF-0.008696985352834665
aF-0.00221266855474181
aF-0.025194895041315283
aF0.00018586797893781746
aF-0.014972928748219318
aF-0.07400779191536579
aF-0.003658260922420023
aF-0.02002291329678093
aF-0.002340274244102137
aF0.005964153266928916
aF-0.009101561240441317
aF-0.003025038290804406
aF-0.004385462501387409
aF-0.004626129038271132
aF-0.019437036560591654
aF-0.0067880849565120395
aF-0.009155163298408753
aF-0.019207168922654824
aF-0.005180307350085393
aF-0.11448508765385897
aF-0.016542218006628254
aF-0.003968780462327312
aF-0.00865940281858757
aF-0.004531147441198945
aF-0.00921662877554431
aF0.0018987177992302955
aF-0.01115972444840168
aF0.0035308731215730692
aF0.007969609628098517
aF0.002449351024715547
aF0.006168408563815084
aF-0.008239314051732042
aF-0.006050814516570977
aF-0.0033282628212424003
aF-0.004790483005019321
aF-0.03497601455964549
aF-0.004295557407727408
aF-0.003254112624483127
aF0.0007420084201516046
aF-0.0106056657610872
aF0.000987052312111475
aF-0.004072908276341311
aF-0.01366616651562309
aF-0.0048149071182700485
aF-0.022075599697318243
aF-0.0039273822009124205
aF-0.002421239543103834
aF-0.059914015130741904
aF0.0
aF-0.013450630272443576
aF-0.004853824638421692
aF-0.004453497694637368
aF-0.012717173897949609
aF2.0528271541316034e-05
aF-0.002302482741862355
aF-0.002322817886155703
aF-0.014204375844234243
aF0.0013061034664276962
aF-0.00431583481779396
aF-0.0048940800606674705
aF0.001519998404039386
aF-0.0025858969712882303
aF-0.00045446438472347434
aF-0.033290480123452586
aF0.005845810477713598
aF-0.012028909383251532
aF-0.004410842587237154
aF-0.0030896346764609107
aF0.002797057330259964
aF0.0013520499511074737
aF-0.004372606318233673
aF0.007169253667651701
aF0.006848737249907604
aF0.00397070001146105
aF-0.003959641689754884
aF-0.021672490246316338
aF-0.004993700727418378
aF-0.003921616961481695
aF-0.0028484995392775714
aF-0.004856567886691283
aF0.0
aF-0.09875629630609595
aF-0.002407466607791157
aF0.025135830574361535
aF-0.004579329460949086
aF-0.03126234523969896
aF-0.0016249586474494544
aF-0.0031169922089010994
aF-0.0073385775720799466
aF-0.012188769660665084
aF-0.0044520167310378575
aF-0.008278050345876614
aF-0.001686423265459495
aF-0.034585172026777994
aF0.005
aF-0.004911306246457104
aF-0.008138559262473902
aF-0.004911306246457104
aF-0.0027405708926788613
aF0.0034025374577568417
aF-0.014085703231432772
aF-0.030039394027558754
aF-0.0069739669917508375
aF-0.007387320678076849
aF0.0
aF-0.019866551562239727
aF-0.0028817644835882512
aF-0.022934049209147114
aF-0.004880924172116641
aF-0.0014730802774703922
aF-0.01284887044251313
aF-0.0043301180919457305
aF-0.003972086456152848
aF-0.004890384353072107
aF-0.004712760476861807
aF-0.002750862665506075
aF-0.004853824638421692
aF0.00476804914214816
aF0.0031232734521728467
aF0.005068025363367404
aF-0.028242794081099545
aF-0.012982610586927158
aF-0.007502280843310172
aF-0.012131586650358638
aF-0.010704128870639299
aF-0.004502475865521059
aF0.0
aF-0.005965314063710109
aF-0.011667137699812065
aF-0.02040113110024673
aF-0.0028884338755616637
aF-0.00944933357933414
aF-0.003761574302893746
aF-0.012055391271297866
aF0.0
aF-0.013373271553576906
aF-0.004796401725015603
aF-0.0014568377383880845
aF-0.006816303218959416
aF-0.0032823942104643583
aF-0.0036788459188287427
aF-0.0004969900215010977
aF0.0
aF-0.0065387680215236565
aF0.001145999006832437
aF-0.007878401347452036
aF-0.020842653273603955
aF-0.00688279312049433
aF-0.0037407344725438325
aF-0.016653306431856082
aF-0.004651426686403894
aF-0.004183717991236052
aF-0.04858340880577706
aF0.0
aF-0.01008319626731848
aF0.0
aF-0.006867636781378373
aF-0.0018233665820425468
aF-0.004016314879826008
aF-0.0026647915755478382
aF-0.00935673368878331
aF-0.012133311433732405
aF0.004027751466790326
aF-0.004248895088008649
aF-0.004884008608856315
aF-0.0027258468656400615
aF-0.004096163185183337
aF-0.00042745463805163525
aF0.00604563791453345
aF-0.007313880755238072
aF0.0
aF0.011762806843236263
aF0.012643794418854054
aF-0.0342542365031704
aF-0.004201432228622399
aF0.017411733213971357
aF-0.005898339087636565
aF0.0
aF-0.008866895086254427
aF-0.004163179121952242
aF-0.004406082249228069
aF-0.019996918311885433
aF0.0024920126356414015
aF0.0012165590325762532
aF-0.16153467128968074
aF0.0
aF-0.0666482577380757
aF-0.012315749381394403
aF0.006353289072003188
aF-0.0253958448212477
aF-0.10206344987652788
aF-0.03232611796608007
aF-0.004667058309278013
aF-0.0027191374354392146
aF-0.02608991981906267
aF-0.004547129962065783
aF0.0
aF-0.009061494539455154
aF0.0
aF-0.008316685043334337
aF0.0
aF-0.004973393985445046
aF-0.02498355965792701
aF0.003108743349773251
aF-0.00426519544283732
aF-0.004539631400703945
aF0.013028428878560778
aF0.0030513064465641265
aF-0.004265853999723213
aF-0.002802644297384953
aF-0.00535563860919777
aF0.005057375988546342
aF-0.016651198271191832
aF-0.0015737359083982192
aF-0.09453636121422584
aF-0.004618300052938685
aF-0.007201099101254715
aF-0.004029307937072725
aF-0.00310098548148619
aF-0.0028805456331055836
aF0.0007313552825379899
aF-0.008682131289292381
aF-0.006077658756257825
aF-0.019903151081822126
aF-0.0038806468781613958
aF0.007077889250424103
aF0.004038414218873674
aF0.0
aF-0.004467656731075061
aF-0.011913949941660576
aF-0.004957655270572419
aF-0.021281729323342168
aF-0.0072353240014082516
aF0.0
aF0.005916866560887126
aF0.003704916706842856
aF0.0
aF-0.006861216122522194
aF-0.004366133954374393
aF-0.016927687108784124
aF0.0017020238818027163
aF0.0026268733493140487
aF-0.023030561643765816
aF-0.014221072172558684
aF-0.004444662394249089
aF-0.013671161073555623
aF-0.004199225718844122
aF-0.0007527543375250382
aF0.0066910808658480715
aF0.00543887479176759
aF-0.0023131239504599714
aF-0.02210792509722227
aF-0.024072760596423534
aF-0.004709355688869585
aF-0.00476024966998253
aF0.0
aF-0.006689335690828696
aF0.002851907855276673
aF-0.004624694957763626
aF0.00289358476196355
aF0.0
aF0.0012817546430078522
aF-0.002239929680690881
aF-0.0021796202012815836
aF0.006036414276668787
aF0.0
aF0.0
aF-0.002627304768812939
aF0.006235110924634754
aF-0.004458209188270864
aF-0.01512986823782737
aF0.005451043593728508
aF-0.036219778911225645
aF-0.04278252494883346
aF-0.007047796100612944
aF0.0
aF-0.005204085917834734
aF0.0
aF-0.0029001585255296696
aF-0.0022783482290365978
aF-0.012333101965153104
aF-0.0009429995361190675
aF-0.004212987361541256
aF-0.004818746512581811
aF-0.004163179121952242
aF0.009609081562516827
aF-0.008727031234772128
aF-0.004612550758114502
aF-0.004599187993790287
aF-0.004021953828468143
aF0.004109148722332996
aF-0.013767691411147764
aF-0.013564410422513641
aF0.0
aF-0.011189208536650723
aF-0.00909533044334166
aF0.0
aF0.0006432051723817989
aF0.0024551352409813774
aF-0.010718853415298176
aF-0.004508286944958734
aF-0.020091440616500256
aF-0.029656059683550385
aF-0.004911306246457104
aF0.006235621932473992
aF-0.012982610586927158
aF-0.006385415296578082
aF0.005815088033982086
aF-0.004996008972908335
aF-0.0030144220094343935
aF0.009562019321241183
aF-0.004651426686403894
aF0.0
aF0.018894995076260544
aF0.0
aF-0.008175454454093144
aF-0.008557934058312074
aF-0.005799645291108934
aF-0.004957655270572419
aF-0.0018480535630475906
aF-0.004826036880799109
aF0.0
aF0.0007896400576063588
aF-0.005024068159743812
aF-0.0042222432373017135
aF0.001491469799812746
aF-0.0030896645761362205
aF0.0
aF-0.08226035739542456
aF0.0
aF-0.002987425690260925
aF-0.0039184688774169625
aF-0.004598539417402009
aF-0.006920327349745493
aF-0.004397666300329676
aF0.0
aF-0.019111859609271684
aF-0.004144121522498219
aF-0.0022340573666149496
aF-0.011596068796904418
aF-0.0029485331051358836
aF-0.01206644560741755
aF-0.0011251975767539732
aF0.006389584121987115
aF-0.023486397064695894
aF0.005094311369312955
aF0.0015056517254044425
aF-0.01611504312869654
aF-0.004635554940062317
aF-0.01905495396701326
aF0.013789225472338941
aF0.007832003693594023
aF-0.006901482301866699
aF0.0
aF0.003233521393394821
aF0.009309773004548166
aF-0.0067846224111662475
aF-0.02009354160761878
aF-0.002987425690260925
aF-0.00942979290760592
aF-0.0030925665567703192
aF-0.020726015927751293
aF-0.0032448757335468933
aF0.0
aF-0.009305148761719357
aF-0.009581452488547073
aF-0.004304509547955398
aF-0.004990060212469624
aF0.0
aF-0.026403953057715097
aF0.0
aF-0.004611697503700437
aF-0.004989725514116032
aF-0.003025038290804406
aF-0.004556661718881642
aF-0.027596058314126898
aF0.007301257817975371
aF0.012259844234418435
aF0.0
aF-0.004996008972908335
aF-0.021515349892379868
aF0.00857556386167498
aF-0.004728195783577028
aF0.00658966741094194
aF-0.0023217830524312768
aF-0.004482460128040052
aF-0.00299748605967755
aF-0.011594192762885275
aF0.0
aF0.01827994884538342
aF0.001832646699747158
aF0.004088234574361089
aF-0.009635745619513435
aF-0.01908219874300533
aF0.0035221669760365113
aF-0.004802476643687677
aF-0.002849551683411625
aF-0.004555834296267116
aF-0.03318859837771418
aF-0.03557091073158432
aF-0.0034513052399428442
aF-0.0028817644835882512
aF-0.006697355695980762
aF-0.008287793707132231
aF0.003872144898055198
aF-0.25285590865158836
aF-0.17102781874775222
aF-0.014084294455486366
aF-0.08214305647406354
aF0.005494623901035816
aF-0.002539520428986493
aF-0.004355228508287305
aF0.007041399818804973
aF-0.041495434160311394
aF-0.004610932912434035
aF-0.0014730802774703922
aF-0.010852860077501003
aF-0.004017036799841143
aF-0.004029307937072725
aF-0.006911974567972788
aF-0.011382487471754889
aF-0.004822475867915332
aF0.0044935459664957895
aF-0.009089167373657305
aF-0.007333467668361701
aF0.00546952932666715
aF0.0009095745158030398
aF0.0
aF0.006848737249907604
aF-0.004784690756514018
aF-0.022266021383296808
aF0.0
aF-0.015835645466070122
aF-0.02411031279497766
aF-0.24097754783589406
aF-0.0092068407736694
aF-0.004133912260670008
aF-0.008208603916881699
aF-0.016035993079668465
aF-0.003833236406361038
aF-0.0076180384688549225
aF0.0
aF-0.003913649729996186
aF-0.026581691254840657
aF0.0
aF0.0015682908226577518
aF-0.001810265046823454
aF-0.0015432335587150681
aF0.0
aF-0.005419619847820254
aF-0.007594141927118273
aF-0.007967017369086187
aF-0.0009715058249843739
aF-0.003366330836391683
aF-0.004701888259038927
aF-0.008699830915892857
aF0.005628679929147114
aF0.0
aF-0.0037756454149227288
aF-0.016188403650076188
aF-0.004139578945299669
aF-0.004499553156116543
aF0.005639238462804626
aF-0.008683106441080505
aF-0.014198528809081507
aF0.005828772640104714
aF-0.023803573888804604
aF-0.0031060075985353186
aF-0.0023391778092166035
aF0.007354610736322652
aF0.000926812368682116
aF0.0
aF0.0
aF-0.0030925665567703192
aF-0.0014427037242508173
aF-0.004973393985445046
aF0.0
aF-0.015595284895287956
aF-0.005089623772203165
aF-0.004440328522254349
aF0.006326086563848983
aF-0.003503948345804994
aF-0.0029587356220595606
aF0.007169253667651701
aF-0.0032567918683494685
aF0.0013932166719231869
aF-0.029814480617313458
aF0.0013237951733661418
aF-0.028440341511963275
aF0.004463422591726121
aF-0.013997985157136333
aF0.005280812295772643
aF-0.21838171449860524
aF0.0
aF-0.007965546087067512
aF-0.000717014598712274
aF-0.01289848347525234
aF0.0
aF-0.004540234026852957
aF0.001275445926819367
aF-0.05388445819993814
aF0.006788623276221267
aF0.0
aF-0.0022663141938378357
aF-0.004524878382786128
aF-0.011349354679344436
aF-0.013159364727037772
aF-0.004269374028489089
aF-0.014756862136121339
aF-0.001666940546318797
aF-0.004767998259387693
aF-0.003968780462327312
aF0.0051070446369661715
aF-0.02263613173244087
aF-0.0387281146525089
aF-0.004796401725015603
aF-0.008566950668240685
aF-0.006417798632694251
aF-0.029814480617313458
aF0.0
aF-0.009167489919684756
aF0.014803025736949402
aF-0.00425467231051397
aF-0.004606472140506346
aF0.004527492934153889
aF-0.015092196741977424
aF0.005596443640395274
aF0.0
aF-0.0038845200388496516
aF0.0039093860586678734
aF0.002392050944312401
aF-0.00046221683304471534
aF0.0
aF-0.014018764932019654
aF-0.011838548496029576
aF0.0
aF-0.015632786700388417
aF-0.01580539754626063
aF0.0
aF0.0
aF-0.007967309171411821
aF-0.06232335181334111
aF0.0
aF-0.009739356037425224
aF-0.0021796202012815836
aF-0.004288592935342373
aF-0.03547967655091581
aF0.007169253667651701
aF-0.014404032046780596
aF-0.0048824408772124035
aF-0.00832188464259851
aF-0.013886894267673915
aF-0.004465399232845569
aF-0.019422591206687857
aF0.007255868326727044
aF0.006353289072003188
aF0.0
aF-0.005932973547551794
aF-0.011965057432516607
aF0.006687557420914002
aF-0.004996008972908335
aF0.0
aF-0.019418425119637865
aF-0.028911074243311574
aF-0.002672053673536641
aF-0.009472018128848254
aF-0.0030925665567703192
aF-0.021811842668750234
aF-0.01420540791349234
aF-0.016479525746514186
aF-0.008673519403383139
aF-0.0030144220094343935
aF0.009609081562516827
aF-0.0046690942379249345
aF-0.004701888259038927
aF-0.011377289487531264
aF-0.019349694260103377
aF-0.009778368003140895
aF0.0016250494784229783
aF-0.009527993274287144
aF-0.0030925665567703192
aF-0.03158264798760745
aF-0.03312634331856252
aF-0.006513442426996286
aF-0.004413092193462237
aF0.0
aF0.004732116000624763
aF-0.0016427237792277566
aF-0.02221112779349043
aF-0.007387320678076849
aF-0.16240620781444864
aF-0.008903701875014937
aF-0.031792811569039944
aF-0.01008319626731848
aF-0.01916493331420306
aF-0.05386328713509014
aF-0.0032254939277109656
aF-0.0009643243157799104
aF-0.11777783570059021
aF-0.00505665247979324
aF0.005683294143926036
aF-0.00856855878180469
aF-0.0006492260014799183
aF-0.007860319393644585
aF-0.013280191863804275
aF0.007429231712305684
aF-0.01395915736666627
aF-0.01099270941975724
aF-0.023027486944396387
aF-0.02824890119401571
aF0.0
aF-0.012470283009333697
aF0.0024830087297694633
aF-0.0013471875042262444
aF0.009562019321241183
aF0.0007647654740210548
aF-0.001679669991961567
aF-0.004651426686403894
aF-0.008755140259791214
aF-0.019696858646858502
aF-0.016999268512956713
aF-0.00814294216085442
aF0.005373598066156957
aF-0.009401905368830225
aF0.004971621748276762
aF0.007088301204247817
aF-0.0221450304537227
aF-0.019458701686297188
aF0.006039810538631522
aF-0.007271066523054717
aF-0.009457423655526848
aF-0.01501830641911822
aF0.0
aF0.0
aF0.0008043463382561115
aF0.0068856035075419535
aF-0.008678916237437124
aF0.00670003648341526
aF-0.006717001545234494
aF-0.004856567886691283
aF-0.00817850801687374
aF-0.0046690942379249345
aF-0.006649189005016931
aF-0.003052108632188984
aF-0.0028884338755616637
aF-0.0065000104294448535
aF-0.004700918630056636
aF0.022500785308795394
aF0.009744109946926977
aF-0.0023659015611647064
aF-0.015557971843396664
aF-0.004620760246226324
aF-0.009462108428378652
aF-0.008549945968290257
aF-0.007607974856076242
aF-0.006766641796162208
aF0.0
aF-0.002791263286747921
aF0.007309067511936356
aF0.003304883930624934
aF-0.018268661247220774
aF-0.0027624418957409784
aF-0.009471492713829278
aF0.009913672488392453
aF-0.004309547955597396
aF-0.14753299714739726
aF0.0029150198072961245
aF-0.004788176855403187
aF-0.002878317495173473
aF-0.04528020407949762
aF-0.028895074590799662
aF-0.004655147103320693
aF-0.004399177165874958
aF-0.00863764623256361
aF-0.07105189677425933
aF-0.02896062265291169
aF-0.0021468050129646336
aF-0.002991234068273119
aF0.0
aF-0.010041361350315758
aF-0.010363809785267714
aF-0.0018652289949266615
aF-0.0025513671222109732
aF-0.003920458390919138
aF-0.018623260133532164
aF0.006677058164960168
aF-0.01152550405192005
aF-0.015427460554074617
aF-0.016983512685344218
aF-0.0033138728096405567
aF-0.00386985277748723
aF-0.004818746512581811
aF0.01844099751788593
aF0.0
aF-0.007255603003778259
aF0.0
aF-0.00912862640066218
aF-0.00912862640066218
aF-0.012982971324600877
aF-0.011815873276626261
aF0.005596443640395274
aF0.0
aF-0.0045293260726335435
aF-0.004283225485620164
aF-0.003833236406361038
aF-0.004818746512581811
aF-0.015969910470376585
aF0.0029841018256821185
aF0.00892726619001601
aF-0.004570509108203036
aF0.003091065773529859
aF-0.0035255877815568277
aF-0.0035418334244244187
aF-0.017617974685027966
aF-0.003894005161002516
aF0.0
aF0.0011067982745520569
aF-0.011139385840067306
aF-0.0044028607063207135
aF0.008437270817438275
aF-0.004784690756514018
aF-0.017076287376440527
aF-0.004265262187187487
aF-0.004649898682425392
aF0.006842469014706937
aF0.0
aF-0.041933101384451214
aF-0.002522539406947715
aF-0.011760499298297658
aF-0.008190475258981065
aF-0.004595229876630765
aF0.005249851390387637
aF-0.00592710891589776
aF-0.008285299381585363
aF-0.013142462695263018
aF-0.0032921663731239
aF0.0
aF0.0074021340229489
aF0.0
aF0.0
aF0.006837286265414374
aF-0.002673881199988971
aF0.0
aF-0.00882944017689985
aF-0.004853824638421692
aF0.0
aF0.007189704551811027
aF0.0
aF-0.004697668196911902
aF-0.003583080082477217
aF-0.004485531656640608
aF-0.0046690942379249345
aF-0.013548712800060567
aF-0.010760710745617123
aF-0.0048940800606674705
aF0.0
aF-0.02668363646127894
aF-0.0021437034713089813
aF-0.016528271988787247
aF-0.0037822986536493884
aF0.0074021340229489
aF0.018623405823174025
aF-0.024332782279339174
aF-0.016721261951770025
aF-0.004411376908408095
aF-0.00310098548148619
aF-0.002702959514329546
aF-0.008550854493638871
aF-0.008387770307161093
aF-0.003833236406361038
aF-0.004273453167001497
aF-0.007233720883547363
aF-0.022241563411586805
aF0.005985054550977316
aF0.0074021340229489
aF-0.004764332560758252
aF-0.0046690942379249345
aF-0.004994122716953541
aF0.004674874753339083
aF0.005596443640395274
aF0.0018760541685839283
aF-0.0028884338755616637
aF0.0
aF-0.004170783967498443
aF-0.004398846012265017
aF-0.004182129085935035
aF0.006677058164960168
aF0.0
aF-0.00761359710931266
aF-0.00855544978820608
aF-0.011264455414022153
aF-0.011258502228187084
aF-0.012412180561396806
aF0.0050899427522761095
aF-0.0025557965413653258
aF-0.004333635316116803
aF-0.00484978906809064
aF-0.015718522615157774
aF-0.004260224786808529
aF-0.004820777268763725
aF-0.007456971510658098
aF-0.018763988084890937
aF0.006235110924634754
aF-0.003025038290804406
aF0.007051626838106086
aF-0.003833236406361038
aF0.013015040685816843
aF-0.0043301180919457305
aF0.001508297865698639
aF-0.0033844015220864704
aF-0.004302771142561952
aF-0.012269000149152741
aF-0.004972326020609624
aF-0.01780773536686464
aF-0.004313753029720908
aF-0.0026900024887989717
aF0.005301519397320531
aF-0.006750130937882293
aF0.006163819134064834
aF-0.007762651566563639
aF-0.012591098552547454
aF-0.0032921663731239
aF-0.003894005161002516
aF-0.002539520428986493
aF0.0
aF-0.035661518061410595
aF-0.003973548512307474
aF0.005318817010264712
aF0.0050293983468215255
aF0.005179258125050219
aF0.0
aF0.0
aF-0.0006484918135102667
aF-0.004958592291023819
aF-0.00415078727625758
aF-0.003447635183479514
aF-0.005716623559416966
aF-0.035626910208547864
aF-0.003018207318647672
aF-0.014430069343944245
aF-0.012299022209330705
aF-0.10585528491182207
aF-0.001193174190262352
aF-0.004398846012265017
aF0.0018760541685839283
aF-0.004793704036935785
aF-0.012479030232350412
aF-0.008051125272354506
aF-0.004784690756514018
aF-0.004170783967498443
aF-0.003894005161002516
aF-0.0046690942379249345
aF-0.008327494648601308
aF-0.006531403077272057
aF-0.03854518126995509
aF0.0018872454410008028
aF-0.004906459862865073
aF-0.004320792850445072
aF-0.004958592291023819
aF-0.003833236406361038
aF0.0033523395551385013
aF-0.0038126156433471205
aF-0.007263304468222959
aF-0.012958012831573142
aF-0.0048388919275757355
aF-0.0028484995392775714
aF-0.004638979433231555
aF0.001780538900513366
aF0.006120419450495286
aF0.0
aF-0.026285905187422385
aF-0.017431336924351577
aF0.0
aF-0.006178100608375403
aF-0.021360899311048995
aF-0.0049032551733567565
aF0.0
aF-0.011204091342335546
aF-0.0075381280428528825
aF-0.06677160134281476
aF0.004874081085094492
aF-0.055276136200880795
aF0.005866816562560158
aF-0.12197481440186139
aF-0.0045884651406433805
aF0.00635133942012772
aF-0.004842615241022871
aF-0.02704986925035625
aF-0.0025770933474920984
aF0.006355754330102515
aF0.0
aF-0.13479287065456055
aF-0.004073499603008025
aF0.002736032084486033
aF-0.0072879046520225544
aF0.005393584492614496
aF0.011366590504507163
aF-0.14395970874724384
aF-0.026029697434874176
aF-0.014831811700795861
aF-0.039779396517751926
aF0.006399067086794645
aF-0.15741313259081804
aF-0.0035999561871374224
aF-0.004100884463014169
aF-0.007937967338224326
aF-0.002539562683961879
aF-0.0026236305452355907
aF-0.007184515118303182
aF0.003852280359580855
aF-0.0038493071282389374
aF-0.0044940537650265825
aF-0.01830851082788066
aF0.0001916756500977858
aF-0.005050567889664469
aF0.0007170325466371386
aF-0.0686303775388987
aF0.014847322932782122
aF0.0070819630349873595
aF0.00017048340353998086
aF-0.004665313608988396
aF-0.0044940537650265825
aF-0.0019921735782384544
aF-0.002903227369760492
aF-0.022258810981226035
aF-0.012916125085966
aF-0.023922753498483267
aF-0.00701420053979651
aF0.0074113217772726475
aF0.0
aF0.017991107234326342
aF0.0073503108116600106
aF0.005568720736535632
aF-0.08186263067887664
aF0.005371692090876818
aF-0.020483719953908054
aF-0.055042396409175985
aF-0.0034383982252280936
aF-0.0067056795675864336
aF-0.00281280813482472
aF-0.012764126025134187
aF-0.018582470936301873
aF-0.00048003015435664183
aF0.0003355478221485947
aF0.0
aF0.00872131521486469
aF0.00042189448670536473
aF-0.017683801485944936
aF-0.0006977610170998663
aF0.0002784522300128263
aF-0.011889329479855312
aF-0.003147326442649722
aF-0.006719140899640125
aF-0.03438842611416398
aF-0.005135948865875071
aF0.005845810477713598
aF0.008104033536635873
aF-0.003104762547339024
aF0.005851961446838418
aF-0.01632746736051537
aF-0.08291377395681519
aF-0.04779541095318754
aF0.007436871891088852
aF0.0
aF-0.02829479166340171
aF-0.010921231047437478
aF-0.008488683097191745
aF0.004134928479125584
aF0.0021683227363712265
aF-0.001247255619720319
aF-0.00033074380464466675
aF0.02082703325597366
aF-0.004409065065071708
aF0.008218626737176023
aF-0.021911377970755777
aF-0.01320161582946077
aF-0.0036218133159548484
aF-0.005567329041587362
aF-0.034943850136099144
aF-0.0015561231269468402
aF-0.017877018250413323
aF0.0006159524990529308
aF-0.005673209692413418
aF-0.0012595224675219143
aF0.00016067219735625476
aF-0.0022356667033097033
aF0.0004351915862771588
aF-0.001539513027792092
aF0.004326443429238848
aF-0.0013471875042262444
aF0.0
aF0.00650585901197235
aF0.009321213076223947
aF-0.0015587387197489395
aF-0.0020214944604057972
aF-0.0033264472430762186
aF-0.0114995097274199
aF-0.002150547438998115
aF-0.10318292055093012
aF0.014146306829665974
aF0.000711843046320461
aF0.013084794450392009
aF-0.007971119783542351
aF-0.010136488416400104
aF0.0013786260435785503
aF-0.015272294105375802
aF-0.002251782642381935
aF-0.0030659434839365417
aF-0.0016183691571179607
aF-0.0017844456703692687
aF0.0
aF-0.001686423265459495
aF-0.001356960327081413
aF0.007166373617687388
aF-0.0037735418449419567
aF0.0
aF-0.0016098113777223508
aF-0.025223252261982083
aF-0.022952502608899073
aF-0.0012371230280332803
aF-0.008274194860774292
aF-0.008341580942209987
aF-0.004138444635353599
aF0.0
aF-0.014513567750093822
aF-0.013276158446626343
aF0.00507125758468704
aF0.005943830075430637
aF-0.014418082228843832
aF0.007862534112820991
aF0.005006114981765423
aF0.005763767473575404
aF0.00043750120237699914
aF0.0026953534615720733
aF-0.01650800724280698
aF-0.002302482741862355
aF-0.014478776370800868
aF-0.004698052151453702
aF-0.006669304658634383
aF-0.00280942666795844
aF-0.008760713709715583
aF-0.0045418007329712465
aF-0.005943273993360397
aF-0.026184300759431615
aF-0.05606806872877688
aF-0.004488128682968853
aF-0.004475871719254437
aF0.00014335102110816416
aF0.018463944863698928
aF-0.030055748541875357
aF-0.004143470453887867
aF-0.0036092688383232976
aF-0.022749806309857637
aF-0.0024914518084927385
aF-0.0016531516891283907
aF-0.003696815773467552
aF-0.06235242741612902
aF-0.004330765495422161
aF-0.0047212166207438976
aF-0.0035255877815568277
aF-0.03357255080998811
aF-0.003040001814940016
aF-0.002984053749556499
aF-0.008885643543346571
aF-0.0037920291366996596
aF0.0038717534158591877
aF-0.003154274283303561
aF-0.005368428780260013
aF-0.0011673634893076311
aF0.009309773004548166
aF-0.003149058954352387
aF-0.003018207318647672
aF-0.06136553180612204
aF-0.0026776771959543194
aF-0.027361776626174363
aF0.0014656330522106094
aF-0.0031546521682960715
aF0.007882559980635775
aF-0.019168507235654293
aF0.0007929110698397491
aF-0.003372340676482343
aF-0.0017716908872786822
aF-0.003944413463352042
aF0.007255868326727044
aF-0.0069738231524082
aF-0.0023131239504599714
aF-0.0028102669649593967
aF-0.0021906252655313277
aF0.005893212025474868
aF0.021346925669104944
aF-0.009939258408468033
aF0.008122647594313456
aF-0.005643245209912577
aF-0.00221135041892941
aF-0.0020448960859520845
aF-0.0025429883200095054
aF-0.00047103075836182364
aF-0.007170653216963169
aF0.0019374731215717794
aF-0.007086811008787648
aF-0.003616536199174066
aF0.00044671795772277794
aF-0.0368834938584955
aF0.009309773004548166
aF-0.004443025276794645
aF-0.004891889402674245
aF-0.004776035691090593
aF-0.02050132518046011
aF0.0018960134724210665
aF0.031567890169687016
aF0.01952053604242631
aF0.004878645018583468
aF0.003265270245963304
aF-0.00040546120020821304
aF-0.008214262413235087
aF-0.14075397157003305
aF-0.00019303947971971566
aF-0.009503231155526145
aF-0.0367374299840783
aF-0.004452527144485442
aF-0.0017716908872786822
aF-0.0133322177006374
aF0.007131012006800939
aF0.003394317648219335
aF-0.023688823760593173
aF-0.0035255877815568277
aF0.004014519147133795
aF0.01359022788391269
aF-0.0015561231269468402
aF-0.007827363510849393
aF0.0037089805112971133
aF0.006086714910192039
aF-0.009108223956867952
aF-0.0028418042101843836
aF-0.003896598333475744
aF-0.0046524214118103145
aF0.00883292739218758
aF-0.008088587953505427
aF0.007666167361872273
aF0.016104175441340202
aF-0.006557300642901279
aF-0.0033844206949231233
aF-0.006097194021531657
aF-0.005563534795835423
aF-0.004784294166755008
aF0.006193360728438207
aF-0.0026776771959543194
aF-0.0339409408339748
aF-0.011779137750882789
aF-0.0012585449402490905
aF-0.022853835077282704
aF0.002458314827340321
aF0.004189161248871424
aF0.0019291103454951546
aF-0.011754858052336219
aF-0.008534775034951191
aF-0.019876721707368643
aF0.0
aF0.0039023028429929357
aF-0.0071780702029097445
aF-0.00446192063419447
aF-0.014190279576532152
aF-0.0022141830844448133
aF0.009562019321241183
aF0.014915318371184856
aF-0.023753106719916962
aF0.0052884160985989075
aF0.0
aF-0.021097300007435604
aF-0.020616690006891623
aF-0.024806770010482107
aF-0.009119164303627884
aF-0.008685396462698006
aF-0.002698391984845932
aF0.0025842524635002395
aF-0.0014385921324843345
aF-0.003154274283303561
aF-0.014110290724998566
aF-0.0036949027533503044
aF-0.0481096849743436
aF-0.010366563893394623
aF0.0
aF-0.004614118911995238
aF-0.00047103075836182364
aF0.00442714432506064
aF0.00401171242479953
aF-0.002917465054475042
aF-0.014128884956246219
aF-0.0029543305929884585
aF-0.0961073739070558
aF-0.00830136648009195
aF-0.0044327254839764355
aF-0.021801908975552453
aF4.4862785939634884e-05
aF-0.0033958952208346833
aF-0.018238570943482302
aF-0.0056239702941991675
aF-0.004475575350720394
aF-0.0041437019733910506
aF0.013258920231780073
aF-0.002005472506754545
aF-0.012691060342470147
aF-0.016067605890064902
aF-0.0041461597035879014
aF-0.004424810399448629
aF-0.00946434061122808
aF-0.005046370014286074
aF-0.04131732427859584
aF0.0074935599726029065
aF-0.0019195656215479657
aF-0.05081735588030396
aF0.0055565916357628075
aF-0.009902168659301809
aF-0.0029854124307952916
aF-0.007842547192602018
aF-0.004334462068190226
aF0.00018158226753315861
aF0.00227874123243286
aF-0.012082815117875264
aF-0.01834823761169776
aF-0.011542133269772782
aF0.007492444565907458
aF0.006900164209559204
aF-0.0027097948362381015
aF-0.004266111445858097
aF0.008218626737176023
aF0.005062911990422726
aF-0.007352861738120878
aF-0.0018383174946427381
aF0.00026856861109406956
aF-0.0015561231269468402
aF-0.02173745081831208
aF-0.0008679450216752304
aF-0.013230379634008863
aF0.0057539065459038165
aF0.0016611954740184958
aF-0.02680829855776968
aF-0.002844473698581699
aF-0.0028817644835882512
aF0.0027979161116404795
aF-0.042796396629347026
aF0.021531760563433193
aF0.009884054402156296
aF-0.009863246007819463
aF-0.004594770609053365
aF0.0
aF-0.012038997913860145
aF0.007761518235053883
aF-0.11232853106361627
aF0.0033887939128321993
aF-0.02368205496329957
aF0.007882559980635775
aF-0.004661325422879496
aF-0.0259434841527171
aF-0.008607097616036806
aF0.009977924963165843
aF1.31906077590737e-05
aF0.0
aF-0.09876543416435311
aF0.005620405569873458
aF-0.023797404151353535
aF-0.005897966712831803
aF0.007319451811040785
aF-0.00221135041892941
aF0.007604238825085024
aF-0.002388079240137959
aF-0.03869181682509004
aF-0.009901056279233465
aF-0.003014719334395713
aF-0.018246476877670934
aF-0.0022750953434310228
aF-0.034090562096866936
aF0.00012711055256115302
aF-0.02832387209090204
aF-0.01379062936870402
aF-0.0036590472918673262
aF-0.030012993585196098
aF-0.004411376908408095
aF-0.010590996257461528
aF-0.014749066269380735
aF-0.06539835861925529
aF-0.0037312174514352336
aF-0.13333473014054098
aF0.0017909293614028297
aF-0.016149291896466432
aF0.0
aF-0.004880924172116641
aF-0.007249597551806433
aF0.006900164209559204
aF-0.024591066793659182
aF-0.029556967390950064
aF0.006014070421031648
aF-0.0030704822632347433
aF0.008758905133844832
aF0.007973364408536947
aF0.004789809632650074
aF-0.0033844206949231233
aF0.011048083759170605
aF-0.02144174395000217
aF0.003595882812253227
aF-0.009268880652299598
aF-0.001924341230201005
aF-0.003551213649355353
aF-0.010455970259324699
aF-0.002750862665506075
aF-0.09311300712540428
aF0.001385473264833628
aF-0.002115325649975265
aF-0.0002267023693742796
aF-0.004251201222360552
aF-0.0048940800606674705
aF0.006036414276668787
aF-0.01327306771086024
aF-0.009737691307956136
aF-0.00698023057563035
aF0.0064566139764805405
aF0.006211836987279741
aF0.0004717043556182128
aF-0.004070911238171318
aF-0.003965753530797578
aF-0.0033840363562959485
aF0.009712332761997233
aF-0.04227598597903336
aF-0.0018194251635709952
aF-0.13089444920416046
aF0.004726676123135301
aF0.002027947353620537
aF-0.0046253665262487795
aF-0.004957655270572419
aF-0.010976733355423075
aF-0.017963805782941166
aF-0.009897826162465897
aF-0.02344100750173375
aF-0.006732665280446733
aF-0.02318304054562207
aF-0.0025597724388558415
aF-0.0047730338956084705
aF-0.014880366495061671
aF-0.0006221181489919499
aF-0.0009958046486431287
aF0.019852503256790277
aF0.005936680013069192
aF-0.1457159783867016
aF-0.0023032708335937657
aF-0.003971246736396384
aF-0.02845714591269128
aF-0.003367199409959733
aF0.0007383457416626941
aF-0.0016522109321922785
aF-0.0025168719382044104
aF0.0035169504819911137
aF-0.004587552267594676
aF-0.004064649904769528
aF-0.00815070525262692
aF-0.002090054527445972
aF0.00587262613540874
aF-0.002941001545649915
aF-0.0016244745684019836
aF-0.050030649741041856
aF-0.1168454820659657
aF0.005397118913203631
aF-0.03246774631474591
aF-0.004670380327183941
aF0.012201531887768539
aF-0.06943736679534995
aF-0.016545323312615993
aF0.0004884619140137312
aF-0.009699559901441005
aF0.007866644814906155
aF0.006447804568577744
aF-0.007378284639545907
aF-0.03876349348639395
aF0.0
aF-0.0011515581065890525
aF0.007028906663551418
aF0.0060079348880150716
aF-0.003018207318647672
aF-0.007664919758511043
aF-0.040957520059388165
aF-0.003154274283303561
aF-0.009937515014992147
aF-0.004220407934750521
aF0.0
aF-0.016168979603939156
aF-0.0034513052399428442
aF-0.009614867428773197
aF-0.010834771078228108
aF-0.004938984821398154
aF0.007761518235053883
aF-0.0417036835435869
aF-0.010133692074049162
aF-0.028069986997275174
aF-0.0023131239504599714
aF-0.028580381039680407
aF0.00245367901034031
aF0.0016945200926339484
aF0.0010255708081860816
aF-0.004330765495422161
aF-0.024970659764657472
aF-0.22802494256753283
aF0.002723570029725366
aF0.002829340049508279
aF0.0007654980978181937
aF-0.002299616458950985
aF0.0
aF0.0025506402790363156
aF-0.0005904596005488481
aF-0.004318133832424425
aF0.003989669335141424
aF-0.09893223657237313
aF-0.03733997245946931
aF-0.002797431994516775
aF0.00024806614542538345
aF-0.00047103075836182364
aF-0.005206468500290893
aF0.0011698626813568007
aF0.008684731093928078
aF-0.0007564612623658837
aF-0.0016095263444574248
aF0.0
aF-0.005905811007681989
aF0.00053622311567739
aF-0.002987544257672543
aF-0.00047103075836182364
aF-0.0038524623768163447
aF0.0
aF-0.012880696655073172
aF-0.003041119615784388
aF-0.033434193729273434
aF-0.006618631238458382
aF-0.004420767700901643
aF0.012613382760177889
aF-0.03133941834988604
aF0.0
aF-0.004303215522871853
aF0.012425526299278618
aF0.01139805187087432
aF-0.0038845200388496516
aF-0.007699847955784586
aF-0.007474038349975041
aF0.0063688666717974
aF-0.09755136392234118
aF-0.006746264166628111
aF0.0
aF-0.0011936527252283827
aF0.01610239897351949
aF-0.005316986252619868
aF0.009609081562516827
aF-0.00369381217979433
aF-0.005624932205532607
aF0.0011556433322198328
aF-0.006409368271435519
aF-0.0218792148150203
aF0.00028344009843184236
aF-0.002277783888168162
aF-0.009055087257961504
aF0.0012589414324737306
aF-0.022950749729647384
aF-0.001623567546257042
aF-0.011284811885727702
aF-0.0025858969712882303
aF-0.007771324982399339
aF-0.00021896511741523986
aF0.005280812295772643
aF-0.00047103075836182364
aF-0.004579294114161916
aF-0.004458715066828573
aF-0.00047103075836182364
aF0.00039407208986991064
aF0.00040355408232696857
aF0.0014135731706611367
aF-0.004450632016896777
aF-0.0030144220094343935
aF-0.09315375076310818
aF0.0
aF0.0054236083694260825
aF-0.004330765495422161
aF-0.01695163014611204
aF-0.01012263050363017
aF-0.003154274283303561
aF-0.009037528723095772
aF-0.004014811059717561
aF-0.011254787496390728
aF-0.0028817644835882512
aF-0.0036032674174967883
aF-0.001686423265459495
aF-0.0035250277332523495
aF0.008019795296022805
aF-0.009202669278401954
aF0.007661546502931806
aF0.0
aF-0.002916807815486371
aF-0.00327459493102851
aF-0.020115971711988763
aF0.005600152618592754
aF-0.00358798460876991
aF0.009562019321241183
aF-0.0004432010134082381
aF-0.006467503118361667
aF-0.02603020186208492
aF-0.1543132621851151
aF-0.0027468271391247042
aF-0.029984930542953866
aF-0.002230960317097235
aF-0.0038879085240355556
aF-0.01837120841649639
aF-0.041794749274163503
aF-0.02628430157833174
aF0.021975871857993313
aF0.002654576264582637
aF-0.0015230579709567104
aF-0.00422544531257674
aF0.005749269007782727
aF0.007255868326727044
aF0.0
aF0.00020047574687872378
aF-0.0037849836119660312
aF-0.002504283428150421
aF-0.005090715308212465
aF-0.01667103466238195
aF-0.008188240638845884
aF-0.003620935963951717
aF-0.0013471875042262444
aF0.00872248267853666
aF-0.0008428350856269865
aF0.007542514230950793
aF-0.05104388101413784
aF-0.1314837246159559
aF-0.003490500034158408
aF0.0
aF-0.003184659754895587
aF-0.020231716866321473
aF-0.0017222530739910216
aF-0.004048795953447546
aF0.0034828521280638866
aF-0.010515611235907907
aF0.028093051198369082
aF-0.06492086472371238
aF-0.018336446126323267
aF-0.007124783377618149
aF0.0
aF-0.006789849088273159
aF0.00628246825764212
aF-0.02272857728384733
aF-0.00391361299533863
aF0.013029792261583219
aF-0.0033378561253156825
aF0.005216336952447885
aF-0.002952496010109283
aF0.005057375988546342
aF-0.008315428172649589
aF-0.007211606858168089
aF-0.04131853972265924
aF-0.0013237195371517282
aF-0.008607895560582272
aF0.007272178185544606
aF0.008445110130067615
aF-0.01566595705114221
aF-0.01643502388432897
aF0.010245990465177764
aF-0.008237522575795972
aF0.018677340612376366
aF-0.01182430648179257
aF-0.019083217104051056
aF0.006848737249907604
aF0.0057063093217963635
aF-0.002256973988796592
aF-0.009409068067436611
aF-0.010204329634854008
aF0.007129062811386391
aF-0.10413855071463447
aF0.00883292739218758
aF0.009234262110112103
aF0.011876601461563505
aF0.01430888375864282
aF0.0006412919223617855
aF0.01087376630746388
aF-0.0030185790926161257
aF-0.0016283959341747342
aF-0.07962905146126087
aF-0.00047103075836182364
aF-0.03789245661524939
aF-0.021855708453727613
aF0.0052988677300496705
aF-0.0009356294301910129
aF-0.0658452920966554
aF0.0
aF0.009282078823873195
aF-0.005146267431804247
aF0.008347674448787442
aF0.003224495041180955
aF-0.003693889854414646
aF-0.12532349531521703
aF0.0
aF-0.0038566239207811783
aF0.00252844562711076
aF0.00546952932666715
aF-0.040999633902184494
aF0.006781761935886988
aF-0.1501634162498228
aF-0.004587829124392132
aF-0.14403122098988033
aF-0.002757306168555675
aF0.009653022637107737
aF-0.027255967316251524
aF-0.06745425996391508
aF0.002929774440606855
aF-0.005138969930239116
aF-0.010269858794402575
aF-0.003414826192752262
aF-0.008701688298985225
aF0.002980588485511386
aF-0.02910617746165971
aF0.0019602495003597834
aF-0.006394968400795814
aF0.005312264780414233
aF-0.0025016669954080538
aF-0.0028817644835882512
aF0.008410155212747763
aF-0.025537135305061395
aF-0.001705098690770583
aF-0.006228061516345589
aF-0.0012091877062679955
aF-0.06376508827212078
aF-0.011426569770350822
aF-0.018442124659025817
aF0.009609081562516827
aF-0.003393054728882556
aF-0.05254951639833953
aF-0.028683782294943623
aF-0.07459480669040712
aF-0.013259883809654507
aF-0.06291111061102152
aF-0.01390916932243106
aF-0.054200146494254704
aF-0.02746512325145207
aF0.010059162160779865
aF-0.007050294716398252
aF0.008082893439554746
aF-0.05413220022778938
aF-0.0032034613503749954
aF-0.03214445613972352
aF-0.003896598333475744
aF-0.0031740711031175853
aF-0.00678957321717893
aF-0.04723118679389997
aF-0.011137621507006215
aF-0.0041462719617077854
aF-0.0012791410204029997
aF-0.0011041793657775596
aF0.0026497397425570154
aF-0.015508851801795669
aF-0.005075848810488306
aF-0.04566165509058579
aF-0.01836964929951909
aF0.012490417532856991
aF-0.010625412470288724
aF0.011134024542350723
aF0.0004748038640453806
aF-0.0457475814949945
aF-0.03669273033581185
aF-0.03806526701797197
aF-0.0022371778438558883
aF-0.021024177018305668
aF-0.02726729613774845
aF-0.02121571179623785
aF-0.007895945703981739
aF-0.046229881350990744
aF-0.013225399709166096
aF0.006521608110046947
aF-0.0008117154886513857
aF0.006126444323577793
aF-0.029084750668434536
aF-0.008905792707304419
aF-0.014935186079803342
aF-0.06427504120545074
aF-0.00023419977818566655
aF0.009977335538112255
aF-0.04617964990966395
aF-0.0009899423592642535
aF-0.0037743899269920356
aF-0.04304504271906537
aF-0.017933719113044127
aF-0.027366302105588016
aF-0.01559351636652287
aF-0.004482810049338682
aF0.0012203847768475866
aF0.0030936120025236405
aF-0.04513644505999448
aF-0.004698949344312195
aF-0.06117165724603611
aF-0.0031704779492589433
aF-0.004831036712560195
aF-0.0035632544148245385
aF-0.0009446667764479354
aF-0.0022371778438558883
aF-0.028669229623866022
aF-0.0011041793657775596
aF-0.002810993375414166
aF-0.0401851363499423
aF-0.011381840902536189
aF-0.08394244530497036
aF-0.009746686220994137
aF-0.0422660770390254
aF-0.0061402615727594555
aF-0.07082983520309621
aF-0.0441107714152279
aF-0.0042972193823905295
aF0.005472469754631134
aF-0.03485193256220706
aF-0.0030859141517363916
aF-0.06653561836631755
aF0.0
aF-0.03973051696839449
aF-0.013779331705923116
aF0.0034121295933937403
aF-0.012791206295879551
aF-0.04493970835812588
aF-0.03422175837348445
aF-0.08884735135042532
aF0.00628716802612723
aF-0.022765704442715355
aF-0.023239546165873207
aF-0.006534072671559631
aF0.0050600969039732565
aF0.01979228970838893
aF-0.00807734451587227
aF0.0063796087360780025
aF0.009296940967994863
aF-0.023115425617495886
aF-0.012503313165812576
aF-0.008388917707070408
aF-0.0166340723616184
aF-0.0582445846724146
aF0.009786716317818092
aF-0.041861796115679396
aF0.0
aF-0.006813529750573252
aF0.010117594812149182
aF-0.018025957531576084
aF-0.009587259070604964
aF-0.028364382219725086
aF0.005606247871539419
aF0.005140726768080939
aF-0.08449815616536535
aF-0.0046531496778397935
aF-0.045852548766142656
aF7.331000109957624e-05
aF0.016322498706991175
aF-0.05111584457980339
aF-0.009741863960223847
aF-0.021206260372386418
aF-0.00819810428877396
aF-0.037034357432222685
aF-0.007815287547500185
aF-0.005976375356454896
aF-0.00803288567932963
aF0.007005778133024376
aF-0.0009446667764479354
aF-0.039900615563589564
aF-0.005423882780262894
aF-0.028817868342946012
aF-0.009163497042363534
aF-0.01079330877779383
aF-0.011679033290943906
aF-0.08238690996169841
aF-0.08448049316214645
aF-0.027787543846408195
aF-0.019505323603439973
aF0.004474964556050248
aF0.009770719687346975
aF-0.08351417313170795
aF-0.0023772964521785725
aF-0.0455151943129711
aF-0.012927420297530585
aF-0.036736302462603065
aF0.005400307030780863
aF-0.04050390777634764
aF-0.050869068232365026
aF-0.00592587893212916
aF0.0012042729619717802
aF0.007350870093551801
aF-0.004420767700901643
aF0.007536916347696867
aF0.0006692946021970027
aF-0.038100484558634684
aF0.0
aF0.002635627524701592
aF-0.0647727673033278
aF-0.01870236532659542
aF0.005057375988546342
aF-0.0037366360965627988
aF-0.017264291855982602
aF0.0016425359249045658
aF-0.07098389274772364
aF0.001349212837679083
aF-0.008722254761309736
aF-0.002159584279526226
aF-0.048236991622279214
aF-0.08093051643272041
aF-0.011602369693893146
aF-0.006042190145045
aF0.0037578451616771687
aF-0.03041568933980145
aF-0.002316189135132183
aF0.0012500442260313656
aF-0.0030070808415550436
aF-0.051565461853883825
aF-0.047016392595171604
aF0.0007635761738170022
aF-0.03398043851135233
aF0.006024477402375049
aF-0.001686423265459495
aF-0.020457944939353215
aF-0.012618087511255972
aF-0.023188270315609927
aF0.016488409480060785
aF-0.04311809953063983
aF0.00990954265568878
aF-0.002449261921422752
aF-0.008020093097218064
aF-0.004515156444606801
aF-0.05278243212844949
aF-0.005163552697032631
aF-0.0026095141685553796
aF-0.005006535454510927
aF0.005059757351917249
aF-0.008086852873074708
aF-0.043683542073294813
aF-0.011506950766214389
aF-0.010922341802011615
aF0.0026397163906604357
aF-0.0036804173972041746
aF-0.005473100592989893
aF-0.016454071487818116
aF-0.04976180342219886
aF-0.015357351801338211
aF-0.006829071900812273
aF0.0016079160528874802
aF-0.002159584279526226
aF-0.03955034114534948
aF-0.03361384727544326
aF-0.019179008564924088
aF-0.00890290692525733
aF-0.0002288997412403528
aF-0.0008927401184522751
aF-0.008712698445672091
aF-0.023715616976826354
aF-0.04304504271906537
aF-0.06176364846025511
aF0.012997154213040128
aF0.009043825620774123
aF-0.0070748719723758985
aF0.0036349851299515416
aF-0.011881112216980263
aF-0.04606048348018073
aF0.00038200410059991845
aF-0.07427202562715043
aF-0.03214343191780846
aF-0.024433382672855997
aF-0.007725633362642616
aF-0.017015600315125702
aF-0.01929936892737989
aF-0.016337904817844542
aF0.01009674462189143
aF-0.07914253622296816
aF-0.002159584279526226
aF-0.04542652682686297
aF-0.05313655342018802
aF0.0002317349674308527
aF-0.019118862038326686
aF0.006112772644352748
aF-0.05701506493686619
aF0.009132813795328782
aF-0.010349773223834109
aF-0.011562667196463518
aF0.012671038039912928
aF0.00816274589854202
aF-0.0024025953877895427
aF-0.00019987032090427014
aF0.004349713514767156
aF-0.0461472902559503
aF-0.09471000346301515
aF-0.0038806468781613958
aF0.005711279420936884
aF0.008418790755668865
aF-0.002857858669645026
aF-0.015421054829231994
aF-0.007741598410845657
aF0.001526247480371677
aF-0.002398347519141697
aF-0.08299679007809264
aF0.005832574440179399
aF0.00017504347165042493
aF0.006009147829194094
aF-0.0461472902559503
aF-0.0015367439914889688
aF-0.008282288803104998
aF-0.012653330134077137
aF-0.014123768616933301
aF-0.06741467251478238
aF0.01412990514504208
aF-0.08351852982518461
aF-0.02358820915304078
aF-0.001642034313309525
aF-0.06760024719632782
aF-0.004343976955390123
aF-0.0008062670714465444
aF-0.0004455730525169267
aF-0.005669758906205872
aF-0.10133124215807535
aF0.002169094459387241
aF-0.023992175786935004
aF-0.011273383603129395
aF-0.009203815531794083
aF-0.0026862149378152544
aF-0.013067704134415277
aF-0.001686423265459495
aF0.001977631458112023
aF-0.03772679571135361
aF0.0014371365772940605
aF-0.04891565365031907
aF0.0014764109093378837
aF-0.04252708697671761
aF0.0029119415930011277
aF0.009320554209879988
aF0.0037107149802712647
aF-0.013913840813163427
aF-0.0023772964521785725
aF-0.009347034237538392
aF-0.027787543846408195
aF-0.00280942666795844
aF-0.058150488557188525
aF0.0008097053928171932
aF-0.03559702804002643
aF-0.01870236532659542
aF-0.037267165761492735
aF-0.007001656191756834
aF0.01433872672412864
aF0.0010721523198037998
aF-0.0461472902559503
aF-0.008929377979114904
aF0.013967267327045712
aF-0.0035440301242142275
aF0.0024363529422071935
aF-0.01782079361841373
aF0.0007635761738170022
aF-0.008980233758053865
aF-0.009993681586534601
aF-0.07823219178828845
aF-0.013136029968208356
aF-0.00716110545019129
aF-0.014254615713349338
aF-0.0037375027222172823
aF-0.006123911142920684
aF0.0003069677298036224
aF-0.0186626575970759
aF-0.0017402400581903819
aF-0.001686423265459495
aF-0.04801061110141723
aF-0.005415932468615294
aF-0.002792031643402436
aF-0.015779054347664224
aF0.002532762371257219
aF0.007989156086393825
aF-0.019183809469774812
aF-0.005734840149110149
aF-0.001686423265459495
aF0.0063763640596830136
aF-0.0023422799399533236
aF-0.0032960059915874327
aF-0.01037013478033234
aF0.008728636972401385
aF0.006951236487159027
aF0.0005192516559914842
aF-0.002039604393237396
aF-0.005627108971784238
aF0.001136452768655162
aF-0.07039815827875218
aF-0.01665947974182702
aF0.00604563791453345
aF-0.04171311889584243
aF-0.006600260693924701
aF-0.001686423265459495
aF-0.001686423265459495
asVmu
p9
F0.01
sb.